[
	{
		"ID": 1,
		"Season": 1,
		"Round": 1,
		"Date": "April 23rd",
		"Time": "20:00-21:00",
		"Match": "64 into 32",
		"MatchType": "Individual Elimination",
		"TitleName": "256 Strong",
		"EndTime": "12/8/2019 17:00:00",
		"PushNotificationTime": "12/8/2019 00:00:00"
	},
	{
		"ID": 2,
		"Season": 1,
		"Round": 2,
		"Date": "April 24th",
		"Time": "20:00-21:01",
		"Match": "64 into 33",
		"MatchType": "Individual Elimination",
		"TitleName": "257 Strong",
		"EndTime": "12/8/2019 17:00:01",
		"PushNotificationTime": "12/8/2019 00:00:01"
	},
	{
		"ID": 3,
		"Season": 1,
		"Round": 3,
		"Date": "April 25th",
		"Time": "20:00-21:02",
		"Match": "64 into 34",
		"MatchType": "Individual Elimination",
		"TitleName": "258 Strong",
		"EndTime": "12/8/2019 17:00:02",
		"PushNotificationTime": "12/8/2019 00:00:02"
	},
	{
		"ID": 4,
		"Season": 1,
		"Round": 4,
		"Date": "April 26th",
		"Time": "20:00-21:03",
		"Match": "64 into 35",
		"MatchType": "Individual Elimination",
		"TitleName": "259 Strong",
		"EndTime": "12/8/2019 17:00:03",
		"PushNotificationTime": "12/8/2019 00:00:03"
	},
	{
		"ID": 5,
		"Season": 1,
		"Round": 5,
		"Date": "April 27th",
		"Time": "20:00-21:04",
		"Match": "64 into 36",
		"MatchType": "Individual Elimination",
		"TitleName": "260 Strong",
		"EndTime": "12/8/2019 17:00:04",
		"PushNotificationTime": "12/8/2019 00:00:04"
	},
	{
		"ID": 6,
		"Season": 1,
		"Round": 6,
		"Date": "April 28th",
		"Time": "20:00-21:05",
		"Match": "64 into 37",
		"MatchType": "Individual Elimination",
		"TitleName": "261 Strong",
		"EndTime": "12/8/2019 17:00:05",
		"PushNotificationTime": "12/8/2019 00:00:05"
	},
	{
		"ID": 7,
		"Season": 1,
		"Round": 7,
		"Date": "April 29th",
		"Time": "20:00-21:06",
		"Match": "64 into 38",
		"MatchType": "Individual Elimination",
		"TitleName": "262 Strong",
		"EndTime": "12/8/2019 17:00:06",
		"PushNotificationTime": "12/8/2019 00:00:06"
	},
	{
		"ID": 8,
		"Season": 1,
		"Round": 8,
		"Date": "April 30th",
		"Time": "20:00-21:07",
		"Match": "64 into 39",
		"MatchType": "Individual Elimination",
		"TitleName": "263 Strong",
		"EndTime": "12/8/2019 17:00:07",
		"PushNotificationTime": "12/8/2019 00:00:07"
	}
]