[
	{
		"ID": 1,
		"Name": "Larcuss 25",
		"TeamName": "Lv.25",
		"OpenPlayerLevel": 20,
		"TicketCost": 0,
		"EnergySuccess": 20,
		"EnergyFail": 4,
		"TeamEnergyCost": 16,
		"MonsterLevel": 25,
		"BattleID": 5000,
		"PlayerExp": 20,
		"HeroExp": 90,
		"Gold": 866,
		"DropID": 5010,
		"TeamDropID": 8051,
		"OperationalActivityDropID": 10027,
		"DayBonusDropID": 5001,
		"DayBonusExtraDropID": 0,
		"DisplayRewardCount": 2,
		"Strategy": "",
		"Difficulty": 20
	},
	{
		"ID": 2,
		"Name": "Larcuss 30",
		"TeamName": "Lv.30",
		"OpenPlayerLevel": 30,
		"TicketCost": 0,
		"EnergySuccess": 20,
		"EnergyFail": 4,
		"TeamEnergyCost": 16,
		"MonsterLevel": 30,
		"BattleID": 5001,
		"PlayerExp": 20,
		"HeroExp": 100,
		"Gold": 1062,
		"DropID": 5011,
		"TeamDropID": 8052,
		"OperationalActivityDropID": 10027,
		"DayBonusDropID": 5002,
		"DayBonusExtraDropID": 0,
		"DisplayRewardCount": 3,
		"Strategy": "",
		"Difficulty": 30
	},
	{
		"ID": 3,
		"Name": "Larcuss 35",
		"TeamName": "Lv.35",
		"OpenPlayerLevel": 35,
		"TicketCost": 0,
		"EnergySuccess": 20,
		"EnergyFail": 4,
		"TeamEnergyCost": 16,
		"MonsterLevel": 35,
		"BattleID": 5002,
		"PlayerExp": 20,
		"HeroExp": 110,
		"Gold": 1276,
		"DropID": 5012,
		"TeamDropID": 8053,
		"OperationalActivityDropID": 10027,
		"DayBonusDropID": 5003,
		"DayBonusExtraDropID": 0,
		"DisplayRewardCount": 3,
		"Strategy": "",
		"Difficulty": 35
	},
	{
		"ID": 4,
		"Name": "Larcuss 40",
		"TeamName": "Lv.40",
		"OpenPlayerLevel": 40,
		"TicketCost": 0,
		"EnergySuccess": 20,
		"EnergyFail": 4,
		"TeamEnergyCost": 16,
		"MonsterLevel": 40,
		"BattleID": 5003,
		"PlayerExp": 20,
		"HeroExp": 120,
		"Gold": 1504,
		"DropID": 5013,
		"TeamDropID": 8054,
		"OperationalActivityDropID": 10027,
		"DayBonusDropID": 5004,
		"DayBonusExtraDropID": 0,
		"DisplayRewardCount": 3,
		"Strategy": "",
		"Difficulty": 40
	},
	{
		"ID": 5,
		"Name": "Larcuss 45",
		"TeamName": "Lv.45",
		"OpenPlayerLevel": 45,
		"TicketCost": 0,
		"EnergySuccess": 20,
		"EnergyFail": 4,
		"TeamEnergyCost": 16,
		"MonsterLevel": 45,
		"BattleID": 5004,
		"PlayerExp": 20,
		"HeroExp": 130,
		"Gold": 1750,
		"DropID": 5014,
		"TeamDropID": 8055,
		"OperationalActivityDropID": 10027,
		"DayBonusDropID": 5005,
		"DayBonusExtraDropID": 0,
		"DisplayRewardCount": 3,
		"Strategy": "",
		"Difficulty": 45
	},
	{
		"ID": 6,
		"Name": "Larcuss 50",
		"TeamName": "Lv.50",
		"OpenPlayerLevel": 50,
		"TicketCost": 0,
		"EnergySuccess": 20,
		"EnergyFail": 4,
		"TeamEnergyCost": 16,
		"MonsterLevel": 50,
		"BattleID": 5005,
		"PlayerExp": 20,
		"HeroExp": 140,
		"Gold": 2008,
		"DropID": 5015,
		"TeamDropID": 8056,
		"OperationalActivityDropID": 10027,
		"DayBonusDropID": 5006,
		"DayBonusExtraDropID": 0,
		"DisplayRewardCount": 3,
		"Strategy": "",
		"Difficulty": 50
	},
	{
		"ID": 7,
		"Name": "Larcuss 55",
		"TeamName": "Lv.55",
		"OpenPlayerLevel": 55,
		"TicketCost": 0,
		"EnergySuccess": 20,
		"EnergyFail": 4,
		"TeamEnergyCost": 16,
		"MonsterLevel": 55,
		"BattleID": 5006,
		"PlayerExp": 20,
		"HeroExp": 150,
		"Gold": 2280,
		"DropID": 5016,
		"TeamDropID": 8057,
		"OperationalActivityDropID": 10027,
		"DayBonusDropID": 5007,
		"DayBonusExtraDropID": 0,
		"DisplayRewardCount": 3,
		"Strategy": "",
		"Difficulty": 55
	},
	{
		"ID": 8,
		"Name": "Larcuss 60",
		"TeamName": "Lv.60",
		"OpenPlayerLevel": 60,
		"TicketCost": 0,
		"EnergySuccess": 20,
		"EnergyFail": 4,
		"TeamEnergyCost": 16,
		"MonsterLevel": 60,
		"BattleID": 5007,
		"PlayerExp": 20,
		"HeroExp": 160,
		"Gold": 2564,
		"DropID": 5017,
		"TeamDropID": 8058,
		"OperationalActivityDropID": 10027,
		"DayBonusDropID": 5008,
		"DayBonusExtraDropID": 0,
		"DisplayRewardCount": 3,
		"Strategy": "",
		"Difficulty": 60
	},
	{
		"ID": 9,
		"Name": "Larcuss 65",
		"TeamName": "Lv.65",
		"OpenPlayerLevel": 60,
		"TicketCost": 0,
		"EnergySuccess": 20,
		"EnergyFail": 4,
		"TeamEnergyCost": 16,
		"MonsterLevel": 65,
		"BattleID": 5008,
		"PlayerExp": 20,
		"HeroExp": 160,
		"Gold": 2564,
		"DropID": 5018,
		"TeamDropID": 8059,
		"OperationalActivityDropID": 10027,
		"DayBonusDropID": 5009,
		"DayBonusExtraDropID": 0,
		"DisplayRewardCount": 3,
		"Strategy": "",
		"Difficulty": 65
	},
	{
		"ID": 11,
		"Name": "Kalxath 25",
		"TeamName": "Lv.25",
		"OpenPlayerLevel": 20,
		"TicketCost": 0,
		"EnergySuccess": 20,
		"EnergyFail": 4,
		"TeamEnergyCost": 16,
		"MonsterLevel": 25,
		"BattleID": 5100,
		"PlayerExp": 20,
		"HeroExp": 90,
		"Gold": 866,
		"DropID": 5028,
		"TeamDropID": 8051,
		"OperationalActivityDropID": 10027,
		"DayBonusDropID": 5019,
		"DayBonusExtraDropID": 0,
		"DisplayRewardCount": 2,
		"Strategy": "",
		"Difficulty": 20
	},
	{
		"ID": 12,
		"Name": "Kalxath 30",
		"TeamName": "Lv.30",
		"OpenPlayerLevel": 30,
		"TicketCost": 0,
		"EnergySuccess": 20,
		"EnergyFail": 4,
		"TeamEnergyCost": 16,
		"MonsterLevel": 30,
		"BattleID": 5101,
		"PlayerExp": 20,
		"HeroExp": 100,
		"Gold": 1062,
		"DropID": 5029,
		"TeamDropID": 8052,
		"OperationalActivityDropID": 10027,
		"DayBonusDropID": 5020,
		"DayBonusExtraDropID": 0,
		"DisplayRewardCount": 3,
		"Strategy": "",
		"Difficulty": 30
	},
	{
		"ID": 13,
		"Name": "Kalxath 35",
		"TeamName": "Lv.35",
		"OpenPlayerLevel": 35,
		"TicketCost": 0,
		"EnergySuccess": 20,
		"EnergyFail": 4,
		"TeamEnergyCost": 16,
		"MonsterLevel": 35,
		"BattleID": 5102,
		"PlayerExp": 20,
		"HeroExp": 110,
		"Gold": 1276,
		"DropID": 5030,
		"TeamDropID": 8053,
		"OperationalActivityDropID": 10027,
		"DayBonusDropID": 5021,
		"DayBonusExtraDropID": 0,
		"DisplayRewardCount": 3,
		"Strategy": "",
		"Difficulty": 35
	},
	{
		"ID": 14,
		"Name": "Kalxath 40",
		"TeamName": "Lv.40",
		"OpenPlayerLevel": 40,
		"TicketCost": 0,
		"EnergySuccess": 20,
		"EnergyFail": 4,
		"TeamEnergyCost": 16,
		"MonsterLevel": 40,
		"BattleID": 5103,
		"PlayerExp": 20,
		"HeroExp": 120,
		"Gold": 1504,
		"DropID": 5031,
		"TeamDropID": 8054,
		"OperationalActivityDropID": 10027,
		"DayBonusDropID": 5022,
		"DayBonusExtraDropID": 0,
		"DisplayRewardCount": 3,
		"Strategy": "",
		"Difficulty": 40
	},
	{
		"ID": 15,
		"Name": "Kalxath 45",
		"TeamName": "Lv.45",
		"OpenPlayerLevel": 45,
		"TicketCost": 0,
		"EnergySuccess": 20,
		"EnergyFail": 4,
		"TeamEnergyCost": 16,
		"MonsterLevel": 45,
		"BattleID": 5104,
		"PlayerExp": 20,
		"HeroExp": 130,
		"Gold": 1750,
		"DropID": 5032,
		"TeamDropID": 8055,
		"OperationalActivityDropID": 10027,
		"DayBonusDropID": 5023,
		"DayBonusExtraDropID": 0,
		"DisplayRewardCount": 3,
		"Strategy": "",
		"Difficulty": 45
	},
	{
		"ID": 16,
		"Name": "Kalxath 50",
		"TeamName": "Lv.50",
		"OpenPlayerLevel": 50,
		"TicketCost": 0,
		"EnergySuccess": 20,
		"EnergyFail": 4,
		"TeamEnergyCost": 16,
		"MonsterLevel": 50,
		"BattleID": 5105,
		"PlayerExp": 20,
		"HeroExp": 140,
		"Gold": 2008,
		"DropID": 5033,
		"TeamDropID": 8056,
		"OperationalActivityDropID": 10027,
		"DayBonusDropID": 5024,
		"DayBonusExtraDropID": 0,
		"DisplayRewardCount": 3,
		"Strategy": "",
		"Difficulty": 50
	},
	{
		"ID": 17,
		"Name": "Kalxath 55",
		"TeamName": "Lv.55",
		"OpenPlayerLevel": 55,
		"TicketCost": 0,
		"EnergySuccess": 20,
		"EnergyFail": 4,
		"TeamEnergyCost": 16,
		"MonsterLevel": 55,
		"BattleID": 5106,
		"PlayerExp": 20,
		"HeroExp": 150,
		"Gold": 2280,
		"DropID": 5034,
		"TeamDropID": 8057,
		"OperationalActivityDropID": 10027,
		"DayBonusDropID": 5025,
		"DayBonusExtraDropID": 0,
		"DisplayRewardCount": 3,
		"Strategy": "",
		"Difficulty": 55
	},
	{
		"ID": 18,
		"Name": "Kalxath 60",
		"TeamName": "Lv.60",
		"OpenPlayerLevel": 60,
		"TicketCost": 0,
		"EnergySuccess": 20,
		"EnergyFail": 4,
		"TeamEnergyCost": 16,
		"MonsterLevel": 60,
		"BattleID": 5107,
		"PlayerExp": 20,
		"HeroExp": 160,
		"Gold": 2564,
		"DropID": 5035,
		"TeamDropID": 8058,
		"OperationalActivityDropID": 10027,
		"DayBonusDropID": 5026,
		"DayBonusExtraDropID": 0,
		"DisplayRewardCount": 3,
		"Strategy": "",
		"Difficulty": 60
	},
	{
		"ID": 19,
		"Name": "Kalxath 65",
		"TeamName": "Lv.65",
		"OpenPlayerLevel": 60,
		"TicketCost": 0,
		"EnergySuccess": 20,
		"EnergyFail": 4,
		"TeamEnergyCost": 16,
		"MonsterLevel": 65,
		"BattleID": 5108,
		"PlayerExp": 20,
		"HeroExp": 160,
		"Gold": 2564,
		"DropID": 5036,
		"TeamDropID": 8059,
		"OperationalActivityDropID": 10027,
		"DayBonusDropID": 5027,
		"DayBonusExtraDropID": 0,
		"DisplayRewardCount": 3,
		"Strategy": "",
		"Difficulty": 65
	},
	{
		"ID": 21,
		"Name": "Rayguard 25",
		"TeamName": "Lv.25",
		"OpenPlayerLevel": 20,
		"TicketCost": 0,
		"EnergySuccess": 20,
		"EnergyFail": 4,
		"TeamEnergyCost": 16,
		"MonsterLevel": 25,
		"BattleID": 5200,
		"PlayerExp": 20,
		"HeroExp": 90,
		"Gold": 866,
		"DropID": 5046,
		"TeamDropID": 8051,
		"OperationalActivityDropID": 10027,
		"DayBonusDropID": 5037,
		"DayBonusExtraDropID": 0,
		"DisplayRewardCount": 2,
		"Strategy": "",
		"Difficulty": 20
	},
	{
		"ID": 22,
		"Name": "Rayguard 30",
		"TeamName": "Lv.30",
		"OpenPlayerLevel": 30,
		"TicketCost": 0,
		"EnergySuccess": 20,
		"EnergyFail": 4,
		"TeamEnergyCost": 16,
		"MonsterLevel": 30,
		"BattleID": 5201,
		"PlayerExp": 20,
		"HeroExp": 100,
		"Gold": 1062,
		"DropID": 5047,
		"TeamDropID": 8052,
		"OperationalActivityDropID": 10027,
		"DayBonusDropID": 5038,
		"DayBonusExtraDropID": 0,
		"DisplayRewardCount": 3,
		"Strategy": "",
		"Difficulty": 30
	},
	{
		"ID": 23,
		"Name": "Rayguard 35",
		"TeamName": "Lv.35",
		"OpenPlayerLevel": 35,
		"TicketCost": 0,
		"EnergySuccess": 20,
		"EnergyFail": 4,
		"TeamEnergyCost": 16,
		"MonsterLevel": 35,
		"BattleID": 5202,
		"PlayerExp": 20,
		"HeroExp": 110,
		"Gold": 1276,
		"DropID": 5048,
		"TeamDropID": 8053,
		"OperationalActivityDropID": 10027,
		"DayBonusDropID": 5039,
		"DayBonusExtraDropID": 0,
		"DisplayRewardCount": 3,
		"Strategy": "",
		"Difficulty": 35
	},
	{
		"ID": 24,
		"Name": "Rayguard 40",
		"TeamName": "Lv.40",
		"OpenPlayerLevel": 40,
		"TicketCost": 0,
		"EnergySuccess": 20,
		"EnergyFail": 4,
		"TeamEnergyCost": 16,
		"MonsterLevel": 40,
		"BattleID": 5203,
		"PlayerExp": 20,
		"HeroExp": 120,
		"Gold": 1504,
		"DropID": 5049,
		"TeamDropID": 8054,
		"OperationalActivityDropID": 10027,
		"DayBonusDropID": 5040,
		"DayBonusExtraDropID": 0,
		"DisplayRewardCount": 3,
		"Strategy": "",
		"Difficulty": 40
	},
	{
		"ID": 25,
		"Name": "Rayguard 45",
		"TeamName": "Lv.45",
		"OpenPlayerLevel": 45,
		"TicketCost": 0,
		"EnergySuccess": 20,
		"EnergyFail": 4,
		"TeamEnergyCost": 16,
		"MonsterLevel": 45,
		"BattleID": 5204,
		"PlayerExp": 20,
		"HeroExp": 130,
		"Gold": 1750,
		"DropID": 5050,
		"TeamDropID": 8055,
		"OperationalActivityDropID": 10027,
		"DayBonusDropID": 5041,
		"DayBonusExtraDropID": 0,
		"DisplayRewardCount": 3,
		"Strategy": "",
		"Difficulty": 45
	},
	{
		"ID": 26,
		"Name": "Rayguard 50",
		"TeamName": "Lv.50",
		"OpenPlayerLevel": 50,
		"TicketCost": 0,
		"EnergySuccess": 20,
		"EnergyFail": 4,
		"TeamEnergyCost": 16,
		"MonsterLevel": 50,
		"BattleID": 5205,
		"PlayerExp": 20,
		"HeroExp": 140,
		"Gold": 2008,
		"DropID": 5051,
		"TeamDropID": 8056,
		"OperationalActivityDropID": 10027,
		"DayBonusDropID": 5042,
		"DayBonusExtraDropID": 0,
		"DisplayRewardCount": 3,
		"Strategy": "",
		"Difficulty": 50
	},
	{
		"ID": 27,
		"Name": "Rayguard 55",
		"TeamName": "Lv.55",
		"OpenPlayerLevel": 55,
		"TicketCost": 0,
		"EnergySuccess": 20,
		"EnergyFail": 4,
		"TeamEnergyCost": 16,
		"MonsterLevel": 55,
		"BattleID": 5206,
		"PlayerExp": 20,
		"HeroExp": 150,
		"Gold": 2280,
		"DropID": 5052,
		"TeamDropID": 8057,
		"OperationalActivityDropID": 10027,
		"DayBonusDropID": 5043,
		"DayBonusExtraDropID": 0,
		"DisplayRewardCount": 3,
		"Strategy": "",
		"Difficulty": 55
	},
	{
		"ID": 28,
		"Name": "Rayguard 60",
		"TeamName": "Lv.60",
		"OpenPlayerLevel": 60,
		"TicketCost": 0,
		"EnergySuccess": 20,
		"EnergyFail": 4,
		"TeamEnergyCost": 16,
		"MonsterLevel": 60,
		"BattleID": 5207,
		"PlayerExp": 20,
		"HeroExp": 160,
		"Gold": 2564,
		"DropID": 5053,
		"TeamDropID": 8058,
		"OperationalActivityDropID": 10027,
		"DayBonusDropID": 5044,
		"DayBonusExtraDropID": 0,
		"DisplayRewardCount": 3,
		"Strategy": "",
		"Difficulty": 60
	},
	{
		"ID": 29,
		"Name": "Rayguard 65",
		"TeamName": "Lv.65",
		"OpenPlayerLevel": 60,
		"TicketCost": 0,
		"EnergySuccess": 20,
		"EnergyFail": 4,
		"TeamEnergyCost": 16,
		"MonsterLevel": 65,
		"BattleID": 5208,
		"PlayerExp": 20,
		"HeroExp": 160,
		"Gold": 2564,
		"DropID": 5054,
		"TeamDropID": 8059,
		"OperationalActivityDropID": 10027,
		"DayBonusDropID": 5045,
		"DayBonusExtraDropID": 0,
		"DisplayRewardCount": 3,
		"Strategy": "",
		"Difficulty": 65
	},
	{
		"ID": 31,
		"Name": "Salrath 25",
		"TeamName": "Lv.25",
		"OpenPlayerLevel": 20,
		"TicketCost": 0,
		"EnergySuccess": 20,
		"EnergyFail": 4,
		"TeamEnergyCost": 16,
		"MonsterLevel": 25,
		"BattleID": 5300,
		"PlayerExp": 20,
		"HeroExp": 90,
		"Gold": 866,
		"DropID": 5064,
		"TeamDropID": 8051,
		"OperationalActivityDropID": 10027,
		"DayBonusDropID": 5055,
		"DayBonusExtraDropID": 0,
		"DisplayRewardCount": 2,
		"Strategy": "",
		"Difficulty": 20
	},
	{
		"ID": 32,
		"Name": "Salrath 30",
		"TeamName": "Lv.30",
		"OpenPlayerLevel": 30,
		"TicketCost": 0,
		"EnergySuccess": 20,
		"EnergyFail": 4,
		"TeamEnergyCost": 16,
		"MonsterLevel": 30,
		"BattleID": 5301,
		"PlayerExp": 20,
		"HeroExp": 100,
		"Gold": 1062,
		"DropID": 5065,
		"TeamDropID": 8052,
		"OperationalActivityDropID": 10027,
		"DayBonusDropID": 5056,
		"DayBonusExtraDropID": 0,
		"DisplayRewardCount": 3,
		"Strategy": "",
		"Difficulty": 30
	},
	{
		"ID": 33,
		"Name": "Salrath 35",
		"TeamName": "Lv.35",
		"OpenPlayerLevel": 35,
		"TicketCost": 0,
		"EnergySuccess": 20,
		"EnergyFail": 4,
		"TeamEnergyCost": 16,
		"MonsterLevel": 35,
		"BattleID": 5302,
		"PlayerExp": 20,
		"HeroExp": 110,
		"Gold": 1276,
		"DropID": 5066,
		"TeamDropID": 8053,
		"OperationalActivityDropID": 10027,
		"DayBonusDropID": 5057,
		"DayBonusExtraDropID": 0,
		"DisplayRewardCount": 3,
		"Strategy": "",
		"Difficulty": 35
	},
	{
		"ID": 34,
		"Name": "Salrath 40",
		"TeamName": "Lv.40",
		"OpenPlayerLevel": 40,
		"TicketCost": 0,
		"EnergySuccess": 20,
		"EnergyFail": 4,
		"TeamEnergyCost": 16,
		"MonsterLevel": 40,
		"BattleID": 5303,
		"PlayerExp": 20,
		"HeroExp": 120,
		"Gold": 1504,
		"DropID": 5067,
		"TeamDropID": 8054,
		"OperationalActivityDropID": 10027,
		"DayBonusDropID": 5058,
		"DayBonusExtraDropID": 0,
		"DisplayRewardCount": 3,
		"Strategy": "",
		"Difficulty": 40
	},
	{
		"ID": 35,
		"Name": "Salrath 45",
		"TeamName": "Lv.45",
		"OpenPlayerLevel": 45,
		"TicketCost": 0,
		"EnergySuccess": 20,
		"EnergyFail": 4,
		"TeamEnergyCost": 16,
		"MonsterLevel": 45,
		"BattleID": 5304,
		"PlayerExp": 20,
		"HeroExp": 130,
		"Gold": 1750,
		"DropID": 5068,
		"TeamDropID": 8055,
		"OperationalActivityDropID": 10027,
		"DayBonusDropID": 5059,
		"DayBonusExtraDropID": 0,
		"DisplayRewardCount": 3,
		"Strategy": "",
		"Difficulty": 45
	},
	{
		"ID": 36,
		"Name": "Salrath 50",
		"TeamName": "Lv.50",
		"OpenPlayerLevel": 50,
		"TicketCost": 0,
		"EnergySuccess": 20,
		"EnergyFail": 4,
		"TeamEnergyCost": 16,
		"MonsterLevel": 50,
		"BattleID": 5305,
		"PlayerExp": 20,
		"HeroExp": 140,
		"Gold": 2008,
		"DropID": 5069,
		"TeamDropID": 8056,
		"OperationalActivityDropID": 10027,
		"DayBonusDropID": 5060,
		"DayBonusExtraDropID": 0,
		"DisplayRewardCount": 3,
		"Strategy": "",
		"Difficulty": 50
	},
	{
		"ID": 37,
		"Name": "Salrath 55",
		"TeamName": "Lv.55",
		"OpenPlayerLevel": 55,
		"TicketCost": 0,
		"EnergySuccess": 20,
		"EnergyFail": 4,
		"TeamEnergyCost": 16,
		"MonsterLevel": 55,
		"BattleID": 5306,
		"PlayerExp": 20,
		"HeroExp": 150,
		"Gold": 2280,
		"DropID": 5070,
		"TeamDropID": 8057,
		"OperationalActivityDropID": 10027,
		"DayBonusDropID": 5061,
		"DayBonusExtraDropID": 0,
		"DisplayRewardCount": 3,
		"Strategy": "",
		"Difficulty": 55
	},
	{
		"ID": 38,
		"Name": "Salrath 60",
		"TeamName": "Lv.60",
		"OpenPlayerLevel": 60,
		"TicketCost": 0,
		"EnergySuccess": 20,
		"EnergyFail": 4,
		"TeamEnergyCost": 16,
		"MonsterLevel": 60,
		"BattleID": 5307,
		"PlayerExp": 20,
		"HeroExp": 160,
		"Gold": 2564,
		"DropID": 5071,
		"TeamDropID": 8058,
		"OperationalActivityDropID": 10027,
		"DayBonusDropID": 5062,
		"DayBonusExtraDropID": 0,
		"DisplayRewardCount": 3,
		"Strategy": "",
		"Difficulty": 60
	},
	{
		"ID": 39,
		"Name": "Salrath 65",
		"TeamName": "Lv.65",
		"OpenPlayerLevel": 60,
		"TicketCost": 0,
		"EnergySuccess": 20,
		"EnergyFail": 4,
		"TeamEnergyCost": 16,
		"MonsterLevel": 65,
		"BattleID": 5308,
		"PlayerExp": 20,
		"HeroExp": 160,
		"Gold": 2564,
		"DropID": 5072,
		"TeamDropID": 8059,
		"OperationalActivityDropID": 10027,
		"DayBonusDropID": 5063,
		"DayBonusExtraDropID": 0,
		"DisplayRewardCount": 3,
		"Strategy": "",
		"Difficulty": 65
	},
	{
		"ID": 41,
		"Name": "Baldea 25",
		"TeamName": "Lv.25",
		"OpenPlayerLevel": 20,
		"TicketCost": 0,
		"EnergySuccess": 20,
		"EnergyFail": 4,
		"TeamEnergyCost": 16,
		"MonsterLevel": 25,
		"BattleID": 5400,
		"PlayerExp": 20,
		"HeroExp": 90,
		"Gold": 866,
		"DropID": 5082,
		"TeamDropID": 8051,
		"OperationalActivityDropID": 10027,
		"DayBonusDropID": 5073,
		"DayBonusExtraDropID": 0,
		"DisplayRewardCount": 2,
		"Strategy": "",
		"Difficulty": 20
	},
	{
		"ID": 42,
		"Name": "Baldea 30",
		"TeamName": "Lv.30",
		"OpenPlayerLevel": 30,
		"TicketCost": 0,
		"EnergySuccess": 20,
		"EnergyFail": 4,
		"TeamEnergyCost": 16,
		"MonsterLevel": 30,
		"BattleID": 5401,
		"PlayerExp": 20,
		"HeroExp": 100,
		"Gold": 1062,
		"DropID": 5083,
		"TeamDropID": 8052,
		"OperationalActivityDropID": 10027,
		"DayBonusDropID": 5074,
		"DayBonusExtraDropID": 0,
		"DisplayRewardCount": 3,
		"Strategy": "",
		"Difficulty": 30
	},
	{
		"ID": 43,
		"Name": "Baldea 35",
		"TeamName": "Lv.35",
		"OpenPlayerLevel": 35,
		"TicketCost": 0,
		"EnergySuccess": 20,
		"EnergyFail": 4,
		"TeamEnergyCost": 16,
		"MonsterLevel": 35,
		"BattleID": 5402,
		"PlayerExp": 20,
		"HeroExp": 110,
		"Gold": 1276,
		"DropID": 5084,
		"TeamDropID": 8053,
		"OperationalActivityDropID": 10027,
		"DayBonusDropID": 5075,
		"DayBonusExtraDropID": 0,
		"DisplayRewardCount": 3,
		"Strategy": "",
		"Difficulty": 35
	},
	{
		"ID": 44,
		"Name": "Baldea 40",
		"TeamName": "Lv.40",
		"OpenPlayerLevel": 40,
		"TicketCost": 0,
		"EnergySuccess": 20,
		"EnergyFail": 4,
		"TeamEnergyCost": 16,
		"MonsterLevel": 40,
		"BattleID": 5403,
		"PlayerExp": 20,
		"HeroExp": 120,
		"Gold": 1504,
		"DropID": 5085,
		"TeamDropID": 8054,
		"OperationalActivityDropID": 10027,
		"DayBonusDropID": 5076,
		"DayBonusExtraDropID": 0,
		"DisplayRewardCount": 3,
		"Strategy": "",
		"Difficulty": 40
	},
	{
		"ID": 45,
		"Name": "Baldea 45",
		"TeamName": "Lv.45",
		"OpenPlayerLevel": 45,
		"TicketCost": 0,
		"EnergySuccess": 20,
		"EnergyFail": 4,
		"TeamEnergyCost": 16,
		"MonsterLevel": 45,
		"BattleID": 5404,
		"PlayerExp": 20,
		"HeroExp": 130,
		"Gold": 1750,
		"DropID": 5086,
		"TeamDropID": 8055,
		"OperationalActivityDropID": 10027,
		"DayBonusDropID": 5077,
		"DayBonusExtraDropID": 0,
		"DisplayRewardCount": 3,
		"Strategy": "",
		"Difficulty": 45
	},
	{
		"ID": 46,
		"Name": "Baldea 50",
		"TeamName": "Lv.50",
		"OpenPlayerLevel": 50,
		"TicketCost": 0,
		"EnergySuccess": 20,
		"EnergyFail": 4,
		"TeamEnergyCost": 16,
		"MonsterLevel": 50,
		"BattleID": 5405,
		"PlayerExp": 20,
		"HeroExp": 140,
		"Gold": 2008,
		"DropID": 5087,
		"TeamDropID": 8056,
		"OperationalActivityDropID": 10027,
		"DayBonusDropID": 5078,
		"DayBonusExtraDropID": 0,
		"DisplayRewardCount": 3,
		"Strategy": "",
		"Difficulty": 50
	},
	{
		"ID": 47,
		"Name": "Baldea 55",
		"TeamName": "Lv.55",
		"OpenPlayerLevel": 55,
		"TicketCost": 0,
		"EnergySuccess": 20,
		"EnergyFail": 4,
		"TeamEnergyCost": 16,
		"MonsterLevel": 55,
		"BattleID": 5406,
		"PlayerExp": 20,
		"HeroExp": 150,
		"Gold": 2280,
		"DropID": 5088,
		"TeamDropID": 8057,
		"OperationalActivityDropID": 10027,
		"DayBonusDropID": 5079,
		"DayBonusExtraDropID": 0,
		"DisplayRewardCount": 3,
		"Strategy": "",
		"Difficulty": 55
	},
	{
		"ID": 48,
		"Name": "Baldea 60",
		"TeamName": "Lv.60",
		"OpenPlayerLevel": 60,
		"TicketCost": 0,
		"EnergySuccess": 20,
		"EnergyFail": 4,
		"TeamEnergyCost": 16,
		"MonsterLevel": 60,
		"BattleID": 5407,
		"PlayerExp": 20,
		"HeroExp": 160,
		"Gold": 2564,
		"DropID": 5089,
		"TeamDropID": 8058,
		"OperationalActivityDropID": 10027,
		"DayBonusDropID": 5080,
		"DayBonusExtraDropID": 0,
		"DisplayRewardCount": 3,
		"Strategy": "",
		"Difficulty": 60
	},
	{
		"ID": 49,
		"Name": "Baldea 65",
		"TeamName": "Lv.65",
		"OpenPlayerLevel": 60,
		"TicketCost": 0,
		"EnergySuccess": 20,
		"EnergyFail": 4,
		"TeamEnergyCost": 16,
		"MonsterLevel": 65,
		"BattleID": 5408,
		"PlayerExp": 20,
		"HeroExp": 160,
		"Gold": 2564,
		"DropID": 5090,
		"TeamDropID": 8059,
		"OperationalActivityDropID": 10027,
		"DayBonusDropID": 5081,
		"DayBonusExtraDropID": 0,
		"DisplayRewardCount": 3,
		"Strategy": "",
		"Difficulty": 65
	},
	{
		"ID": 51,
		"Name": "Goddess Temple 25",
		"TeamName": "Lv.25",
		"OpenPlayerLevel": 20,
		"TicketCost": 0,
		"EnergySuccess": 20,
		"EnergyFail": 4,
		"TeamEnergyCost": 16,
		"MonsterLevel": 25,
		"BattleID": 5500,
		"PlayerExp": 20,
		"HeroExp": 90,
		"Gold": 866,
		"DropID": 5100,
		"TeamDropID": 8051,
		"OperationalActivityDropID": 10027,
		"DayBonusDropID": 5091,
		"DayBonusExtraDropID": 0,
		"DisplayRewardCount": 2,
		"Strategy": "",
		"Difficulty": 20
	},
	{
		"ID": 52,
		"Name": "Goddess Temple 30",
		"TeamName": "Lv.30",
		"OpenPlayerLevel": 30,
		"TicketCost": 0,
		"EnergySuccess": 20,
		"EnergyFail": 4,
		"TeamEnergyCost": 16,
		"MonsterLevel": 30,
		"BattleID": 5501,
		"PlayerExp": 20,
		"HeroExp": 100,
		"Gold": 1062,
		"DropID": 5101,
		"TeamDropID": 8052,
		"OperationalActivityDropID": 10027,
		"DayBonusDropID": 5092,
		"DayBonusExtraDropID": 0,
		"DisplayRewardCount": 3,
		"Strategy": "",
		"Difficulty": 30
	},
	{
		"ID": 53,
		"Name": "Goddess Temple 35",
		"TeamName": "Lv.35",
		"OpenPlayerLevel": 35,
		"TicketCost": 0,
		"EnergySuccess": 20,
		"EnergyFail": 4,
		"TeamEnergyCost": 16,
		"MonsterLevel": 35,
		"BattleID": 5502,
		"PlayerExp": 20,
		"HeroExp": 110,
		"Gold": 1276,
		"DropID": 5102,
		"TeamDropID": 8053,
		"OperationalActivityDropID": 10027,
		"DayBonusDropID": 5093,
		"DayBonusExtraDropID": 0,
		"DisplayRewardCount": 3,
		"Strategy": "",
		"Difficulty": 35
	},
	{
		"ID": 54,
		"Name": "Goddess Temple 40",
		"TeamName": "Lv.40",
		"OpenPlayerLevel": 40,
		"TicketCost": 0,
		"EnergySuccess": 20,
		"EnergyFail": 4,
		"TeamEnergyCost": 16,
		"MonsterLevel": 40,
		"BattleID": 5503,
		"PlayerExp": 20,
		"HeroExp": 120,
		"Gold": 1504,
		"DropID": 5103,
		"TeamDropID": 8054,
		"OperationalActivityDropID": 10027,
		"DayBonusDropID": 5094,
		"DayBonusExtraDropID": 0,
		"DisplayRewardCount": 3,
		"Strategy": "",
		"Difficulty": 40
	},
	{
		"ID": 55,
		"Name": "Goddess Temple 45",
		"TeamName": "Lv.45",
		"OpenPlayerLevel": 45,
		"TicketCost": 0,
		"EnergySuccess": 20,
		"EnergyFail": 4,
		"TeamEnergyCost": 16,
		"MonsterLevel": 45,
		"BattleID": 5504,
		"PlayerExp": 20,
		"HeroExp": 130,
		"Gold": 1750,
		"DropID": 5104,
		"TeamDropID": 8055,
		"OperationalActivityDropID": 10027,
		"DayBonusDropID": 5095,
		"DayBonusExtraDropID": 0,
		"DisplayRewardCount": 3,
		"Strategy": "",
		"Difficulty": 45
	},
	{
		"ID": 56,
		"Name": "Goddess Temple 50",
		"TeamName": "Lv.50",
		"OpenPlayerLevel": 50,
		"TicketCost": 0,
		"EnergySuccess": 20,
		"EnergyFail": 4,
		"TeamEnergyCost": 16,
		"MonsterLevel": 50,
		"BattleID": 5505,
		"PlayerExp": 20,
		"HeroExp": 140,
		"Gold": 2008,
		"DropID": 5105,
		"TeamDropID": 8056,
		"OperationalActivityDropID": 10027,
		"DayBonusDropID": 5096,
		"DayBonusExtraDropID": 0,
		"DisplayRewardCount": 3,
		"Strategy": "",
		"Difficulty": 50
	},
	{
		"ID": 57,
		"Name": "Goddess Temple 55",
		"TeamName": "Lv.55",
		"OpenPlayerLevel": 55,
		"TicketCost": 0,
		"EnergySuccess": 20,
		"EnergyFail": 4,
		"TeamEnergyCost": 16,
		"MonsterLevel": 55,
		"BattleID": 5506,
		"PlayerExp": 20,
		"HeroExp": 150,
		"Gold": 2280,
		"DropID": 5106,
		"TeamDropID": 8057,
		"OperationalActivityDropID": 10027,
		"DayBonusDropID": 5097,
		"DayBonusExtraDropID": 0,
		"DisplayRewardCount": 3,
		"Strategy": "",
		"Difficulty": 55
	},
	{
		"ID": 58,
		"Name": "Goddess Temple 60",
		"TeamName": "Lv.60",
		"OpenPlayerLevel": 60,
		"TicketCost": 0,
		"EnergySuccess": 20,
		"EnergyFail": 4,
		"TeamEnergyCost": 16,
		"MonsterLevel": 60,
		"BattleID": 5507,
		"PlayerExp": 20,
		"HeroExp": 160,
		"Gold": 2564,
		"DropID": 5107,
		"TeamDropID": 8058,
		"OperationalActivityDropID": 10027,
		"DayBonusDropID": 5098,
		"DayBonusExtraDropID": 0,
		"DisplayRewardCount": 3,
		"Strategy": "",
		"Difficulty": 60
	},
	{
		"ID": 59,
		"Name": "Goddess Temple 65",
		"TeamName": "Lv.65",
		"OpenPlayerLevel": 60,
		"TicketCost": 0,
		"EnergySuccess": 20,
		"EnergyFail": 4,
		"TeamEnergyCost": 16,
		"MonsterLevel": 65,
		"BattleID": 5508,
		"PlayerExp": 20,
		"HeroExp": 160,
		"Gold": 2564,
		"DropID": 5108,
		"TeamDropID": 8059,
		"OperationalActivityDropID": 10027,
		"DayBonusDropID": 5099,
		"DayBonusExtraDropID": 0,
		"DisplayRewardCount": 3,
		"Strategy": "",
		"Difficulty": 65
	},
	{
		"ID": 61,
		"Name": "Valyria 25",
		"TeamName": "Lv.25",
		"OpenPlayerLevel": 20,
		"TicketCost": 0,
		"EnergySuccess": 20,
		"EnergyFail": 4,
		"TeamEnergyCost": 16,
		"MonsterLevel": 25,
		"BattleID": 5600,
		"PlayerExp": 20,
		"HeroExp": 90,
		"Gold": 866,
		"DropID": 5118,
		"TeamDropID": 8051,
		"OperationalActivityDropID": 10027,
		"DayBonusDropID": 5109,
		"DayBonusExtraDropID": 0,
		"DisplayRewardCount": 2,
		"Strategy": "",
		"Difficulty": 20
	},
	{
		"ID": 62,
		"Name": "Valyria 30",
		"TeamName": "Lv.30",
		"OpenPlayerLevel": 30,
		"TicketCost": 0,
		"EnergySuccess": 20,
		"EnergyFail": 4,
		"TeamEnergyCost": 16,
		"MonsterLevel": 30,
		"BattleID": 5601,
		"PlayerExp": 20,
		"HeroExp": 100,
		"Gold": 1062,
		"DropID": 5119,
		"TeamDropID": 8052,
		"OperationalActivityDropID": 10027,
		"DayBonusDropID": 5110,
		"DayBonusExtraDropID": 0,
		"DisplayRewardCount": 3,
		"Strategy": "",
		"Difficulty": 30
	},
	{
		"ID": 63,
		"Name": "Valyria 35",
		"TeamName": "Lv.35",
		"OpenPlayerLevel": 35,
		"TicketCost": 0,
		"EnergySuccess": 20,
		"EnergyFail": 4,
		"TeamEnergyCost": 16,
		"MonsterLevel": 35,
		"BattleID": 5602,
		"PlayerExp": 20,
		"HeroExp": 110,
		"Gold": 1276,
		"DropID": 5120,
		"TeamDropID": 8053,
		"OperationalActivityDropID": 10027,
		"DayBonusDropID": 5111,
		"DayBonusExtraDropID": 0,
		"DisplayRewardCount": 3,
		"Strategy": "",
		"Difficulty": 35
	},
	{
		"ID": 64,
		"Name": "Valyria 40",
		"TeamName": "Lv.40",
		"OpenPlayerLevel": 40,
		"TicketCost": 0,
		"EnergySuccess": 20,
		"EnergyFail": 4,
		"TeamEnergyCost": 16,
		"MonsterLevel": 40,
		"BattleID": 5603,
		"PlayerExp": 20,
		"HeroExp": 120,
		"Gold": 1504,
		"DropID": 5121,
		"TeamDropID": 8054,
		"OperationalActivityDropID": 10027,
		"DayBonusDropID": 5112,
		"DayBonusExtraDropID": 0,
		"DisplayRewardCount": 3,
		"Strategy": "",
		"Difficulty": 40
	},
	{
		"ID": 65,
		"Name": "Valyria 45",
		"TeamName": "Lv.45",
		"OpenPlayerLevel": 45,
		"TicketCost": 0,
		"EnergySuccess": 20,
		"EnergyFail": 4,
		"TeamEnergyCost": 16,
		"MonsterLevel": 45,
		"BattleID": 5604,
		"PlayerExp": 20,
		"HeroExp": 130,
		"Gold": 1750,
		"DropID": 5122,
		"TeamDropID": 8055,
		"OperationalActivityDropID": 10027,
		"DayBonusDropID": 5113,
		"DayBonusExtraDropID": 0,
		"DisplayRewardCount": 3,
		"Strategy": "",
		"Difficulty": 45
	},
	{
		"ID": 66,
		"Name": "Valyria 50",
		"TeamName": "Lv.50",
		"OpenPlayerLevel": 50,
		"TicketCost": 0,
		"EnergySuccess": 20,
		"EnergyFail": 4,
		"TeamEnergyCost": 16,
		"MonsterLevel": 50,
		"BattleID": 5605,
		"PlayerExp": 20,
		"HeroExp": 140,
		"Gold": 2008,
		"DropID": 5123,
		"TeamDropID": 8056,
		"OperationalActivityDropID": 10027,
		"DayBonusDropID": 5114,
		"DayBonusExtraDropID": 0,
		"DisplayRewardCount": 3,
		"Strategy": "",
		"Difficulty": 50
	},
	{
		"ID": 67,
		"Name": "Valyria 55",
		"TeamName": "Lv.55",
		"OpenPlayerLevel": 55,
		"TicketCost": 0,
		"EnergySuccess": 20,
		"EnergyFail": 4,
		"TeamEnergyCost": 16,
		"MonsterLevel": 55,
		"BattleID": 5606,
		"PlayerExp": 20,
		"HeroExp": 150,
		"Gold": 2280,
		"DropID": 5124,
		"TeamDropID": 8057,
		"OperationalActivityDropID": 10027,
		"DayBonusDropID": 5115,
		"DayBonusExtraDropID": 0,
		"DisplayRewardCount": 3,
		"Strategy": "",
		"Difficulty": 55
	},
	{
		"ID": 68,
		"Name": "Valyria 60",
		"TeamName": "Lv.60",
		"OpenPlayerLevel": 60,
		"TicketCost": 0,
		"EnergySuccess": 20,
		"EnergyFail": 4,
		"TeamEnergyCost": 16,
		"MonsterLevel": 60,
		"BattleID": 5607,
		"PlayerExp": 20,
		"HeroExp": 160,
		"Gold": 2564,
		"DropID": 5125,
		"TeamDropID": 8058,
		"OperationalActivityDropID": 10027,
		"DayBonusDropID": 5116,
		"DayBonusExtraDropID": 0,
		"DisplayRewardCount": 3,
		"Strategy": "",
		"Difficulty": 60
	},
	{
		"ID": 69,
		"Name": "Valyria 65",
		"TeamName": "Lv.65",
		"OpenPlayerLevel": 60,
		"TicketCost": 0,
		"EnergySuccess": 20,
		"EnergyFail": 4,
		"TeamEnergyCost": 16,
		"MonsterLevel": 65,
		"BattleID": 5608,
		"PlayerExp": 20,
		"HeroExp": 160,
		"Gold": 2564,
		"DropID": 5126,
		"TeamDropID": 8059,
		"OperationalActivityDropID": 10027,
		"DayBonusDropID": 5117,
		"DayBonusExtraDropID": 0,
		"DisplayRewardCount": 3,
		"Strategy": "",
		"Difficulty": 65
	}
]