[
	{
		"ID": 1,
		"Value": "<color=#008B00>◆Aniki's Gym Info◆ \n</color>★<color=#DC143C>Your Aniki's special training has begun! Let your soldiers start their training NOW!</color>\n★Different Aniki's Gym dungeons will be unlocked at different times each week!\n★Only after successfully completing a low difficulty dungeon will the next level become available.\n★Loot different <color=#DC143C>military training materials</color> in Aniki's dungeon to strengthen soldiers!\n\n<color=#008B00>◆Dungeon Times and Drops◆</color> \nMonday, Thursday, Sunday: Drops <color=#DC143C>Infantry</color> training materials.\nMonday, Thursday, Sunday: Drops <color=#DC143C>Archer</color> and <color=#DC143C>Assassin</color> training materials.\nTuesday, Friday, Sunday: Drops <color=#DC143C>Lancer</color> training materials.\nTuesday, Friday, Sunday: Drops <color=#DC143C>Flier</color> and <color=#DC143C>Aquatic</color> training materials.\nWednesday, Saturday, Sunday: Drops <color=#DC143C>Cavalry</color> training materials.\nWednesday, Saturday, Sunday: Drops <color=#DC143C>Holy</color> and <color=#DC143C>Demon</color> training materials."
	},
	{
		"ID": 2,
		"Value": "<color=#008B00>◆Goddess Trial Info◆</color> \n★ Are you ready to take down the <color=#DC143C>Demon Dragons</color>? Demon Dragons are huge foes with powerful skills! Smart deployment and strategy are the keys to victory here!\n★ Use units with <color=#DC143C>class priority</color> to help you take them down!\n★ <color=#DC143C>Hero Equipment</color> and <color=#DC143C>Enchant Scrolls</color> drop in the Goddess' Trial dungeon, and different types of Demon Dragons drop different parts and equipment types.\n\n<color=#008B00>◆Dungeon Times◆</color> \nMonday & Thursday - Fire Dragon Fafnir: <color=#DC143C>Weapons, Armor, and Helmets</color> (Random Drop)\nTuesday & Friday - Ice Dragon Asante: <color=#DC143C>Armor</color> (Exclusive Drop)\nWednesday & Saturday - Thunder Dragon Carcosa: <color=#DC143C>Helmets</color> (Exclusive Drop)\nSunday - Dark Dragon Tiamat: <color=#DC143C>Weapons</color> (Exclusive Drop)"
	},
	{
		"ID": 3,
		"Value": "<color=#008B00>◆Arena Info◆</color>\n★Choose 1 of<color=#DC143C> 3 </color>opponents to challenge. (Cannot refresh manually. Auto-refreshes at frequent intervals).\n★Challenges consume 1 <color=#DC143C>Arena Challenge Voucher</color>. <color=#DC143C>5</color> Challenge Vouchers will be sent at midnight every day.\n★A victory grants <color=#DC143C>points</color>, which determine the final reward.\n★A victory in<color=#DC143C> auto-battle </color>mode grants<color=#DC143C> double </color>points.\n★Arena progress will be cleared every Sunday at 10pm. A certain number of points will be deducted to ensure fairness.\n\n<color=#008B00>◆Rewards◆</color>\n★<color=#DC143C>Chest</color>: After a certain number of victories, you'll receive an extra chest reward.\n★<color=#DC143C>Daily Reward</color>: You'll receive rewards in your inbox every night at 10pm.\n\n<color=#008B00>◆Defense Formation◆</color>\n★You can set a formation to defend yourself against attacks from other Commanders.\n★<color=#DC143C>Change Map</color>: You can choose 1 of <color=#DC143C>3</color> defense maps, which will be renewed on a weekly basis.\n★<color=#DC143C>Victory Conditions</color>: There will be different conditions that must be fulfilled if you want to win.\n★<color=#DC143C>Attack Sequence</color>: You can freely change the attack order of your team members."
	},
	{
		"ID": 4,
		"Value": "<color=#008B00>◆Stolen Treasure Info◆</color>\n★Those damn goblins stole the treasure and escaped! <color=#DC143C>Kill them to get Gold</color>!\n★<color=#DC143C>Goblins</color> <color=#DC143C>won't attack</color> your heroes in the dungeon. They will escape successfully when they reach the edge of the map, so <color=#DC143C>defeat as many goblins as you can</color> to get Gold!\n★Dungeon levels will be unlocked as your team level increases.\n★Challenges consume <color=#DC143C>Stamina</color> and a <color=#DC143C>Treasure Key</color>.\n\n<color=#008B00>◆Dungeon Drops◆</color> \n★Defeated goblins will drop <color=#DC143C>loads of Gold</color>. The more you beat, the greater the rewards!\n★Higher-level goblins drop more Gold!"
	},
	{
		"ID": 5,
		"Value": "<color=#008B00>◆Bonding Realm Info◆</color>\n★<color=#DC143C>Challenge teams of heroes with Bond Power</color> and get Bond equipment!\n★Dungeon levels will be unlocked as your team level increases.\n★Each enemy in the dungeon will have<color=#DC143C> 1 General</color> and <color=#DC143C>2 Deputy Generals</color>. The enemy's generals will be granted <color=#DC143C>Bond Power</color> by the Deputy General.\n★Defeat the enemy's deputy generals, then <color=#DC143C>Bond Power will be removed from the generals</color>, making them easier to kill.\n<color=#008B00>◆Dungeon Drops◆</color>\n★Bond Realms drop<color=#DC143C> Hero Bond Gifts</color> and<color=#DC143C> Bond Power Materials</color> used to increase your bonds with your Heroes and strengthen Bond Power.\n★There are seven different themes and different favorite gifts for each day of the week."
	},
	{
		"ID": 6,
		"Value": "<color=#008B00>◆Team Info◆</color>\n★Most Secret Realms support team battles. <color=#DC143C>Joint Battles</color> require teams.\n★On each of your team's turns, each member will take a turn to attack.\n★Each team has<color=#DC143C> its own chat channel</color> so players can communicate with each other.\n<color=#008B00>◆Team Rules◆</color>\n★Teams can only challenge <color=#DC143C>unlocked levels</color>.\n★<color=#DC143C>Up to 3 players</color> can form a team. The creator of the team becomes the <color=#DC143C>team leader</color>.\n★Players can join teams freely and also invite friends to join.\n★Team stamina consumption is different from solo gameplay, and there are also differences in the number of heroes that can join the battle.\n\n<color=#008B00>◆Team Earnings◆</color>\n★In addition to regular drops, teams also receive additional rewards. Team up with 1 player to get 1 extra reward, and team up with 2 players to receive 2 extra rewards.\n★When you team up with <color=#DC143C>friends</color>, you'll get 1 additional friend reward, and you'll both get an extra <color=#DC143C>5 Friendship Points</color>. You can team up with other players up to <color=#DC143C>20 times</color> per day."
	},
	{
		"ID": 7,
		"Value": "<color=#008B00>◆Friend Feature Info◆</color>\n★Whenever you give a friend a gift, they'll get <color=#DC143C>5 </color>Friendship Points.\n★Invite your friends to <color=#DC143C>team</color> challenges to get <color=#DC143C>5</color> Friendship Points. Team Friendship Point chances refresh daily.\n★You can exchange Friendship Points for items in the <color=#DC143C>Friendship Store</color>.\n\n<color=#008B00>◆Name Cards◆</color>\n★<color=#DC143C>Name Cards</color> show a Commander's stats, personal signature, and heroes.\n★You can customize the formation, equipment, and actions of your <color=#DC143C>Default Team</color>.\n★You can <color=#DC143C>Like</color> other Commanders' name cards. Like all your friends!\n★Your own <color=#DC143C>Name Card</color> can be edited in the <color=#DC143C>Player Information</color> interface in the upper left corner of the main screen.\n★Tap on another player's avatar to view their <color=#DC143C>Name Card</color>."
	},
	{
		"ID": 8,
		"Value": "<color=#008B00>◆Hero Training Info◆</color>\n★Challenge hordes of training dummies in <color=#DC143C>Angelica's Special Training School!</color>\n★Special training dungeons are refreshed on a daily basis. Make sure you send suitable heroes to challenge them! For example, Lancer training features Lancers, so you should send Infantry to fight them!\n★Different Dungeon levels unlock as your commander level increases.\n\n<color=#008B00>◆Dungeon Times◆</color>\nMonday & Thursday: Infantry Training\nTuesday & Friday: Lancer Training\nWednesday & Saturday: Cavalry Training\nSunday Only: Demon Training\n\n<color=#008B00>◆Dungeon Drops◆</color>\n★All special training sessions drop <color=#DC143C>Hero EXP Potions</color>!"
	},
	{
		"ID": 9,
		"Value": "<color=#008B00>◆Joint Battle Info◆</color>\n★<color=#DC143C>Team up with other Commanders across time and space </color>to challenge powerful heroes!\n★You must join a <color=#DC143C>team</color> to take part in Joint Battles. Invite other Commanders to fight challenges together!\n★Joint Battle Dungeons offer <color=#DC143C>extremely rich rewards.</color>. <color=#DC143C>Each dungeon grants different rewards</color> every day! \n★<color=#DC143C>Challenge gameplay changes sporadically</color>, so all Commanders must work together!\n\n<color=#008B00>◆Dungeon Times◆</color>\n★Challenges are available every day at <color=#DC143C>14:00-15:00 and 21:00-22:00</color>!\n\n<color=#008B00>◆Dungeon Drops◆</color>\n★Enchant scrolls, epic equipment, training materials, bond materials, and special gifts!"
	},
	{
		"ID": 10,
		"Value": "<color=#008B00>◆Hero Phantom Info◆</color>\n★Challenge a themed hero each week! The <color=#DC143C>designated hero</color> will be the enemy leader. Dungeons are only available at specific times!\n\n<color=#008B00>◆Dungeon Drops◆</color>\n★<color=#DC143C>Memory Shards</color>: You can get lots of <color=#DC143C>Memory Shards</color> for themed heroes!"
	},
	{
		"ID": 11,
		"Value": "<color=#008B00>◆Time Rift Info◆</color>\n★Welcome to the Time Rift! Here you can experience <color=#DC143C>Langrisser</color> chapters from<color=#DC143C> the original series</color>!\n\n<color=#008B00>◆Unlocking Time Rift Stages◆</color>\n★Stages will be unlocked according to <color=#DC143C>progress made in the Main Story</color>.\n\n<color=#008B00>◆Elite Mode◆</color>\n★New enemies, in-depth strategies, rich rewards, and ultimate challenges!\n★You can switch between<color=#DC143C> Normal Mode </color>and<color=#DC143C> Elite Mode </color>in the upper right corner.\n\n<color=#008B00>◆Time Rift Drops◆</color>\n★<color=#DC143C>Basic Rewards</color>: Various kinds of equipment and strengthening materials.\n★<color=#DC143C>First Clearance Reward</color>: Complete a level for the first time to get extra rewards.\n★<color=#DC143C>Feat Rewards</color>: Complete all the requirements of the level to get Feat rewards.\n★<color=#DC143C>Chapter Rewards</color>: Collect stars to get chapter rewards."
	},
	{
		"ID": 12,
		"Value": "<color=#008B00>◆Intimacy Info◆</color>\n★<color=#DC143C>Intimacy Level</color>: A hero's level of trust in their Commander. Can be increased by giving gifts and is used to unlock Bond Power, Gate of Fate, and Hero Bio features.\n★<color=#DC143C>Giving Gifts</color>: Giving gifts to heroes is a quick way to improve Intimacy. Different heroes prefer different things.\n\n<color=#008B00>◆Unlockable Content◆</color>\n★<color=#DC143C>Bond Power</color>: Unlocked by increasing Intimacy level. Enhances the basic stats of the hero and their soldiers. Each Bond can be leveled up with Bond materials.\n★<color=#DC143C>Gate of Fate</color>: Unlocked by increasing Intimacy level. An exclusive hero scenario will be unlocked, and the corresponding hero must fight in the battle.\n★<color=#DC143C>Hero Bio</color>: Unlocked by increasing Intimacy level. You can view available hero stories and listen to voiceover dialog.\n\n<color=#008B00>◆Special Info◆</color>\n★Matthew's Intimacy level is equal to <color=#DC143C>the sum of all heroes' Intimacy levels</color>."
	},
	{
		"ID": 13,
		"Value": "<color=#008B00>◆Intimacy Info◆</color>\n★<color=#DC143C>Intimacy Level</color>: A hero's level of trust in their Commander. Can be increased by giving gifts and is used to unlock Bond Power, Gate of Fate, and Hero Bio features.\n★<color=#DC143C>Giving Gifts</color>: Giving gifts to heroes is a quick way to improve Intimacy. Different heroes prefer different things.\n\n<color=#008B00>◆Unlockable Content◆</color>\n★<color=#DC143C>Bond Power</color>: Unlocked by increasing Intimacy level. Enhances the basic stats of the hero and their soldiers. Each Bond can be leveled up with Bond materials.\n★<color=#DC143C>Gate of Fate</color>: Unlocked by increasing Intimacy level. An exclusive hero scenario will be unlocked, and the corresponding hero must fight in the battle.\n★<color=#DC143C>Hero Bio</color>: Unlocked by increasing Intimacy level. You can view available hero stories and listen to voiceover dialog.\n\n<color=#008B00>◆Special Info◆</color>\n★Matthew's Intimacy level is equal to <color=#DC143C>the sum of all heroes' Intimacy levels</color>."
	},
	{
		"ID": 14,
		"Value": "<color=#008B00>◆About Bond Power◆</color>\n★<color=#DC143C>Bond Skill</color>: Every hero has their own Bond skill which can strengthen their stats and the stats of their soldiers. \n★<color=#DC143C>Heart Bond</color>: After the Bond Skill reaches a certain level, it will be unlocked, greatly increasing your hero's stats and granting them unique abilities. \n★<color=#DC143C>Unlock</color>: After your Bond Skill reaches the required intimacy level, you may complete a Bond mission and unlock it. \n★<color=#DC143C>Strengthen</color>: You can use specific <color=#DC143C>[Bond Keepsakes]</color> to upgrade your Bond Skill. \n★<color=#DC143C>Confession</color>: After the intimacy reaches a certain level... what will happen?"
	},
	{
		"ID": 15,
		"Value": "<color=#008B00>◆Gate of Fate Info◆</color>\n★<color=#DC143C>Gate of Fate</color>: You can experience your heroes' adventures with them!\n★<color=#DC143C>Unlocking</color>: Unlocks when you increase hero Intimacy level.\n★<color=#DC143C>Challenge Chances</color>: You can challenge the Gate of Fate up to <color=#DC143C>9</color> times per day with <color=#DC143C>all your heroes</color>. A loss does not consume any challenge chances. Chances are automatically restored every day.\n\n<color=#008B00>◆Dungeon Drops◆</color>\n★<color=#DC143C>Basic Drops</color>: Hero Memory Shards and Bond Gifts!\n★<color=#DC143C>Chapter Rewards</color>: Collect chapter stars to get extra rewards!"
	},
	{
		"ID": 16,
		"Value": "<color=#008B00>◆Soldier Training Info◆</color>\n★Training increases <color=#DC143C>stats</color>, <color=#DC143C>grants passive skills, </color>and <color=#DC143C>unlocks new units</color>.\n★You must unlock and level up technologies one at a time according to the <color=#DC143C>Technology Tree</color>.\n★Upgrading soldier research consumes <color=#DC143C>Training Materials</color> and <color=#DC143C>Gold</color>.\n★Each upgrade grants<color=#DC143C> Training EXP</color>. Advanced soldier courses require you to reach certain <color=#DC143C>Training Field Levels</color> to unlock.\n\n<color=#008B00>◆Expedition Info◆</color>\n★Expeditions are unlocked as your team level increases, granting different training materials each day.\n★Up to <color=#DC143C>3</color> heroes can take part in each expedition.\n★Different heroes contribute different amounts to overall expedition reward <color=#DC143C>efficiency</color>. The higher the efficiency percentage, the more rewards you'll receive.\n★Expeditions can be set to different <color=#DC143C>durations</color> of 2, 4, or 8 hours. The longer the time, the more rewards you'll get. The shorter the time, the higher the performance ratio!\n\n\n<color=#008B00>◆Soldier Gallery Info◆</color>\n★The Soldier Gallery can be found in the lower right corner. You can use the gallery to look up the <color=#DC143C>base stats</color> and <color=#DC143C>special skills</color> of all units."
	},
	{
		"ID": 17,
		"Value": "<color=#008B00>◆Equipment Strengthening Info◆</color>\n★Consume <color=#DC143C>Equipment Materials</color> to increase equipment strengthening levels.\n★Equipment strengthening level enhances basic stats. After reaching a certain level, <color=#DC143C>Skill Level</color> will also increase.\n★When using <color=#DC143C>strengthened equipment</color> for alchemy, 100% of the costs will be returned to you.\n\n<color=#008B00>◆Equipment Star Upgrade Info◆</color>\n★Consume equipment of the <color=#DC143C>same name</color> and <color=#DC143C>Star Upgrade Items</color> to enhance the stars of equipment at max level.\n★When equipment stars are increased, the strengthening level cap will increase as well.\n★Equipment can be upgraded up to <color=#DC143C>6 stars</color>. 6-star equipment cannot be upgraded.\n\n<color=#008B00>◆Equipment Enchantment Info◆</color>\n★Consume <color=#DC143C>Enchant Scrolls</color> to grant random stats to your equipment. Each piece can have up to <color=#DC143C>3</color> enchanted stats.\n★Equipment Resonance: Different Enchant Scrolls can grant <color=#DC143C>Resonance</color> effects to your equipment. When <color=#DC143C>multiple items have the same resonance stats</color>, a new skill will be generated."
	},
	{
		"ID": 18,
		"Value": "<color=#008B00>◆Alchemy Info◆</color>\n★Alchemy can turn <color=#DC143C>unused items</color> into other resources and item materials.\n★After placing unused items in the smelting pool, you can <color=#DC143C>preview</color> the list of resulting products.\n★When using <color=#DC143C>strengthened equipment</color> for alchemy, <color=#DC143C>[Crafter's Hammers]</color> and Gold previously spent on strengthening will be returned to you.\n★Dismantling SR equipment additionally generates <color=#DC143C>Mithril Ore</color>, and dismantling SSR equipment additionally generates <color=#DC143C>[Orichalcum Ore]</color>. These stones can be exchanged for other items in the <color=#DC143C>equipment store</color>."
	},
	{
		"ID": 19,
		"Value": "<color=#008B00>◆Hero Stat Info◆</color>\n<color=#DC143C>HP: </color>Maximum damage you can take.\n<color=#DC143C>ATK: </color>Physical damage potential.\n<color=#DC143C>INT: </color>Magic damage potential.\n<color=#DC143C>DEF: </color>Ability to resist physical damage.\n<color=#DC143C>MDEF: </color>Ability to resist magic damage.\n<color=#DC143C>SKILL: </color>Crit chance in battle."
	},
	{
		"ID": 20,
		"Value": "Training Field Expedition Info"
	},
	{
		"ID": 21,
		"Value": "<color=#008B00>◆Battle Tips◆</color>\n★<color=#DC143C>Priority</color>: Keep in mind that unit priority is the key to victory!\n★<color=#DC143C>Guard</color>: Heroes who can use guarding skills can protect their teammates!\n★<color=#DC143C>Terrain</color>: Occupying favorable terrain provides defensive bonuses!\n★<color=#DC143C>Melee & Ranged Combat</color>: When a ranged unit performs a melee attack, its damage will be decreased. Try to keep your distance, as melee units can take advantage of this!\n★<color=#DC143C>Soldiers and Heroes</color>: In general, soldiers receive damage first, but some skills can directly hit heroes. If the hero is killed, the entire division will collapse!\n★<color=#DC143C>AoE Attacks</color>: All AoE attack skills attack both soldiers and heroes!"
	},
	{
		"ID": 22,
		"Value": "<color=#008B00>◆World Arena Info◆</color>\n★You can challenge cross-server online opponents in both ranked and casual mode.\n★In ranked mode, you'll receive <color=#DC143C>points</color> to determine your rank and rewards.\n★When you reach a certain number of points, a <color=#DC143C>rank up battle</color> will be triggered. You will rank up when winning your designated matches.\n★Arena progress will be cleared <color=#DC143C>every Sunday at 10 PM</color>. A certain number of points will be deducted to ensure fairness.\n\n<color=#008B00>◆Battle Rules◆</color>\n★<color=#DC143C>Bronze or Casual Mode</color>: Both parties select 5 heroes to fight against each other.\n★<color=#DC143C>Silver Mode</color>: The initiator selects one hero to join the battle, then the other party selects 2 heroes, until both sides have 5.\n★<color=#DC143C>Gold Mode and Above</color>: The initiator selects one hero to join the battle, then the other party selects 2 heroes, until both sides have 6. Then both sides select a <color=#DC143C>protected hero</color>, and then select one of the other party's <color=#DC143C>unprotected heroes</color> to leave the battle.\n★When the battle reaches <color=#DC143C>Round 3</color>, both parties receive <color=#DC143C>Rage stats</color>, and fire gradually spreads to the center of the battlefield, <color=#DC143C>inflicting terrain damage</color>.\n\n<color=#008B00>◆Rewards◆</color>\n★<color=#DC143C>Chests</color>: Available after a certain number of victories. (Refreshes Weekly)\n★<color=#DC143C>Tier Reward</color>: Tier rewards are sent to your inbox at 10 PM daily, based on your tier.\n★<color=#DC143C>Ranking Reward</color>: Ranking rewards will be sent to your inbox every Sunday, based on your ranking."
	},
	{
		"ID": 23,
		"Value": "<color=#008B00>◆Summoning Info◆</color>\n★<color=#DC143C>Hero Summon: </color>Players can summon heroes. Heroes that are summoned multiple times will be converted into shards used for Star Upgrade.\n★<color=#DC143C>Equipment Summon: </color>Players can summon equipment. Equipment that is summoned multiple times will be converted into shards used for Star Upgrading.\n★<color=#DC143C>Friendship Summon:</color> Grants EXP Potions, strengthening materials and rare equipment and heroes.\n\n<color=#008B00>◆Summon 10 Times Special Info◆</color>\n★<color=#DC143C>Hero Summon</color> - Summon 10 Times: Grants at least <color=#DC143C>1</color> SR Hero.\n★<color=#DC143C>Equipment Summon</color> - Summon 10 Times: Grants at least <color=#DC143C>2</color> pieces of SR equipment."
	},
	{
		"ID": 24,
		"Value": "<color=#008B00>◆Event Info◆</color>\n★The fitness-loving Aniki Bros. are here to give all Commanders a free spin!\n★During the event, each Commander gets one <color=#DC143C>free spin</color>!\n★<color=#DC143C>Each spin grants a prize, and there are no repeats! </color>Spin 10 times to get all the prizes!\n★Each spin consumes: 0, 50, 100, 200, 300, 400, 500, 600, 800, and 1000 Trinity Crystals.\n★Received prizes are added directly to your bag."
	},
	{
		"ID": 25,
		"Value": "<color=#008B00>◆Descendants of Light: Limited-time Summon◆</color>\n★<color=#DC143C>Event Summon</color>: When summoning an SSR Hero, the chances of that hero appearing will increase!\n★The base chance of obtaining an SSR hero will remain the same as that of a normal \"Hero Summon\".\n\n<color=#008B00>◆Limited Heroes◆</color>\n★Heroes with a higher chance of appearing in this event are:\n<color=#DC143C>SSR Elwin</color>, <color=#DC143C>SSR Cherie</color>, <color=#DC143C>SSR Ledin</color>, <color=#DC143C>SSR Liana's</color>.\n\n<color=#008B00>◆Summon 10 Times Special Info◆</color>\n★<color=#DC143C>Hero Summon</color> - Summon 10 Times: Grants at least <color=#DC143C>1</color> SR Hero."
	},
	{
		"ID": 26,
		"Value": "<color=#008B00>◆Forcemaster: Limited-time Summon◆</color>\n★<color=#DC143C>Event Summon</color>: When summoning an SSR Hero, the chances of that hero appearing will increase! \n★The base chance of obtaining an SSR hero will remain the same as that of a normal \"Hero Summon\".\n\n<color=#008B00>◆Limited Heroes◆</color>\n★Heroes with a higher chance of appearing in this event are:\n<color=#DC143C>SSR Leon</color>,<color=#DC143C>SSR Bernhardt</color>,<color=#DC143C>SSR Lana</color>,<color=#DC143C>SSR Bozel</color>.\n\n\n<color=#008B00>◆「Summon 10 Times」 Special Info◆</color>\n★<color=#DC143C>Limited-time Summon</color> - 「Summon 10 Times」: Grants at least <color=#DC143C>1</color> SR Hero."
	},
	{
		"ID": 27,
		"Value": "<color=#008B00>◆Summon Chances◆</color>\n★<color=#DC143C>Hero Summon</color> Heroes of R, SR, SSR rarity: R Heroes 85%, SR Heroes 13%, SSR Heroes 2%.\n★<color=#DC143C>Equipment Summon</color> Equipment of R, SR, SSR rarity: R Equipment 70%, SR Equipment 25%, SSR Equipment 5%."
	},
	{
		"ID": 28,
		"Value": "<color=#008B00>◆Memory Store◆</color>\n★Extract spare Hero Memory Shards to obtain <color=#DC143C>Memory Essence</color>!\n★<color=#DC143C>Memory Essence</color> can be redeemed for goods in the Memory Store.\n\n<color=#008B00>◆Memory Extraction Info◆</color>\n★Spare memory shards can be extracted only when a hero reaches <color=#DC143C>6-stars</color>.\n★Different memory shards can be extracted to obtain different amounts of <color=#DC143C>Memory Essences</color>.\n SSR Hero Memory Shards: <color=#DC143C>30</color> Memory Essences\n SR Hero Memory Shards: <color=#DC143C>10</color> Memory Essences\nR Hero Memory Shards: <color=#DC143C>1</color> Memory Essence"
	},
	{
		"ID": 29,
		"Value": "<color=#008B00>◆Chapters of Legend Info◆</color>\n★Chase the shadows of legends past through the Time Rift, take on the challenges of past scenarios to collect <color=#DC143C>points</color>, and summon legendary heroes! \n★The Time Rift will evoke the true power of certain heroes. Use the <color=#DC143C>[Recommended Heroes]</color> to gain a buff in combat and extra<color=#DC143C> points</color>! \n★Different stages will become available at different intervals during the event: Some stages will only be available after beating prerequisite stages. \n★Stages<color=#DC143C> include challenge stages </color>and <color=#DC143C>point stages</color>. Challenge stages can only be attempted once, while there are no restrictions on the number of times you can attempt point stages. \n★You can team up to take on point stages, but you can only face challenge stages on your own."
	},
	{
		"ID": 30,
		"Value": "<color=#008B00>◆Timeless Trial Info◆</color>\n★<color=#DC143C>Follow the Chronomaster to start an unpredictable journey</color> and receive generous rewards!\n★The Timeless Trial consists of <color=#DC143C>55</color> trial missions, and the difficulty of each increases as you progress. Every fifth trial will be an <color=#DC143C>Elite Leader Trial</color>.\n★<color=#DC143C>Time Laws</color>: Affected by the Time Rift, trial missions will grant buffs or debuffs to certain heroes. Please choose your lineup wisely!\n★<color=#DC143C>Recommended Heroes</color>: The Time Rift will inspire certain heroes, and using these specified heroes will boost all of their stats!\n★The Timeless Trial <color=#DC143C>resets every Monday</color>, after which the Time Rift will create new trials for you to continue your challenge!"
	},
	{
		"ID": 31,
		"Value": "<color=#008B00>◆Guild Info◆</color>\n★ With the power of the Langrisser, players travel through the time and space and work with Langrisser players in other universes to embark on new adventures!\n★ Players can use a <color=#DC143C>Guild License</color> to create new Guilds, or join existing Guilds by applying.\n★ League members include: <color=#DC143C>Guild Leader</color> (1 person), <color=#DC143C>Vice Leader</color> (up to 3 people), Elites, and Members.\n★ Players can consume Stamina to accumulate Vitality and become Elite. Vice leaders are appointed by the Guild Leader.\n★ The Guild Leader and Vice Leader have the right to <color=#DC143C>expel members</color>: if the Guild Leader has been offline for a long period, Vice Leaders and Elite members can initiate <color=#DC143C>leader dismissal</color>.\n★ Guild name can be changed by spending <color=#DC143C>Trinity Crystals</color>."
	},
	{
		"ID": 32,
		"Value": "<color=#008B00>◆Twin Princesses of Caconsis - Limited Summoning Event◆</color>\n★When obtaining an SSR hero during the <color=#DC143C>summoning event</color>, the chance of obtaining one of the selected event heroes will be greatly increased! \n★The base chance of obtaining an SSR hero will remain the same as that of a normal \"Hero Summon\".\n\n<color=#008B00>◆Limited-Edition Heroes◆</color>\n★Heroes with an increased drop rate during this event are: \n<color=#DC143C>SSR Angelina</color> and <color=#DC143C>SSR Shelfaniel</color>. \n\n<color=#008B00>◆[10x Summon] Special Instructions◆</color>\n★<color=#DC143C>During the limited summoning period, </color>[10x Summons] will guarantee you at least <color=#DC143C>1</color> SR hero."
	},
	{
		"ID": 33,
		"Value": "<color=#008B00>◆Legendary Convergence - Limited-time Summon◆</color>\n★When obtaining an SSR hero during the <color=#DC143C>summoning event</color>, the chance of obtaining one of the selected event heroes will be greatly increased! \n★The base chance of obtaining an SSR hero will remain the same as that of a normal \"Hero Summon\".\n★<color=#DC143C>Special Bonus</color>: The first SSR hero you obtain during this event is guaranteed to be a special SSR hero from the event banner that you do not already own. (If you already have all the heroes on the list, you can get another SSR hero or a duplicate of a selected SSR hero.)\n\n<color=#008B00>◆Limited-Edition Heroes◆</color>\n★Heroes with an increased drop rate during this event are: \n<color=#DC143C>SSR Ledin</color>, <color=#DC143C>SSR Leon</color>, and <color=#DC143C>SSR Elwin</color>. \n\n<color=#008B00>◆[10x Summon] Special Instructions◆</color>\n★<color=#DC143C>During the limited summoning period, </color>[10x Summons] will guarantee you at least <color=#DC143C>1</color> SR hero."
	},
	{
		"ID": 34,
		"Value": "<color=#008B00>◆Princess League Destiny Summon - Limited-time Summon Event◆</color>\n★When obtaining an SSR hero during the <color=#DC143C>summoning event</color>, the chance of obtaining one of the selected heroes is greatly increased! \n★The base chance of obtaining an SSR hero will remain the same as that of a normal \"Hero Summon\".\n★<color=#DC143C>Special Bonus</color>: The first SSR hero you obtain during this event is guaranteed to be a special SSR hero from the event banner that you do not already own. \n\n<color=#008B00>◆Limited-Edition Heroes◆</color>\n★Heroes with an increased drop rate during this event are: \n<color=#DC143C>SSR Luna</color>, <color=#DC143C>SSR Lana</color>, and <color=#DC143C>SSR Tiaris</color>. \n\n<color=#008B00>◆[10x Summon] Special Instructions◆</color>\n★<color=#DC143C>During the limited summoning period, </color>[10x Summons] will guarantee you at least <color=#DC143C>1</color> SR hero."
	},
	{
		"ID": 35,
		"Value": "<color=#008B00>◆Guild Event Info◆</color>\n★Join hands with <color=#DC143C>like-minded Commanders to build a new world!</color>\n★Guild events must be activated by the <color=#DC143C>Guild Leader or Vice Leader</color>. If you wish to attend more events, let your Guild Leader know!"
	},
	{
		"ID": 36,
		"Value": "<color=#008B00>◆Guild Battle Difficulty Info◆</color>\n★<color=#DC143C>Opening Requirements: </color>Guild Battles must be started by the <color=#DC143C>Guild Leader or Vice Leader</color>. There are different difficulties for Guild Battles, which will be unlocked in sequence according to the level of guild members. \n★<color=#DC143C>Opening Time: </color>Guild Battles can be opened <color=#DC143C>2</color> times per week. Chances will be reset every Monday. \n★<color=#DC143C>A guild can only start one Guild Battle at a time. </color>When the Guild Battle is finished, or is given up by the Guild Leader or Vice Leader, you can start a new Guild Battle."
	},
	{
		"ID": 37,
		"Value": "<color=#008B00>◆Guild Battle Instructions◆</color>\n★<color=#DC143C>Stronghold: </color>Guild Battles are divided into different stages. Each stage has different <color=#DC143C>Faction Bonuses</color>, and using corresponding heroes from the same faction will grant them a <color=#DC143C>40%</color> power bonus. \n★<color=#DC143C>Deployment Limit: </color><color=#DC143C>Each hero can only be deployed to fight stronghold battles once per day. </color>If withdrawn from battle, the hero will still be unable to compete again. \n★<color=#DC143C>Teaming Rules: </color>Battles can be completed in solo mode, as well as with a team, but you can only team up with Commanders from the same guild. \n<color=#008B00>◆Battle Rules◆</color>\n★New enemies will constantly spawn, and each enemy you defeat will grant you <color=#DC143C>Battle Points</color>. Annihilating all enemies will earn you <color=#DC143C>Annihilation Points</color>. \n★Try <color=#DC143C>defeating as many enemies as possible</color> before the time runs out. Guild Battle points will be calculated based on the number of the defeated enemies, as well as the total <color=#DC143C>Stronghold Domination Progress</color> of the guild. \n★<color=#DC143C>Exiting the level mid-game will not grant you Guild Battle points</color> in a Guild Battle, but as long as you have defeated an enemy, even if your team is wiped out, you can still get points. Therefore, make sure you fight until your last breath! \n<color=#008B00>◆Rewards◆</color>\n★<color=#DC143C>Personal Guild Battle Point Rewards: </color>Obtained when points reach a certain amount. \n★<color=#DC143C>Total Domination Reward: </color>After you completely dominate a stronghold, all members participating in the Guild Battle will receive the Domination Reward after the battle. \n★<color=#DC143C>Guild Battle Progress Rewards: </color>When the Guild Battle is over, all members who participated will be issued Guild Battle Progress Rewards. The higher the progress, the higher the rewards."
	},
	{
		"ID": 38,
		"Value": "<color=#008B00>◆Eternal Temple Info◆</color>\n★ Deep in the heart of the Eternal Temple, challenge awaits... Conquer the powerful phantoms within to obtain <color=#DC143C>Bond Keepsakes</color>! Challenge the temple and deepen your bonds with your heroes!\n★ Phantoms are formidable foes... Defeating them requires both a strong lineup and brilliant strategy!\n★ The Eternal Temple can only be challenged <color=#DC143C>once</color> per day.\n★ Use heroes of the <color=#DC143C>Recommended Faction</color> and they'll gain a huge boost in combat effectiveness! Different phantoms are opposed by different <color=#DC143C>Factions</color>.\n\n<color=#008B00>◆Dungeon Times◆</color>\nMonday & Thursday: Valkyrie - Recommended Faction: <color=#DC143C>Origins of Light, Empire's Honor</color>\nTuesday & Friday: Leviar - Recommended Faction: <color=#DC143C>Dark Reincarnation, Princess Alliance</color>\nWednesday & Saturday: Scylla - Recommended Faction: <color=#DC143C>Meteor Strike, Legion of Glory</color>\nSunday:       Phoenix - Recommended Faction: <color=#DC143C>Strategic Masters, Protagonists, Yeless Legends</color>"
	},
	{
		"ID": 39,
		"Value": "<color=#008B00>◆Lost Tales Event Info◆</color>\n★ The old tales of El Sallia speak of countless secret treasures waiting to be discovered. Challenge each stage to obtain <color=#DC143C>event items</color> and exchange them for fantastic rewards! \n★ Different heroes have their own advantages in collecting different items. Deploy <color=#DC143C>\"Recommended Heroes\"</color> to gain the corresponding item's <color=#DC143C>drop bonus</color>. \n★ At different periods of the event, different levels will be unlocked. Some levels can be challenged only when the preceding levels have been passed. \n★ Event levels are divided into <color=#DC143C>Plot Levels, Challenge Levels</color>, and <color=#DC143C>Repeat Levels</color>. Plot Levels, Challenge Levels, and Repeat Levels can all be challenged multiple times. Repeatedly challenging Plot Levels and Challenge Levels does not consume Stamina, but also does not grant rewards. \n★ Players can team up to challenge Repeat Levels, but Plot Levels can only be challenged in single player mode."
	},
	{
		"ID": 40,
		"Value": "<color=#008B00>◆Event Info◆</color>\n★ The Aniki Bros. have been refining their own brand of philosophy to bring you a ridiculously rewarding revelation!\n★ During the event, you'll get the chance to try your luck and <color=#DC143C>take a free spin</color>!\n★ <color=#DC143C>Each spin will yield a different reward! </color>Spin 10 times, and you're guaranteed to get all of the rewards!\n★ After your free spin, each subsequent spin consumes the following number of Trinity Crystals: 50 Trinity Crystals, 100 Trinity Crystals, 200 Trinity Crystals, 300 Trinity Crystals, 400 Trinity Crystals, 500 Trinity Crystals, 600 Trinity Crystals, 800 Trinity Crystals, and 1,000 Trinity Crystals.\n★ Prizes will be added directly to your bag! Please check it carefully!"
	},
	{
		"ID": 41,
		"Value": "<color=#008B00>◆Return to Glory Event Info◆</color>\n★ Welcome back, Commander! I hope you are well! I've prepared some small missions to help you get back into the flow of things after your absence!\n★ This event lasts for <color=#DC143C>10 days</color>. Complete <color=#DC143C>special missions</color> during this period to earn rewards!\n★ Completing event missions will grant <color=#DC143C>Event Points</color>. Build up your points to a certain level and you'll get huge rewards!"
	},
	{
		"ID": 42,
		"Value": "<color=#008B00>◆Instructions for Twisted Fate◆</color>\n★ The power of Langrisser is gradually awakening, the singularity of time and space is looming, and the possibilities of fate are now beginning to diverge!<color=#DC143C> What choices will the heroes of parallel worlds make?</color> \n★ <color=#DC143C>Challenge points</color> can be obtained by completing your first clearance, and can be exchanged for personal hero equipment in the Secret Realm Store. \n★ Different levels correspond to different <color=#DC143C>\"Recommended Heroes\"</color>. They can get extra <color=#DC143C>combat bonuses</color> in battle. \n★ Each level has its own achievements. Extra challenge points can be obtained by completing these achievements."
	},
	{
		"ID": 43,
		"Value": "<color=#008B00>◆Lost Tales Event Info◆</color>\n★ The old tales of El Sallia speak of countless secret treasures waiting to be discovered. Challenge each stage to obtain <color=#DC143C>event items</color> and exchange them for fantastic rewards! \n★ Different heroes have their own advantages in collecting different items. Deploy <color=#DC143C>\"Recommended Heroes\"</color> to gain the corresponding item's <color=#DC143C>drop bonus</color>. \n★ At different periods of the event, different levels will be unlocked. Some levels can be challenged only when the preceding levels have been passed. \n★ Event levels are divided into <color=#DC143C>Plot Levels, Challenge Levels</color>, and <color=#DC143C>Repeat Levels</color>. Plot Levels, Challenge Levels, and Repeat Levels can all be challenged multiple times. Repeatedly challenging Plot Levels and Challenge Levels does not consume Stamina, but also does not grant rewards. \n★ Players can team up to challenge Repeat Levels, but Plot Levels can only be challenged in single player mode."
	},
	{
		"ID": 44,
		"Value": "<color=#008B00>◆Apex Arena Team Formation◆</color>\nAll Commanders must form a team of <color=#DC143C>15 heroes</color> to participate in Apex Arena battles. These heroes can be made up of heroes trained by Commanders or mercenary heroes which change weekly. \n\n<color=#008B00>★Mercenary:</color> \nMercenary heroes will be changed <color=#DC143C>every Monday</color>. <color=#DC143C>10 eligible heroes will be selected at random</color> from the entire competition area as mercenaries for all Commanders to use according to certain rules. \nThe data of these heroes will be from when they were chosen (including hero's class, skin, equipment, and enchantments) and a lucky gift will be sent to the selected hero's Commander via mail. \nAll Commanders are free to adjust the skills and soldiers of these mercenaries. Mercenary soldier data will be from the Commander's Training Field data. \nAfter the system changes mercenaries, if a Commander has used certain mercenaries before, the system will automatically remove these mercenaries from the team. The Commander needs to form the team again to continue fighting in the Apex Arena. \n\n<color=#008B00>★Special Rules:</color> \nYou can only use the same hero <color=#DC143C>once</color>. \nDuring Elimination Matches, mercenaries cannot be used by competitors."
	},
	{
		"ID": 45,
		"Value": "<color=#008B00>■Apex Arena Info■</color>\n★All commanders will be matched in the Apex Arena with <color=#DC143C>real opponents who meet the conditions</color>. Face the ultimate challenge in highly competitive PvP combat!\n\n<color=#008B00>★Team Formation:</color>\nAll commanders must form a team of 15 heroes to participate in Apex Arena battles. These heroes can be made up of heroes trained by Commanders or mercenary heroes which change weekly. Check the Team Formation screen for more information. \n\n<color=#008B00>★Season Tier Division Rules:</color> \nPlayers in the Apex Arena need to go through Ranked Match, Points Match, and Elimination Match stages every season. \n<color=#DC143C>◆Ranked Match:</color> \nEach player will need to participate in 5 Ranked Matches to determine their starting tier for the season. This tier is determined by the final tier of the previous season (Bronze III by default if there is no result from the previous season) and the result of Ranked Matches. \n\n<color=#DC143C>◆Points Match:</color> \nAt the end of the Ranked Match stage, the Points Match stage will be automatically unlocked. Defeat opponents in Points Matches to obtain season points. The stronger the opponent you defeat, and the higher the number of consecutive wins, the more points will be obtained. If you are defeated, points will be deducted. \n<color=#DC143C>Tier Protection Mechanism:</color> Silver players will not be demoted to Bronze, Gold players will not be demoted to Silver, and Langrisser players will not be demoted to Gold. When you are in the middle of two tiers, only by losing two battles consecutively can you be demoted to a lower tier. \n<color=#DC143C>Promotion Points Reset:</color> When you're promoted to a higher tier, points will be recalculated from the lowest tier's points +1. \n<color=#DC143C>Punishment for Malicious Play:</color> If cheating is detected by the system, players will no longer be able to participate in ranked competition on that day. \n\n<color=#DC143C>◆Elimination Match:</color> \nAt the end of the Points Match, Commanders who are in the <color=#DC143C>top 256 in the points rankings</color> will automatically enter an Elimination Match. The team status for Elimination Matches can be checked on the Match Status screen after an Elimination Match begins.<color=#DC143C> During an Elimination Match, players cannot use mercenaries</color>. \nTop 256-32 stage uses a <color=#DC143C>best-of-1</color> format, and top 16 stage uses a <color=#DC143C>best-of-3</color> format. \nCommanders who are not participating in the competition can support their favorite players. Specific rules can be checked after the start of an Elimination Match. \n\n<color=#008B00>★Final Calculation:</color> \nRewards will be sent according to the results of the Elimination Match. After that, all players' season points will be reset to zero and the initial points of the next season's Ranked Match will start from the final results in this season. \n\n<color=#008B00>★Battle Rules:</color>\n<color=#008B00> ◆Banning and Picking:</color>\nIn conventional matching mode, both players will decide the final heroes by using a ban and pick method outside of battle. \n<color=#DC143C>Rules for Hero Selecting:</color> \n1. The second player can ban 1 of the first player's heroes. \n2. The first player can ban 1 of the second player's heroes and pick 1 of their own heroes. \n3. The second player can ban 2 of the first player's heroes and pick 1 of their own heroes. \n4. The first player can ban 2 of the second player's heroes and pick 1 of their own heroes. \nRepeat step 3-4 until both sides have picked 5 heroes. \n<color=#008B00>◆Preparation Before Battle:</color> \nWhen preparing for battle, only the opponents heroes are known. You can also adjust the positions, skills, and soldiers of the heroes you use. \n<color=#008B00>◆Battle Period:</color> \nWhen the battle reaches <color=#DC143C>round 2</color>, <color=#DC143C>highly poisonous terrain</color> will appear, extending to the center of the battlefield. \n\n<color=#008B00>★Reward:</color> \n<color=#DC143C>Treasure Box:</color> Can be obtained after the first ranked battle victory. (Not available during off-season or Elimination Match period)<color=#DC143C>Tier Week Reward:</color> Will be sent via mail according to your tier each Sunday at 23:30 PM. \n<color=#DC143C>Season Tier Reward:</color> During the Points Match period, complete more than 10 matches and reach the designated tier to obtain rewards. Rewards will be sent via mail. \n<color=#DC143C>Elimination Match Rewards:</color> Exclusive rewards for competitors. Will be sent at the end of the Elimination Match according to different rankings. The final champion can also win an <color=#DC143C>Official Mystery Prize</color>."
	}
]