[
	{
		"ID": 1,
		"Name": "Infantry Expedition Difficulty 1",
		"Resource": [
			"UI",
			"Icon",
			"Item_ABS",
			"Item_StarterPack.png"
		],
		"RequiredUserLevel": 1,
		"CompletePoints": 2400,
		"Rewards": [
			{
				"CompleteValue": 1,
				"DropID": 5801
			},
			{
				"CompleteValue": 50,
				"DropID": 5802
			},
			{
				"CompleteValue": 80,
				"DropID": 5803
			},
			{
				"CompleteValue": 100,
				"DropID": 5804
			}
		]
	},
	{
		"ID": 2,
		"Name": "Infantry Expedition Difficulty 2",
		"Resource": [
			"UI",
			"Icon",
			"Item_ABS",
			"Item_StarterPack.png"
		],
		"RequiredUserLevel": 25,
		"CompletePoints": 5200,
		"Rewards": [
			{
				"CompleteValue": 1,
				"DropID": 5805
			},
			{
				"CompleteValue": 50,
				"DropID": 5806
			},
			{
				"CompleteValue": 80,
				"DropID": 5807
			},
			{
				"CompleteValue": 100,
				"DropID": 5808
			}
		]
	},
	{
		"ID": 3,
		"Name": "Infantry Expedition Difficulty 3",
		"Resource": [
			"UI",
			"Icon",
			"Item_ABS",
			"Item_StarterPack.png"
		],
		"RequiredUserLevel": 35,
		"CompletePoints": 8000,
		"Rewards": [
			{
				"CompleteValue": 1,
				"DropID": 5809
			},
			{
				"CompleteValue": 50,
				"DropID": 5810
			},
			{
				"CompleteValue": 80,
				"DropID": 5811
			},
			{
				"CompleteValue": 100,
				"DropID": 5812
			}
		]
	},
	{
		"ID": 4,
		"Name": "Infantry Expedition Difficulty 4",
		"Resource": [
			"UI",
			"Icon",
			"Item_ABS",
			"Item_StarterPack.png"
		],
		"RequiredUserLevel": 45,
		"CompletePoints": 12000,
		"Rewards": [
			{
				"CompleteValue": 1,
				"DropID": 5813
			},
			{
				"CompleteValue": 50,
				"DropID": 5814
			},
			{
				"CompleteValue": 80,
				"DropID": 5815
			},
			{
				"CompleteValue": 100,
				"DropID": 5816
			}
		]
	},
	{
		"ID": 5,
		"Name": "Infantry Expedition Difficulty 5",
		"Resource": [
			"UI",
			"Icon",
			"Item_ABS",
			"Item_StarterPack.png"
		],
		"RequiredUserLevel": 55,
		"CompletePoints": 17000,
		"Rewards": [
			{
				"CompleteValue": 1,
				"DropID": 5817
			},
			{
				"CompleteValue": 50,
				"DropID": 5818
			},
			{
				"CompleteValue": 80,
				"DropID": 5819
			},
			{
				"CompleteValue": 100,
				"DropID": 5820
			}
		]
	},
	{
		"ID": 6,
		"Name": "Lancer Expedition Difficulty 1",
		"Resource": [
			"UI",
			"Icon",
			"Item_ABS",
			"Item_StarterPack.png"
		],
		"RequiredUserLevel": 1,
		"CompletePoints": 2400,
		"Rewards": [
			{
				"CompleteValue": 1,
				"DropID": 5821
			},
			{
				"CompleteValue": 50,
				"DropID": 5822
			},
			{
				"CompleteValue": 80,
				"DropID": 5823
			},
			{
				"CompleteValue": 100,
				"DropID": 5824
			}
		]
	},
	{
		"ID": 7,
		"Name": "Lancer Expedition Difficulty 2",
		"Resource": [
			"UI",
			"Icon",
			"Item_ABS",
			"Item_StarterPack.png"
		],
		"RequiredUserLevel": 25,
		"CompletePoints": 5200,
		"Rewards": [
			{
				"CompleteValue": 1,
				"DropID": 5825
			},
			{
				"CompleteValue": 50,
				"DropID": 5826
			},
			{
				"CompleteValue": 80,
				"DropID": 5827
			},
			{
				"CompleteValue": 100,
				"DropID": 5828
			}
		]
	},
	{
		"ID": 8,
		"Name": "Lancer Expedition Difficulty 3",
		"Resource": [
			"UI",
			"Icon",
			"Item_ABS",
			"Item_StarterPack.png"
		],
		"RequiredUserLevel": 35,
		"CompletePoints": 8000,
		"Rewards": [
			{
				"CompleteValue": 1,
				"DropID": 5829
			},
			{
				"CompleteValue": 50,
				"DropID": 5830
			},
			{
				"CompleteValue": 80,
				"DropID": 5831
			},
			{
				"CompleteValue": 100,
				"DropID": 5832
			}
		]
	},
	{
		"ID": 9,
		"Name": "Lancer Expedition Difficulty 4",
		"Resource": [
			"UI",
			"Icon",
			"Item_ABS",
			"Item_StarterPack.png"
		],
		"RequiredUserLevel": 45,
		"CompletePoints": 12000,
		"Rewards": [
			{
				"CompleteValue": 1,
				"DropID": 5833
			},
			{
				"CompleteValue": 50,
				"DropID": 5834
			},
			{
				"CompleteValue": 80,
				"DropID": 5835
			},
			{
				"CompleteValue": 100,
				"DropID": 5836
			}
		]
	},
	{
		"ID": 10,
		"Name": "Lancer Expedition Difficulty 5",
		"Resource": [
			"UI",
			"Icon",
			"Item_ABS",
			"Item_StarterPack.png"
		],
		"RequiredUserLevel": 55,
		"CompletePoints": 17000,
		"Rewards": [
			{
				"CompleteValue": 1,
				"DropID": 5837
			},
			{
				"CompleteValue": 50,
				"DropID": 5838
			},
			{
				"CompleteValue": 80,
				"DropID": 5839
			},
			{
				"CompleteValue": 100,
				"DropID": 5840
			}
		]
	},
	{
		"ID": 11,
		"Name": "Cavalry Expedition Difficulty 1",
		"Resource": [
			"UI",
			"Icon",
			"Item_ABS",
			"Item_StarterPack.png"
		],
		"RequiredUserLevel": 1,
		"CompletePoints": 2400,
		"Rewards": [
			{
				"CompleteValue": 1,
				"DropID": 5841
			},
			{
				"CompleteValue": 50,
				"DropID": 5842
			},
			{
				"CompleteValue": 80,
				"DropID": 5843
			},
			{
				"CompleteValue": 100,
				"DropID": 5844
			}
		]
	},
	{
		"ID": 12,
		"Name": "Cavalry Expedition Difficulty 2",
		"Resource": [
			"UI",
			"Icon",
			"Item_ABS",
			"Item_StarterPack.png"
		],
		"RequiredUserLevel": 25,
		"CompletePoints": 5200,
		"Rewards": [
			{
				"CompleteValue": 1,
				"DropID": 5845
			},
			{
				"CompleteValue": 50,
				"DropID": 5846
			},
			{
				"CompleteValue": 80,
				"DropID": 5847
			},
			{
				"CompleteValue": 100,
				"DropID": 5848
			}
		]
	},
	{
		"ID": 13,
		"Name": "Cavalry Expedition Difficulty 3",
		"Resource": [
			"UI",
			"Icon",
			"Item_ABS",
			"Item_StarterPack.png"
		],
		"RequiredUserLevel": 35,
		"CompletePoints": 8000,
		"Rewards": [
			{
				"CompleteValue": 1,
				"DropID": 5849
			},
			{
				"CompleteValue": 50,
				"DropID": 5850
			},
			{
				"CompleteValue": 80,
				"DropID": 5851
			},
			{
				"CompleteValue": 100,
				"DropID": 5852
			}
		]
	},
	{
		"ID": 14,
		"Name": "Cavalry Expedition Difficulty 4",
		"Resource": [
			"UI",
			"Icon",
			"Item_ABS",
			"Item_StarterPack.png"
		],
		"RequiredUserLevel": 45,
		"CompletePoints": 12000,
		"Rewards": [
			{
				"CompleteValue": 1,
				"DropID": 5853
			},
			{
				"CompleteValue": 50,
				"DropID": 5854
			},
			{
				"CompleteValue": 80,
				"DropID": 5855
			},
			{
				"CompleteValue": 100,
				"DropID": 5856
			}
		]
	},
	{
		"ID": 15,
		"Name": "Cavalry Expedition Difficulty 5",
		"Resource": [
			"UI",
			"Icon",
			"Item_ABS",
			"Item_StarterPack.png"
		],
		"RequiredUserLevel": 55,
		"CompletePoints": 17000,
		"Rewards": [
			{
				"CompleteValue": 1,
				"DropID": 5857
			},
			{
				"CompleteValue": 50,
				"DropID": 5858
			},
			{
				"CompleteValue": 80,
				"DropID": 5859
			},
			{
				"CompleteValue": 100,
				"DropID": 5860
			}
		]
	},
	{
		"ID": 16,
		"Name": "Breeding Expedition Difficulty 1",
		"Resource": [
			"UI",
			"Icon",
			"Item_ABS",
			"Item_StarterPack.png"
		],
		"RequiredUserLevel": 1,
		"CompletePoints": 2400,
		"Rewards": [
			{
				"CompleteValue": 1,
				"DropID": 5861
			},
			{
				"CompleteValue": 50,
				"DropID": 5862
			},
			{
				"CompleteValue": 80,
				"DropID": 5863
			},
			{
				"CompleteValue": 100,
				"DropID": 5864
			}
		]
	},
	{
		"ID": 17,
		"Name": "Breeding Expedition Difficulty 2",
		"Resource": [
			"UI",
			"Icon",
			"Item_ABS",
			"Item_StarterPack.png"
		],
		"RequiredUserLevel": 25,
		"CompletePoints": 5200,
		"Rewards": [
			{
				"CompleteValue": 1,
				"DropID": 5865
			},
			{
				"CompleteValue": 50,
				"DropID": 5866
			},
			{
				"CompleteValue": 80,
				"DropID": 5867
			},
			{
				"CompleteValue": 100,
				"DropID": 5868
			}
		]
	},
	{
		"ID": 18,
		"Name": "Breeding Expedition Difficulty 3",
		"Resource": [
			"UI",
			"Icon",
			"Item_ABS",
			"Item_StarterPack.png"
		],
		"RequiredUserLevel": 35,
		"CompletePoints": 8000,
		"Rewards": [
			{
				"CompleteValue": 1,
				"DropID": 5869
			},
			{
				"CompleteValue": 50,
				"DropID": 5870
			},
			{
				"CompleteValue": 80,
				"DropID": 5871
			},
			{
				"CompleteValue": 100,
				"DropID": 5872
			}
		]
	},
	{
		"ID": 19,
		"Name": "Breeding Expedition Difficulty 4",
		"Resource": [
			"UI",
			"Icon",
			"Item_ABS",
			"Item_StarterPack.png"
		],
		"RequiredUserLevel": 45,
		"CompletePoints": 12000,
		"Rewards": [
			{
				"CompleteValue": 1,
				"DropID": 5873
			},
			{
				"CompleteValue": 50,
				"DropID": 5874
			},
			{
				"CompleteValue": 80,
				"DropID": 5875
			},
			{
				"CompleteValue": 100,
				"DropID": 5876
			}
		]
	},
	{
		"ID": 20,
		"Name": "Breeding Expedition Difficulty 5",
		"Resource": [
			"UI",
			"Icon",
			"Item_ABS",
			"Item_StarterPack.png"
		],
		"RequiredUserLevel": 55,
		"CompletePoints": 17000,
		"Rewards": [
			{
				"CompleteValue": 1,
				"DropID": 5877
			},
			{
				"CompleteValue": 50,
				"DropID": 5878
			},
			{
				"CompleteValue": 80,
				"DropID": 5879
			},
			{
				"CompleteValue": 100,
				"DropID": 5880
			}
		]
	},
	{
		"ID": 21,
		"Name": "Survival Expedition Difficulty 1",
		"Resource": [
			"UI",
			"Icon",
			"Item_ABS",
			"Item_StarterPack.png"
		],
		"RequiredUserLevel": 1,
		"CompletePoints": 2400,
		"Rewards": [
			{
				"CompleteValue": 1,
				"DropID": 5881
			},
			{
				"CompleteValue": 50,
				"DropID": 5882
			},
			{
				"CompleteValue": 80,
				"DropID": 5883
			},
			{
				"CompleteValue": 100,
				"DropID": 5884
			}
		]
	},
	{
		"ID": 22,
		"Name": "Survival Expedition Difficulty 2",
		"Resource": [
			"UI",
			"Icon",
			"Item_ABS",
			"Item_StarterPack.png"
		],
		"RequiredUserLevel": 25,
		"CompletePoints": 5200,
		"Rewards": [
			{
				"CompleteValue": 1,
				"DropID": 5885
			},
			{
				"CompleteValue": 50,
				"DropID": 5886
			},
			{
				"CompleteValue": 80,
				"DropID": 5887
			},
			{
				"CompleteValue": 100,
				"DropID": 5888
			}
		]
	},
	{
		"ID": 23,
		"Name": "Survival Expedition Difficulty 3",
		"Resource": [
			"UI",
			"Icon",
			"Item_ABS",
			"Item_StarterPack.png"
		],
		"RequiredUserLevel": 35,
		"CompletePoints": 8000,
		"Rewards": [
			{
				"CompleteValue": 1,
				"DropID": 5889
			},
			{
				"CompleteValue": 50,
				"DropID": 5890
			},
			{
				"CompleteValue": 80,
				"DropID": 5891
			},
			{
				"CompleteValue": 100,
				"DropID": 5892
			}
		]
	},
	{
		"ID": 24,
		"Name": "Survival Expedition Difficulty 4",
		"Resource": [
			"UI",
			"Icon",
			"Item_ABS",
			"Item_StarterPack.png"
		],
		"RequiredUserLevel": 45,
		"CompletePoints": 12000,
		"Rewards": [
			{
				"CompleteValue": 1,
				"DropID": 5893
			},
			{
				"CompleteValue": 50,
				"DropID": 5894
			},
			{
				"CompleteValue": 80,
				"DropID": 5895
			},
			{
				"CompleteValue": 100,
				"DropID": 5896
			}
		]
	},
	{
		"ID": 25,
		"Name": "Survival Expedition Difficulty 5",
		"Resource": [
			"UI",
			"Icon",
			"Item_ABS",
			"Item_StarterPack.png"
		],
		"RequiredUserLevel": 55,
		"CompletePoints": 17000,
		"Rewards": [
			{
				"CompleteValue": 1,
				"DropID": 5897
			},
			{
				"CompleteValue": 50,
				"DropID": 5898
			},
			{
				"CompleteValue": 80,
				"DropID": 5899
			},
			{
				"CompleteValue": 100,
				"DropID": 5900
			}
		]
	},
	{
		"ID": 26,
		"Name": "Religious Expedition Difficulty 1",
		"Resource": [
			"UI",
			"Icon",
			"Item_ABS",
			"Item_StarterPack.png"
		],
		"RequiredUserLevel": 1,
		"CompletePoints": 2400,
		"Rewards": [
			{
				"CompleteValue": 1,
				"DropID": 5901
			},
			{
				"CompleteValue": 50,
				"DropID": 5902
			},
			{
				"CompleteValue": 80,
				"DropID": 5903
			},
			{
				"CompleteValue": 100,
				"DropID": 5904
			}
		]
	},
	{
		"ID": 27,
		"Name": "Religious Expedition Difficulty 2",
		"Resource": [
			"UI",
			"Icon",
			"Item_ABS",
			"Item_StarterPack.png"
		],
		"RequiredUserLevel": 25,
		"CompletePoints": 5200,
		"Rewards": [
			{
				"CompleteValue": 1,
				"DropID": 5905
			},
			{
				"CompleteValue": 50,
				"DropID": 5906
			},
			{
				"CompleteValue": 80,
				"DropID": 5907
			},
			{
				"CompleteValue": 100,
				"DropID": 5908
			}
		]
	},
	{
		"ID": 28,
		"Name": "Religious Expedition Difficulty 3",
		"Resource": [
			"UI",
			"Icon",
			"Item_ABS",
			"Item_StarterPack.png"
		],
		"RequiredUserLevel": 35,
		"CompletePoints": 8000,
		"Rewards": [
			{
				"CompleteValue": 1,
				"DropID": 5909
			},
			{
				"CompleteValue": 50,
				"DropID": 5910
			},
			{
				"CompleteValue": 80,
				"DropID": 5911
			},
			{
				"CompleteValue": 100,
				"DropID": 5912
			}
		]
	},
	{
		"ID": 29,
		"Name": "Religious Expedition Difficulty 4",
		"Resource": [
			"UI",
			"Icon",
			"Item_ABS",
			"Item_StarterPack.png"
		],
		"RequiredUserLevel": 45,
		"CompletePoints": 12000,
		"Rewards": [
			{
				"CompleteValue": 1,
				"DropID": 5913
			},
			{
				"CompleteValue": 50,
				"DropID": 5914
			},
			{
				"CompleteValue": 80,
				"DropID": 5915
			},
			{
				"CompleteValue": 100,
				"DropID": 5916
			}
		]
	},
	{
		"ID": 30,
		"Name": "Religious Expedition Difficulty 5",
		"Resource": [
			"UI",
			"Icon",
			"Item_ABS",
			"Item_StarterPack.png"
		],
		"RequiredUserLevel": 55,
		"CompletePoints": 17000,
		"Rewards": [
			{
				"CompleteValue": 1,
				"DropID": 5917
			},
			{
				"CompleteValue": 50,
				"DropID": 5918
			},
			{
				"CompleteValue": 80,
				"DropID": 5919
			},
			{
				"CompleteValue": 100,
				"DropID": 5920
			}
		]
	},
	{
		"ID": 31,
		"Name": "Overall Expedition Difficulty 1",
		"Resource": [
			"UI",
			"Icon",
			"Item_ABS",
			"Item_StarterPack.png"
		],
		"RequiredUserLevel": 1,
		"CompletePoints": 2400,
		"Rewards": [
			{
				"CompleteValue": 1,
				"DropID": 5921
			},
			{
				"CompleteValue": 50,
				"DropID": 5922
			},
			{
				"CompleteValue": 80,
				"DropID": 5923
			},
			{
				"CompleteValue": 100,
				"DropID": 5924
			}
		]
	},
	{
		"ID": 32,
		"Name": "Overall Expedition Difficulty 2",
		"Resource": [
			"UI",
			"Icon",
			"Item_ABS",
			"Item_StarterPack.png"
		],
		"RequiredUserLevel": 25,
		"CompletePoints": 5200,
		"Rewards": [
			{
				"CompleteValue": 1,
				"DropID": 5925
			},
			{
				"CompleteValue": 50,
				"DropID": 5926
			},
			{
				"CompleteValue": 80,
				"DropID": 5927
			},
			{
				"CompleteValue": 100,
				"DropID": 5928
			}
		]
	},
	{
		"ID": 33,
		"Name": "Overall Expedition Difficulty 3",
		"Resource": [
			"UI",
			"Icon",
			"Item_ABS",
			"Item_StarterPack.png"
		],
		"RequiredUserLevel": 35,
		"CompletePoints": 8000,
		"Rewards": [
			{
				"CompleteValue": 1,
				"DropID": 5929
			},
			{
				"CompleteValue": 50,
				"DropID": 5930
			},
			{
				"CompleteValue": 80,
				"DropID": 5931
			},
			{
				"CompleteValue": 100,
				"DropID": 5932
			}
		]
	},
	{
		"ID": 34,
		"Name": "Overall Expedition Difficulty 4",
		"Resource": [
			"UI",
			"Icon",
			"Item_ABS",
			"Item_StarterPack.png"
		],
		"RequiredUserLevel": 45,
		"CompletePoints": 12000,
		"Rewards": [
			{
				"CompleteValue": 1,
				"DropID": 5933
			},
			{
				"CompleteValue": 50,
				"DropID": 5934
			},
			{
				"CompleteValue": 80,
				"DropID": 5935
			},
			{
				"CompleteValue": 100,
				"DropID": 5936
			}
		]
	},
	{
		"ID": 35,
		"Name": "Overall Expedition Difficulty 5",
		"Resource": [
			"UI",
			"Icon",
			"Item_ABS",
			"Item_StarterPack.png"
		],
		"RequiredUserLevel": 55,
		"CompletePoints": 17000,
		"Rewards": [
			{
				"CompleteValue": 1,
				"DropID": 5937
			},
			{
				"CompleteValue": 50,
				"DropID": 5938
			},
			{
				"CompleteValue": 80,
				"DropID": 5939
			},
			{
				"CompleteValue": 100,
				"DropID": 5940
			}
		]
	}
]