[
	{
		"ID": 1,
		"RecordRewardId": 1,
		"Evaluate": "B",
		"Damage": 1,
		"SingleBossRewardMailTemplateId": 100000
	},
	{
		"ID": 2,
		"RecordRewardId": 1,
		"Evaluate": "A",
		"Damage": 10001,
		"SingleBossRewardMailTemplateId": 100001
	},
	{
		"ID": 3,
		"RecordRewardId": 1,
		"Evaluate": "S",
		"Damage": 50001,
		"SingleBossRewardMailTemplateId": 100001
	},
	{
		"ID": 4,
		"RecordRewardId": 1,
		"Evaluate": "SS",
		"Damage": 100001,
		"SingleBossRewardMailTemplateId": 100001
	},
	{
		"ID": 5,
		"RecordRewardId": 1,
		"Evaluate": "SSS",
		"Damage": 200001,
		"SingleBossRewardMailTemplateId": 100001
	},
	{
		"ID": 6,
		"RecordRewardId": 2,
		"Evaluate": "B",
		"Damage": 1,
		"SingleBossRewardMailTemplateId": 100000
	},
	{
		"ID": 7,
		"RecordRewardId": 2,
		"Evaluate": "A",
		"Damage": 10001,
		"SingleBossRewardMailTemplateId": 100001
	},
	{
		"ID": 8,
		"RecordRewardId": 2,
		"Evaluate": "S",
		"Damage": 50001,
		"SingleBossRewardMailTemplateId": 100001
	},
	{
		"ID": 9,
		"RecordRewardId": 2,
		"Evaluate": "SS",
		"Damage": 100001,
		"SingleBossRewardMailTemplateId": 100001
	},
	{
		"ID": 10,
		"RecordRewardId": 2,
		"Evaluate": "SSS",
		"Damage": 200001,
		"SingleBossRewardMailTemplateId": 100001
	},
	{
		"ID": 11,
		"RecordRewardId": 3,
		"Evaluate": "B",
		"Damage": 1,
		"SingleBossRewardMailTemplateId": 100000
	},
	{
		"ID": 12,
		"RecordRewardId": 3,
		"Evaluate": "A",
		"Damage": 10001,
		"SingleBossRewardMailTemplateId": 100001
	},
	{
		"ID": 13,
		"RecordRewardId": 3,
		"Evaluate": "S",
		"Damage": 50001,
		"SingleBossRewardMailTemplateId": 100001
	},
	{
		"ID": 14,
		"RecordRewardId": 3,
		"Evaluate": "SS",
		"Damage": 100001,
		"SingleBossRewardMailTemplateId": 100001
	},
	{
		"ID": 15,
		"RecordRewardId": 3,
		"Evaluate": "SSS",
		"Damage": 200001,
		"SingleBossRewardMailTemplateId": 100001
	}
]