v -2.1346678733825684 -1.3585224151611328 -5.147451877593994
v 0.11340269446372986 -1.3585224151611328 1.0268875360488892
v 0.6694018840789795 -1.3585224151611328 0.8245192170143127
v -1.5787110328674316 -1.3585224151611328 -5.349803447723389
v 5.429941177368164 -1.3977203369140625 -1.353846788406372
v 5.25868034362793 -1.3977184295654297 -1.914014220237732
v 4.575050354003906 -1.3977184295654297 -1.6651932001113892
v 4.724047660827637 -1.3977184295654297 -1.1778473854064941
v 5.541709899902344 -1.3977203369140625 -0.7788459062576294
v 4.821286201477051 -1.3977203369140625 -0.6775972247123718
v 5.5927629470825195 -1.3977203369140625 -0.19531258940696716
v 4.865702152252197 -1.3977203369140625 -0.16992318630218506
v 5.582539081573486 -1.3977203369140625 0.39036068320274353
v 4.856808185577393 -1.3977203369140625 0.3396127223968506
v 5.511152267456055 -1.3977203369140625 0.9717573523521423
v 4.794701099395752 -1.3977203369140625 0.8454278111457825
v 5.379384994506836 -1.3977203369140625 1.542506456375122
v 4.680063247680664 -1.3977184295654297 1.341979742050171
v 5.1886796951293945 -1.3977184295654297 2.096356153488159
v 4.5141496658325195 -1.3977184295654297 1.8238285779953003
v 4.941125392913818 -1.3977184295654297 2.627237558364868
v 4.2987775802612305 -1.3977184295654297 2.2856953144073486
v 4.639434814453125 -1.3977184295654297 3.129333257675171
v 4.036307334899902 -1.3977184295654297 2.7225193977355957
v 4.286914348602295 -1.3977184295654297 3.597144365310669
v 3.729614019393921 -1.3977184295654297 3.129514455795288
v 3.887424945831299 -1.3977203369140625 4.0255446434021
v 3.38205885887146 -1.3977203369140625 3.5022220611572266
v 3.445344924926758 -1.3977184295654297 4.409839630126953
v 2.997448205947876 -1.3977184295654297 3.836559534072876
v 2.9655158519744873 -1.3977184295654297 4.745819091796875
v 2.5799968242645264 -1.3977203369140625 4.128860950469971
v 2.4531962871551514 -1.3977203369140625 5.029803276062012
v 2.134279727935791 -1.3977184295654297 4.375927925109863
v 1.913999080657959 -1.3977184295654297 5.258677959442139
v 1.665177583694458 -1.3977203369140625 4.575048923492432
v 1.3538318872451782 -1.3977184295654297 5.429938793182373
v 1.1778322458267212 -1.3977203369140625 4.724045276641846
v 0.7788310050964355 -1.3977184295654297 5.541706562042236
v 0.6775816679000854 -1.3977184295654297 4.82128381729126
v 0.19529733061790466 -1.3977203369140625 5.592759609222412
v 0.16990721225738525 -1.3977203369140625 4.865699768066406
v -0.3903757929801941 -1.3977203369140625 5.582537651062012
v -0.3396283686161041 -1.3977184295654297 4.85680627822876
v -0.9717728495597839 -1.3977184295654297 5.511149883270264
v -0.8454435467720032 -1.3977184295654297 4.794699668884277
v -1.5425212383270264 -1.3977184295654297 5.379382610321045
v -1.3419947624206543 -1.3977184295654297 4.6800618171691895
v -2.0963711738586426 -1.3977184295654297 5.188676834106445
v -1.823844075202942 -1.3977165222167969 4.514148712158203
v -2.627251148223877 -1.3977184295654297 4.9411234855651855
v -2.2857096195220947 -1.3977184295654297 4.298776149749756
v -3.1293468475341797 -1.3977184295654297 4.639434814453125
v -2.7225329875946045 -1.3977203369140625 4.036306858062744
v -3.5971574783325195 -1.3977184295654297 4.286914348602295
v -3.129528522491455 -1.3977184295654297 3.7296142578125
v -4.025557518005371 -1.3977184295654297 3.8874258995056152
v -3.5022363662719727 -1.3977165222167969 3.3820595741271973
v -4.409852504730225 -1.3977184295654297 3.4453463554382324
v -3.8365726470947266 -1.3977203369140625 2.997450590133667
v -4.745831489562988 -1.3977184295654297 2.9655182361602783
v -4.128875255584717 -1.3977203369140625 2.5799999237060547
v -5.029815196990967 -1.3977165222167969 2.453199625015259
v -4.375940799713135 -1.3977184295654297 2.1342830657958984
v -5.258691310882568 -1.3977184295654297 1.9140033721923828
v -4.575062274932861 -1.3977184295654297 1.6651817560195923
v -5.4299516677856445 -1.3977184295654297 1.353836178779602
v -4.724059104919434 -1.3977203369140625 1.1778366565704346
v -5.541721820831299 -1.3977184295654297 0.7788366079330444
v -4.821299076080322 -1.3977184295654297 0.67758709192276
v -5.592774391174316 -1.3977184295654297 0.19530396163463593
v -4.865715503692627 -1.3977184295654297 0.16991347074508667
v -5.582551956176758 -1.3977184295654297 -0.39036890864372253
v -4.8568220138549805 -1.3977184295654297 -0.33962172269821167
v -5.511167049407959 -1.3977184295654297 -0.9717646241188049
v -4.794716835021973 -1.3977184295654297 -0.8454360961914062
v -5.379400253295898 -1.3977184295654297 -1.5425137281417847
v -4.680079460144043 -1.3977203369140625 -1.3419878482818604
v -5.188695907592773 -1.3977184295654297 -2.096362590789795
v -4.514167308807373 -1.3977184295654297 -1.823836326599121
v -4.941142559051514 -1.3977165222167969 -2.627243995666504
v -4.2987961769104 -1.3977184295654297 -2.285703182220459
v -4.639453887939453 -1.3977203369140625 -3.129340887069702
v -4.036326885223389 -1.3977203369140625 -2.722527265548706
v -4.286934852600098 -1.3977184295654297 -3.597151756286621
v -3.7296347618103027 -1.3977184295654297 -3.1295225620269775
v -3.8874473571777344 -1.3977184295654297 -4.025551795959473
v -3.382080554962158 -1.3977184295654297 -3.5022311210632324
v -3.4453675746917725 -1.3977184295654297 -4.409847259521484
v -2.997471332550049 -1.3977184295654297 -3.8365676403045654
v -2.9655404090881348 -1.3977184295654297 -4.745827674865723
v -2.5800223350524902 -1.3977184295654297 -4.128871440887451
v -2.4532222747802734 -1.3977184295654297 -5.029812335968018
v -2.1343047618865967 -1.3977184295654297 -4.375937461853027
v -1.9140263795852661 -1.3977184295654297 -5.258688926696777
v -1.665204405784607 -1.3977184295654297 -4.575060844421387
v -1.3538601398468018 -1.3977184295654297 -5.429951190948486
v -1.1778597831726074 -1.3977184295654297 -4.724059104919434
v -0.7788602709770203 -1.3977184295654297 -5.541721820831299
v -0.6776101589202881 -1.3977184295654297 -4.821298122406006
v -0.19532743096351624 -1.3977184295654297 -5.592775821685791
v -0.1699363738298416 -1.3977184295654297 -4.865715503692627
v 0.39034509658813477 -1.3977184295654297 -5.582554817199707
v 0.33959871530532837 -1.3977203369140625 -4.856823444366455
v 0.9717410206794739 -1.3977184295654297 -5.511170387268066
v 0.8454135656356812 -1.3977184295654297 -4.79472017288208
v 1.5424904823303223 -1.3977184295654297 -5.379404544830322
v 1.3419650793075562 -1.3977203369140625 -4.680083274841309
v 2.0963401794433594 -1.3977184295654297 -5.188701152801514
v 1.823815107345581 -1.3977222442626953 -4.514171123504639
v 2.6272215843200684 -1.3977203369140625 -4.9411492347717285
v 2.2856812477111816 -1.3977184295654297 -4.298800945281982
v 3.1293184757232666 -1.3977184295654297 -4.639461040496826
v 2.722505807876587 -1.3977184295654297 -4.036332130432129
v 3.597130298614502 -1.3977184295654297 -4.286942958831787
v 3.129502058029175 -1.3977184295654297 -3.7296414375305176
v 4.0255303382873535 -1.3977203369140625 -3.8874568939208984
v 3.5022106170654297 -1.3977203369140625 -3.3820886611938477
v 4.40982723236084 -1.3977184295654297 -3.445377826690674
v 3.8365485668182373 -1.3977165222167969 -2.9974801540374756
v 4.745808124542236 -1.3977203369140625 -2.9655516147613525
v 4.128851890563965 -1.3977184295654297 -2.580031156539917
v 5.029793739318848 -1.3977203369140625 -2.453233480453491
v 4.375919342041016 -1.3977184295654297 -2.134315013885498
v 3.0454659461975098 -1.3977184295654297 -5.383707523345947
v 3.3237154483795166 -1.3977184295654297 -5.216519355773926
v 4.098247528076172 -1.3977203369140625 -4.632871627807617
v 4.335657119750977 -1.3977184295654297 -4.41148567199707
v 4.972811222076416 -1.3977184295654297 -3.6782829761505127
v 5.157216548919678 -1.3977203369140625 -3.4149277210235596
v 5.628293037414551 -1.3977203369140625 -2.565426826477051
v 5.755136013031006 -1.3977203369140625 -2.266604423522949
v -1.1117022950202227e-05 -1.3977108001708984 -7.734503014944494e-06
v 6.100776672363281 -1.3977203369140625 -1.0197298526763916
v 6.038535118103027 -1.3977184295654297 -1.3399325609207153
v 6.179471492767334 -1.3977203369140625 0.27097707986831665
v 6.1851654052734375 -1.3977203369140625 -0.055169232189655304
v 5.988271713256836 -1.3977184295654297 1.5490704774856567
v 6.061293601989746 -1.3977203369140625 1.2327755689620972
v 5.535672187805176 -1.3977203369140625 2.759542226791382
v 5.67219877243042 -1.3977203369140625 2.4667606353759766
v 4.840489864349365 -1.3977184295654297 3.850797414779663
v 5.035848617553711 -1.3977203369140625 3.591547966003418
v 3.9346771240234375 -1.3977222442626953 4.772530555725098
v 4.178485870361328 -1.3977222442626953 4.560591220855713
v 2.855743408203125 -1.3977184295654297 5.486685276031494
v 3.139657735824585 -1.3977203369140625 5.32930850982666
v 1.6540803909301758 -1.3977222442626953 5.960075855255127
v 1.961531639099121 -1.3977203369140625 5.866078853607178
v 0.37642377614974976 -1.3977203369140625 6.1739420890808105
v 0.701378345489502 -1.3977203369140625 6.145511150360107
v -0.9154388904571533 -1.3977184295654297 6.117290019989014
v -0.5916746854782104 -1.3977203369140625 6.15704345703125
v -2.165804386138916 -1.3977184295654297 5.793796539306641
v -1.8603547811508179 -1.3977184295654297 5.898971080780029
v -3.3244223594665527 -1.3977203369140625 5.216084003448486
v -3.044818878173828 -1.3977184295654297 5.3840861320495605
v -4.335683822631836 -1.3977184295654297 4.411455154418945
v -4.098275661468506 -1.3977184295654297 4.632842063903809
v -5.157684326171875 -1.3977165222167969 3.4142580032348633
v -4.972390651702881 -1.3977184295654297 3.678884744644165
v -5.755147457122803 -1.3977165222167969 2.266587018966675
v -5.628310203552246 -1.3977184295654297 2.565396547317505
v -6.100486755371094 -1.3977184295654297 1.0212652683258057
v -6.038845062255859 -1.3977184295654297 1.3383795022964478
v -6.179510593414307 -1.3977184295654297 -0.26941126585006714
v -6.185147762298584 -1.3977184295654297 0.053589001297950745
v -5.988286018371582 -1.3977184295654297 -1.5490766763687134
v -6.061307430267334 -1.3977184295654297 -1.2327818870544434
v -5.535689353942871 -1.3977184295654297 -2.759549379348755
v -5.672214984893799 -1.3977165222167969 -2.466766834259033
v -4.840981960296631 -1.3977184295654297 -3.8501789569854736
v -5.035396575927734 -1.3977165222167969 -3.592179536819458
v -3.9352846145629883 -1.3977184295654297 -4.772028923034668
v -4.177923202514648 -1.3977165222167969 -4.561105251312256
v -2.8564541339874268 -1.3977184295654297 -5.48631477355957
v -3.1389992237091064 -1.3977184295654297 -5.3296966552734375
v -1.6541098356246948 -1.3977184295654297 -5.960088729858398
v -1.961559534072876 -1.3977184295654297 -5.866089344024658
v -0.37645480036735535 -1.3977184295654297 -6.173958778381348
v -0.7014089822769165 -1.3977165222167969 -6.145527362823486
v 0.9146220684051514 -1.3977184295654297 -6.11740779876709
v 0.5924267172813416 -1.3977184295654297 -6.156966686248779
v 2.1657726764678955 -1.3977184295654297 -5.793820858001709
v 1.8603224754333496 -1.3977203369140625 -5.898994445800781
vn -0.0 -1.0 0.0
vn -0.0 -1.0 0.0
vn -0.0 -1.0 0.0
vn -0.0 -1.0 0.0
vn -0.0 -1.0 0.0
vn -0.0 -1.0 0.0
vn -0.0 -1.0 0.0
vn -0.0 -1.0 0.0
vn -0.0 -1.0 0.0
vn -0.0 -1.0 0.0
vn -0.0 -1.0 0.0
vn -0.0 -1.0 0.0
vn -0.0 -1.0 0.0
vn -0.0 -1.0 0.0
vn -0.0 -1.0 0.0
vn -0.0 -1.0 0.0
vn -0.0 -1.0 0.0
vn -0.0 -1.0 0.0
vn -0.0 -1.0 0.0
vn -0.0 -1.0 0.0
vn -0.0 -1.0 0.0
vn -0.0 -1.0 0.0
vn -0.0 -1.0 0.0
vn -0.0 -1.0 0.0
vn -0.0 -1.0 0.0
vn -0.0 -1.0 0.0
vn -0.0 -1.0 0.0
vn -0.0 -1.0 0.0
vn -0.0 -1.0 0.0
vn -0.0 -1.0 0.0
vn -0.0 -1.0 0.0
vn -0.0 -1.0 0.0
vn -0.0 -1.0 0.0
vn -0.0 -1.0 0.0
vn -0.0 -1.0 0.0
vn -0.0 -1.0 0.0
vn -0.0 -1.0 0.0
vn -0.0 -1.0 0.0
vn -0.0 -1.0 0.0
vn -0.0 -1.0 0.0
vn -0.0 -1.0 0.0
vn -0.0 -1.0 0.0
vn -0.0 -1.0 0.0
vn -0.0 -1.0 0.0
vn -0.0 -1.0 0.0
vn -0.0 -1.0 0.0
vn -0.0 -1.0 0.0
vn -0.0 -1.0 0.0
vn -0.0 -1.0 0.0
vn -0.0 -1.0 0.0
vn -0.0 -1.0 0.0
vn -0.0 -1.0 0.0
vn -0.0 -1.0 0.0
vn -0.0 -1.0 0.0
vn -0.0 -1.0 0.0
vn -0.0 -1.0 0.0
vn -0.0 -1.0 0.0
vn -0.0 -1.0 0.0
vn -0.0 -1.0 0.0
vn -0.0 -1.0 0.0
vn -0.0 -1.0 0.0
vn -0.0 -1.0 0.0
vn -0.0 -1.0 0.0
vn -0.0 -1.0 0.0
vn -0.0 -1.0 0.0
vn -0.0 -1.0 0.0
vn -0.0 -1.0 0.0
vn -0.0 -1.0 0.0
vn -0.0 -1.0 0.0
vn -0.0 -1.0 0.0
vn -0.0 -1.0 0.0
vn -0.0 -1.0 0.0
vn -0.0 -1.0 0.0
vn -0.0 -1.0 0.0
vn -0.0 -1.0 0.0
vn -0.0 -1.0 0.0
vn -0.0 -1.0 0.0
vn -0.0 -1.0 0.0
vn -0.0 -1.0 0.0
vn -0.0 -1.0 0.0
vn -0.0 -1.0 0.0
vn -0.0 -1.0 0.0
vn -0.0 -1.0 0.0
vn -0.0 -1.0 0.0
vn -0.0 -1.0 0.0
vn -0.0 -1.0 0.0
vn -0.0 -1.0 0.0
vn -0.0 -1.0 0.0
vn -0.0 -1.0 0.0
vn -0.0 -1.0 0.0
vn -0.0 -1.0 0.0
vn -0.0 -1.0 0.0
vn -0.0 -1.0 0.0
vn -0.0 -1.0 0.0
vn -0.0 -1.0 0.0
vn -0.0 -1.0 0.0
vn -0.0 -1.0 0.0
vn -0.0 -1.0 0.0
vn -0.0 -1.0 0.0
vn -0.0 -1.0 0.0
vn -0.0 -1.0 0.0
vn -0.0 -1.0 0.0
vn -0.0 -1.0 0.0
vn -0.0 -1.0 0.0
vn -0.0 -1.0 0.0
vn -0.0 -1.0 0.0
vn -0.0 -1.0 0.0
vn -0.0 -1.0 0.0
vn -0.0 -1.0 0.0
vn -0.0 -1.0 0.0
vn -0.0 -1.0 0.0
vn -0.0 -1.0 0.0
vn -0.0 -1.0 0.0
vn -0.0 -1.0 0.0
vn -0.0 -1.0 0.0
vn -0.0 -1.0 0.0
vn -0.0 -1.0 0.0
vn -0.0 -1.0 0.0
vn -0.0 -1.0 0.0
vn -0.0 -1.0 0.0
vn -0.0 -1.0 0.0
vn -0.0 -1.0 0.0
vn -0.0 -1.0 0.0
vn -0.0 -1.0 0.0
vn -0.0 -1.0 0.0
vn -0.0 -1.0 0.0
vn -0.0 -1.0 0.0
vn -0.0 -1.0 0.0
vn -0.0 -1.0 0.0
vn -0.0 -1.0 0.0
vn -0.0 -1.0 0.0
vn -0.0 -1.0 0.0
vn -0.0 -1.0 0.0
vn -0.0 -1.0 0.0
vn -0.0 -1.0 0.0
vn -0.0 -1.0 0.0
vn -0.0 -1.0 0.0
vn -0.0 -1.0 0.0
vn -0.0 -1.0 0.0
vn -0.0 -1.0 0.0
vn -0.0 -1.0 0.0
vn -0.0 -1.0 0.0
vn -0.0 -1.0 0.0
vn -0.0 -1.0 0.0
vn -0.0 -1.0 0.0
vn -0.0 -1.0 0.0
vn -0.0 -1.0 0.0
vn -0.0 -1.0 0.0
vn -0.0 -1.0 0.0
vn -0.0 -1.0 0.0
vn -0.0 -1.0 0.0
vn -0.0 -1.0 0.0
vn -0.0 -1.0 0.0
vn -0.0 -1.0 0.0
vn -0.0 -1.0 0.0
vn -0.0 -1.0 0.0
vn -0.0 -1.0 0.0
vn -0.0 -1.0 0.0
vn -0.0 -1.0 0.0
vn -0.0 -1.0 0.0
vn -0.0 -1.0 0.0
vn -0.0 -1.0 0.0
vn -0.0 -1.0 0.0
vn -0.0 -1.0 0.0
vn -0.0 -1.0 0.0
vn -0.0 -1.0 0.0
vn -0.0 -1.0 0.0
vn -0.0 -1.0 0.0
vn -0.0 -1.0 0.0
vn -0.0 -1.0 0.0
vn -0.0 -1.0 0.0
vn -0.0 -1.0 0.0
vn -0.0 -1.0 0.0
vn -0.0 -1.0 0.0
vn -0.0 -1.0 0.0
vn -0.0 -1.0 0.0
vn -0.0 -1.0 0.0
vn -0.0 -1.0 0.0
vn -0.0 -1.0 0.0
vn -0.0 -1.0 0.0
vn -0.0 -1.0 0.0
vn -0.0 -1.0 0.0
vn -0.0 -1.0 0.0
vn -0.0 -1.0 0.0
vn -0.0 -1.0 0.0
vt 0.05638222396373749 0.206187903881073
vt 0.05643181502819061 0.1501118540763855
vt 0.06149028241634369 0.1501072645187378
vt 0.06144021451473236 0.2061833143234253
vt 0.1922026127576828 0.2517935037612915
vt 0.19073791801929474 0.2565726041793823
vt 0.184891477227211 0.25445055961608887
vt 0.1861657351255417 0.2502927780151367
vt 0.19315846264362335 0.24688780307769775
vt 0.18699724972248077 0.24602484703063965
vt 0.1935950666666031 0.24190950393676758
vt 0.18737713992595673 0.24169373512268066
vt 0.1935076266527176 0.23691296577453613
vt 0.18730108439922333 0.23734676837921143
vt 0.19289712607860565 0.23195302486419678
vt 0.18676994740962982 0.2330315113067627
vt 0.19177024066448212 0.22708404064178467
vt 0.1857895404100418 0.22879552841186523
vt 0.1901393085718155 0.22235918045043945
vt 0.18437062203884125 0.2246849536895752
vt 0.188022181391716 0.21783030033111572
vt 0.18252871930599213 0.22074484825134277
vt 0.18544207513332367 0.2135472297668457
vt 0.1802840381860733 0.2170184850692749
vt 0.1824272722005844 0.2095564603805542
vt 0.17766119539737701 0.21354663372039795
vt 0.1790107935667038 0.205902099609375
vt 0.17468886077404022 0.2103673219680786
vt 0.17523004114627838 0.20262420177459717
vt 0.17139960825443268 0.20751547813415527
vt 0.17112646996974945 0.1997584104537964
vt 0.1678294986486435 0.20502221584320068
vt 0.16674502193927765 0.19733619689941406
vt 0.1640176624059677 0.20291495323181152
vt 0.1621338278055191 0.19538426399230957
vt 0.1600058227777481 0.2012166976928711
vt 0.15734313428401947 0.19392383098602295
vt 0.1558380275964737 0.19994616508483887
vt 0.15242569148540497 0.192970871925354
vt 0.15155978500843048 0.19911718368530273
vt 0.14743520319461823 0.19253599643707275
vt 0.14721809327602386 0.19873881340026855
vt 0.14242644608020782 0.19262397289276123
vt 0.14286042749881744 0.1988152265548706
vt 0.13745428621768951 0.19323360919952393
vt 0.13853468000888824 0.19934558868408203
vt 0.13257314264774323 0.1943584680557251
vt 0.13428808748722076 0.20032429695129395
vt 0.12783654034137726 0.19598603248596191
vt 0.13016726076602936 0.20174026489257812
vt 0.12329638749361038 0.1980985403060913
vt 0.126217320561409 0.20357811450958252
vt 0.11900240927934647 0.20067286491394043
vt 0.12248147279024124 0.2058178186416626
vt 0.1150016263127327 0.2036808729171753
vt 0.11900091916322708 0.2084348201751709
vt 0.11133790761232376 0.20708942413330078
vt 0.11581338196992874 0.21140027046203613
vt 0.10805130749940872 0.2108614444732666
vt 0.11295414716005325 0.21468186378479004
vt 0.10517800599336624 0.21495532989501953
vt 0.11045432835817337 0.21824359893798828
vt 0.10274935513734818 0.21932637691497803
vt 0.10834134370088577 0.2220463752746582
vt 0.10079193860292435 0.22392666339874268
vt 0.10663843899965286 0.22604858875274658
vt 0.09932733327150345 0.2287057638168335
vt 0.10536421090364456 0.23020648956298828
vt 0.09837139397859573 0.23361146450042725
vt 0.10453260689973831 0.2344743013381958
vt 0.09793484956026077 0.23858964443206787
vt 0.10415280610322952 0.23880541324615479
vt 0.0980222299695015 0.24358618259429932
vt 0.10422886162996292 0.24315237998962402
vt 0.0986328199505806 0.24854612350463867
vt 0.10475993901491165 0.24746763706207275
vt 0.09975970536470413 0.25341522693634033
vt 0.10574031621217728 0.25170373916625977
vt 0.10139060765504837 0.25814008712768555
vt 0.10715926438570023 0.2558143138885498
vt 0.10350776463747025 0.2626688480377197
vt 0.10900116711854935 0.2597543001174927
vt 0.1060878112912178 0.2669520378112793
vt 0.11124575883150101 0.26348066329956055
vt 0.10910249501466751 0.2709426283836365
vt 0.1138686016201973 0.2669525146484375
vt 0.1125190332531929 0.2745969891548157
vt 0.11684096604585648 0.2701318860054016
vt 0.11629975587129593 0.27787506580352783
vt 0.12013024836778641 0.27298372983932495
vt 0.12040329724550247 0.2807408571243286
vt 0.12370026856660843 0.27547693252563477
vt 0.12478471547365189 0.2831629514694214
vt 0.1275121122598648 0.2775841951370239
vt 0.12939603626728058 0.28511494398117065
vt 0.13152392208576202 0.27928245067596436
vt 0.13418664038181305 0.28657543659210205
vt 0.1356917768716812 0.28055304288864136
vt 0.13910402357578278 0.2875283360481262
vt 0.13997001945972443 0.28138208389282227
vt 0.14409448206424713 0.2879631519317627
vt 0.14431168138980865 0.28176039457321167
vt 0.1491032987833023 0.28787535429000854
vt 0.1486692875623703 0.2816840410232544
vt 0.154075488448143 0.2872656583786011
vt 0.15299509465694427 0.2811535596847534
vt 0.1589566022157669 0.28614091873168945
vt 0.15724162757396698 0.28017503023147583
vt 0.1636931449174881 0.28451335430145264
vt 0.16136257350444794 0.2787590026855469
vt 0.16823337972164154 0.28240078687667847
vt 0.16531242430210114 0.2769211530685425
vt 0.17252732813358307 0.27982640266418457
vt 0.1690482348203659 0.27468156814575195
vt 0.1765281707048416 0.27681851387023926
vt 0.17252890765666962 0.2720646262168884
vt 0.18019182980060577 0.27340996265411377
vt 0.1757163554430008 0.2690991163253784
vt 0.1834784597158432 0.2696380019187927
vt 0.17857573926448822 0.2658175230026245
vt 0.18635179102420807 0.265544056892395
vt 0.18107549846172333 0.26225578784942627
vt 0.18878047168254852 0.2611730098724365
vt 0.18318848311901093 0.25845301151275635
vt 0.17181022465229034 0.2861759066581726
vt 0.17418991029262543 0.28474920988082886
vt 0.18081380426883698 0.2797691226005554
vt 0.1828441172838211 0.2778801918029785
vt 0.18829314410686493 0.2716243267059326
vt 0.1898701936006546 0.26937735080718994
vt 0.19389893114566803 0.262129545211792
vt 0.19498373568058014 0.25958001613616943
vt 0.14576490223407745 0.2402496337890625
vt 0.1979396790266037 0.24894225597381592
vt 0.19740734994411469 0.2516740560531616
vt 0.1986127346754074 0.2379307746887207
vt 0.19866140186786652 0.2407132387161255
vt 0.19697748124599457 0.2270272970199585
vt 0.1976020187139511 0.22972548007965088
vt 0.1931067854166031 0.21670103073120117
vt 0.19427438080310822 0.2191985845565796
vt 0.18716152012348175 0.20739197731018066
vt 0.18883220851421356 0.2096034288406372
vt 0.17941488325595856 0.19952940940856934
vt 0.18149997293949127 0.20133721828460693
vt 0.17018766701221466 0.19343805313110352
vt 0.17261581122875214 0.19478023052215576
vt 0.15991093218326569 0.1894007921218872
vt 0.1625402718782425 0.1902022361755371
vt 0.14898420870304108 0.18757760524749756
vt 0.15176327526569366 0.1878197193145752
vt 0.13793601095676422 0.18806242942810059
vt 0.14070500433444977 0.1877228021621704
vt 0.12724269926548004 0.19082355499267578
vt 0.1298549920320511 0.18992602825164795
vt 0.11733407527208328 0.1957535743713379
vt 0.11972535401582718 0.1943199634552002
vt 0.10868562012910843 0.20261919498443604
vt 0.11071599274873734 0.20073020458221436
vt 0.10165572911500931 0.2111274003982544
vt 0.10324037820100784 0.20886969566345215
vt 0.09654618054628372 0.22091925144195557
vt 0.09763086587190628 0.2183699607849121
vt 0.09359277039766312 0.23154377937316895
vt 0.09411991387605667 0.22883832454681396
vt 0.09291697293519974 0.24255502223968506
vt 0.09286881238222122 0.2397993803024292
vt 0.0945524051785469 0.2534719705581665
vt 0.09392786771059036 0.25077366828918457
vt 0.09842301160097122 0.26379823684692383
vt 0.09725547581911087 0.26130056381225586
vt 0.10436428338289261 0.27310192584991455
vt 0.10270167142152786 0.270901083946228
vt 0.11210990697145462 0.28096532821655273
vt 0.11003483086824417 0.27916622161865234
vt 0.12133622914552689 0.28705793619155884
vt 0.11891985684633255 0.28572213649749756
vt 0.13161881268024445 0.2910984754562378
vt 0.12898947298526764 0.29029691219329834
vt 0.14254553616046906 0.29292160272598267
vt 0.13976646959781647 0.2926793694496155
vt 0.1535869985818863 0.29243767261505127
vt 0.15083150565624237 0.29277557134628296
vt 0.1642870157957077 0.2896757125854492
vt 0.16167475283145905 0.2905732989311218

g Object06
s 1
usemtl Object06
f 3/3/3 2/2/2 1/1/1 
f 4/4/4 3/3/3 1/1/1 
f 7/7/7 6/6/6 5/5/5 
f 8/8/8 7/7/7 5/5/5 
f 8/8/8 5/5/5 9/9/9 
f 10/10/10 8/8/8 9/9/9 
f 10/10/10 9/9/9 11/11/11 
f 12/12/12 10/10/10 11/11/11 
f 12/12/12 11/11/11 13/13/13 
f 14/14/14 12/12/12 13/13/13 
f 14/14/14 13/13/13 15/15/15 
f 16/16/16 14/14/14 15/15/15 
f 16/16/16 15/15/15 17/17/17 
f 18/18/18 16/16/16 17/17/17 
f 18/18/18 17/17/17 19/19/19 
f 20/20/20 18/18/18 19/19/19 
f 20/20/20 19/19/19 21/21/21 
f 22/22/22 20/20/20 21/21/21 
f 22/22/22 21/21/21 23/23/23 
f 24/24/24 22/22/22 23/23/23 
f 24/24/24 23/23/23 25/25/25 
f 26/26/26 24/24/24 25/25/25 
f 26/26/26 25/25/25 27/27/27 
f 28/28/28 26/26/26 27/27/27 
f 28/28/28 27/27/27 29/29/29 
f 30/30/30 28/28/28 29/29/29 
f 30/30/30 29/29/29 31/31/31 
f 32/32/32 30/30/30 31/31/31 
f 32/32/32 31/31/31 33/33/33 
f 34/34/34 32/32/32 33/33/33 
f 34/34/34 33/33/33 35/35/35 
f 36/36/36 34/34/34 35/35/35 
f 36/36/36 35/35/35 37/37/37 
f 38/38/38 36/36/36 37/37/37 
f 38/38/38 37/37/37 39/39/39 
f 40/40/40 38/38/38 39/39/39 
f 40/40/40 39/39/39 41/41/41 
f 42/42/42 40/40/40 41/41/41 
f 42/42/42 41/41/41 43/43/43 
f 44/44/44 42/42/42 43/43/43 
f 44/44/44 43/43/43 45/45/45 
f 46/46/46 44/44/44 45/45/45 
f 46/46/46 45/45/45 47/47/47 
f 48/48/48 46/46/46 47/47/47 
f 48/48/48 47/47/47 49/49/49 
f 50/50/50 48/48/48 49/49/49 
f 50/50/50 49/49/49 51/51/51 
f 52/52/52 50/50/50 51/51/51 
f 52/52/52 51/51/51 53/53/53 
f 54/54/54 52/52/52 53/53/53 
f 54/54/54 53/53/53 55/55/55 
f 56/56/56 54/54/54 55/55/55 
f 56/56/56 55/55/55 57/57/57 
f 58/58/58 56/56/56 57/57/57 
f 58/58/58 57/57/57 59/59/59 
f 60/60/60 58/58/58 59/59/59 
f 60/60/60 59/59/59 61/61/61 
f 62/62/62 60/60/60 61/61/61 
f 62/62/62 61/61/61 63/63/63 
f 64/64/64 62/62/62 63/63/63 
f 64/64/64 63/63/63 65/65/65 
f 66/66/66 64/64/64 65/65/65 
f 66/66/66 65/65/65 67/67/67 
f 68/68/68 66/66/66 67/67/67 
f 68/68/68 67/67/67 69/69/69 
f 70/70/70 68/68/68 69/69/69 
f 70/70/70 69/69/69 71/71/71 
f 72/72/72 70/70/70 71/71/71 
f 72/72/72 71/71/71 73/73/73 
f 74/74/74 72/72/72 73/73/73 
f 74/74/74 73/73/73 75/75/75 
f 76/76/76 74/74/74 75/75/75 
f 76/76/76 75/75/75 77/77/77 
f 78/78/78 76/76/76 77/77/77 
f 78/78/78 77/77/77 79/79/79 
f 80/80/80 78/78/78 79/79/79 
f 80/80/80 79/79/79 81/81/81 
f 82/82/82 80/80/80 81/81/81 
f 82/82/82 81/81/81 83/83/83 
f 84/84/84 82/82/82 83/83/83 
f 84/84/84 83/83/83 85/85/85 
f 86/86/86 84/84/84 85/85/85 
f 86/86/86 85/85/85 87/87/87 
f 88/88/88 86/86/86 87/87/87 
f 88/88/88 87/87/87 89/89/89 
f 90/90/90 88/88/88 89/89/89 
f 90/90/90 89/89/89 91/91/91 
f 92/92/92 90/90/90 91/91/91 
f 92/92/92 91/91/91 93/93/93 
f 94/94/94 92/92/92 93/93/93 
f 94/94/94 93/93/93 95/95/95 
f 96/96/96 94/94/94 95/95/95 
f 96/96/96 95/95/95 97/97/97 
f 98/98/98 96/96/96 97/97/97 
f 98/98/98 97/97/97 99/99/99 
f 100/100/100 98/98/98 99/99/99 
f 100/100/100 99/99/99 101/101/101 
f 102/102/102 100/100/100 101/101/101 
f 102/102/102 101/101/101 103/103/103 
f 104/104/104 102/102/102 103/103/103 
f 104/104/104 103/103/103 105/105/105 
f 106/106/106 104/104/104 105/105/105 
f 106/106/106 105/105/105 107/107/107 
f 108/108/108 106/106/106 107/107/107 
f 108/108/108 107/107/107 109/109/109 
f 110/110/110 108/108/108 109/109/109 
f 110/110/110 109/109/109 111/111/111 
f 112/112/112 110/110/110 111/111/111 
f 112/112/112 111/111/111 113/113/113 
f 114/114/114 112/112/112 113/113/113 
f 114/114/114 113/113/113 115/115/115 
f 116/116/116 114/114/114 115/115/115 
f 116/116/116 115/115/115 117/117/117 
f 118/118/118 116/116/116 117/117/117 
f 118/118/118 117/117/117 119/119/119 
f 120/120/120 118/118/118 119/119/119 
f 120/120/120 119/119/119 121/121/121 
f 122/122/122 120/120/120 121/121/121 
f 122/122/122 121/121/121 123/123/123 
f 124/124/124 122/122/122 123/123/123 
f 7/7/7 124/124/124 123/123/123 
f 6/6/6 7/7/7 123/123/123 
f 111/111/111 125/125/125 113/113/113 
f 125/125/125 126/126/126 113/113/113 
f 115/115/115 127/127/127 117/117/117 
f 127/127/127 128/128/128 117/117/117 
f 119/119/119 129/129/129 121/121/121 
f 129/129/129 130/130/130 121/121/121 
f 123/123/123 131/131/131 6/6/6 
f 131/131/131 132/132/132 6/6/6 
f 133/133/133 7/7/7 8/8/8 
f 133/133/133 8/8/8 10/10/10 
f 133/133/133 10/10/10 12/12/12 
f 133/133/133 12/12/12 14/14/14 
f 133/133/133 14/14/14 16/16/16 
f 133/133/133 16/16/16 18/18/18 
f 133/133/133 18/18/18 20/20/20 
f 133/133/133 20/20/20 22/22/22 
f 133/133/133 22/22/22 24/24/24 
f 133/133/133 24/24/24 26/26/26 
f 133/133/133 26/26/26 28/28/28 
f 133/133/133 28/28/28 30/30/30 
f 133/133/133 30/30/30 32/32/32 
f 133/133/133 32/32/32 34/34/34 
f 133/133/133 34/34/34 36/36/36 
f 133/133/133 36/36/36 38/38/38 
f 133/133/133 38/38/38 40/40/40 
f 133/133/133 40/40/40 42/42/42 
f 133/133/133 42/42/42 44/44/44 
f 133/133/133 44/44/44 46/46/46 
f 133/133/133 46/46/46 48/48/48 
f 133/133/133 48/48/48 50/50/50 
f 133/133/133 50/50/50 52/52/52 
f 133/133/133 52/52/52 54/54/54 
f 133/133/133 54/54/54 56/56/56 
f 133/133/133 56/56/56 58/58/58 
f 133/133/133 58/58/58 60/60/60 
f 133/133/133 60/60/60 62/62/62 
f 133/133/133 62/62/62 64/64/64 
f 133/133/133 64/64/64 66/66/66 
f 135/135/135 134/134/134 9/9/9 
f 5/5/5 135/135/135 9/9/9 
f 137/137/137 136/136/136 13/13/13 
f 11/11/11 137/137/137 13/13/13 
f 139/139/139 138/138/138 17/17/17 
f 15/15/15 139/139/139 17/17/17 
f 141/141/141 140/140/140 21/21/21 
f 19/19/19 141/141/141 21/21/21 
f 143/143/143 142/142/142 25/25/25 
f 23/23/23 143/143/143 25/25/25 
f 145/145/145 144/144/144 29/29/29 
f 27/27/27 145/145/145 29/29/29 
f 147/147/147 146/146/146 33/33/33 
f 31/31/31 147/147/147 33/33/33 
f 149/149/149 148/148/148 37/37/37 
f 35/35/35 149/149/149 37/37/37 
f 151/151/151 150/150/150 41/41/41 
f 39/39/39 151/151/151 41/41/41 
f 153/153/153 152/152/152 45/45/45 
f 43/43/43 153/153/153 45/45/45 
f 155/155/155 154/154/154 49/49/49 
f 47/47/47 155/155/155 49/49/49 
f 157/157/157 156/156/156 53/53/53 
f 51/51/51 157/157/157 53/53/53 
f 159/159/159 158/158/158 57/57/57 
f 55/55/55 159/159/159 57/57/57 
f 161/161/161 160/160/160 61/61/61 
f 59/59/59 161/161/161 61/61/61 
f 163/163/163 162/162/162 65/65/65 
f 63/63/63 163/163/163 65/65/65 
f 165/165/165 164/164/164 69/69/69 
f 67/67/67 165/165/165 69/69/69 
f 167/167/167 166/166/166 73/73/73 
f 71/71/71 167/167/167 73/73/73 
f 169/169/169 168/168/168 77/77/77 
f 75/75/75 169/169/169 77/77/77 
f 171/171/171 170/170/170 81/81/81 
f 79/79/79 171/171/171 81/81/81 
f 173/173/173 172/172/172 85/85/85 
f 83/83/83 173/173/173 85/85/85 
f 175/175/175 174/174/174 89/89/89 
f 87/87/87 175/175/175 89/89/89 
f 177/177/177 176/176/176 93/93/93 
f 91/91/91 177/177/177 93/93/93 
f 179/179/179 178/178/178 97/97/97 
f 95/95/95 179/179/179 97/97/97 
f 181/181/181 180/180/180 101/101/101 
f 99/99/99 181/181/181 101/101/101 
f 183/183/183 182/182/182 105/105/105 
f 103/103/103 183/183/183 105/105/105 
f 185/185/185 184/184/184 109/109/109 
f 107/107/107 185/185/185 109/109/109 

