v -19.460914611816406 -3.068812370300293 -0.025272879749536514
v -11.263604164123535 -3.0688276290893555 -0.025275859981775284
v -11.076896667480469 -3.068831443786621 -0.554786741733551
v -16.861488342285156 -3.06882381439209 -1.2477785348892212
v -10.501249313354492 -3.0688371658325195 -1.6489731073379517
v -11.076896667480469 -3.0688276290893555 0.5042348504066467
v -16.861488342285156 -3.06881046295166 1.1972252130508423
v -10.501249313354492 -3.068821907043457 1.5984188318252563
v 1.4452962204813957e-06 -3.0688486099243164 -0.02527996152639389
v 1.4619436115026474e-06 -3.0688467025756836 0.504230797290802
v 1.4285324141383171e-06 -3.068850517272949 -0.5547906756401062
v 11.076900482177734 -3.0688705444335938 0.5042267441749573
v 11.263608932495117 -3.068873405456543 -0.0252840556204319
v 19.460914611816406 -3.0688915252685547 -0.02528703585267067
v 11.076900482177734 -3.0688743591308594 -0.5547947883605957
v 16.861492156982422 -3.068878173828125 1.1972182989120483
v 10.501253128051758 -3.0688648223876953 1.598413109779358
v 16.861492156982422 -3.068892478942871 -1.2477854490280151
v 10.501253128051758 -3.0688791275024414 -1.6489790678024292
v -11.076896667480469 -3.068831443786621 -0.554786741733551
v -11.076897621154785 -2.768582344055176 -0.5547866821289062
v -10.501249313354492 -2.7685890197753906 -1.648972988128662
v -10.501249313354492 -3.0688371658325195 -1.6489731073379517
v -10.501249313354492 -3.0688371658325195 -1.6489731073379517
v -10.501249313354492 -2.7685890197753906 -1.648972988128662
v -16.86149024963379 -2.7685766220092773 -1.2477781772613525
v -16.861488342285156 -3.06882381439209 -1.2477785348892212
v -19.460914611816406 -3.068812370300293 -0.025272879749536514
v -19.46091079711914 -2.768564224243164 -0.025272872298955917
v -16.861488342285156 -2.7685623168945312 1.197225570678711
v -16.861488342285156 -3.06881046295166 1.1972252130508423
v -16.861488342285156 -3.06881046295166 1.1972252130508423
v -16.861488342285156 -2.7685623168945312 1.197225570678711
v -10.501249313354492 -2.768573760986328 1.598418951034546
v -10.501249313354492 -3.068821907043457 1.5984188318252563
v -16.861488342285156 -3.06882381439209 -1.2477785348892212
v -16.86149024963379 -2.7685766220092773 -1.2477781772613525
v -19.46091079711914 -2.768564224243164 -0.025272872298955917
v -19.460914611816406 -3.068812370300293 -0.025272879749536514
v -10.501249313354492 -3.068821907043457 1.5984188318252563
v -10.501249313354492 -2.768573760986328 1.598418951034546
v -11.076896667480469 -2.7685794830322266 0.5042348504066467
v -11.076896667480469 -3.0688276290893555 0.5042348504066467
v 1.4285324141383171e-06 -3.068850517272949 -0.5547906756401062
v 1.4579272828996181e-06 -2.7686023712158203 -0.5547906160354614
v -11.076897621154785 -2.768582344055176 -0.5547866821289062
v -11.076896667480469 -3.068831443786621 -0.554786741733551
v 11.076900482177734 -3.0688743591308594 -0.5547947883605957
v 11.076900482177734 -2.7686262130737305 -0.5547947287559509
v -11.076896667480469 -3.0688276290893555 0.5042348504066467
v -11.076896667480469 -2.7685794830322266 0.5042348504066467
v 2.9722577892243862e-06 -2.7685985565185547 0.504230797290802
v 1.4619436115026474e-06 -3.0688467025756836 0.504230797290802
v 11.076900482177734 -2.768622398376465 0.5042267441749573
v 11.076900482177734 -3.0688705444335938 0.5042267441749573
v 10.501253128051758 -3.0688791275024414 -1.6489790678024292
v 10.501253128051758 -2.7686309814453125 -1.6489787101745605
v 11.076900482177734 -2.7686262130737305 -0.5547947287559509
v 11.076900482177734 -3.0688743591308594 -0.5547947883605957
v 16.861492156982422 -3.068892478942871 -1.2477854490280151
v 16.861492156982422 -2.768644332885742 -1.2477854490280151
v 10.501253128051758 -2.7686309814453125 -1.6489787101745605
v 10.501253128051758 -3.0688791275024414 -1.6489790678024292
v 16.861492156982422 -3.068878173828125 1.1972182989120483
v 16.86149024963379 -2.7686290740966797 1.1972182989120483
v 19.46091651916504 -2.768643379211426 -0.025287030264735222
v 19.460914611816406 -3.0688915252685547 -0.02528703585267067
v 10.501253128051758 -3.0688648223876953 1.598413109779358
v 10.501253128051758 -2.7686166763305664 1.5984132289886475
v 16.86149024963379 -2.7686290740966797 1.1972182989120483
v 16.861492156982422 -3.068878173828125 1.1972182989120483
v 19.460914611816406 -3.0688915252685547 -0.02528703585267067
v 19.46091651916504 -2.768643379211426 -0.025287030264735222
v 16.861492156982422 -2.768644332885742 -1.2477854490280151
v 16.861492156982422 -3.068892478942871 -1.2477854490280151
v 11.076900482177734 -3.0688705444335938 0.5042267441749573
v 11.076900482177734 -2.768622398376465 0.5042267441749573
v 10.501253128051758 -2.7686166763305664 1.5984132289886475
v 10.501253128051758 -3.0688648223876953 1.598413109779358
vn -0.0 -1.0 0.0
vn -0.0 -1.0 0.0
vn -0.0 -1.0 0.0
vn -0.0 -1.0 0.0
vn -0.0 -1.0 0.0
vn -0.0 -1.0 0.0
vn -0.0 -1.0 0.0
vn -0.0 -1.0 0.0
vn -0.0 -1.0 0.0
vn -0.0 -1.0 0.0
vn -0.0 -1.0 0.0
vn -0.0 -1.0 0.0
vn -0.0 -1.0 0.0
vn -0.0 -1.0 0.0
vn -0.0 -1.0 0.0
vn -0.0 -1.0 0.0
vn -0.0 -1.0 0.0
vn -0.0 -1.0 0.0
vn -0.0 -1.0 0.0
vn 0.8849981427192688 0.0 0.4655945897102356
vn 0.8849981427192688 0.0 0.4655945897102356
vn 0.8849981427192688 0.0 0.4655945897102356
vn 0.8849981427192688 0.0 0.4655945897102356
vn -0.06295342743396759 0.0 -0.9980164766311646
vn -0.06295343488454819 0.0 -0.9980164766311646
vn -0.06295342743396759 0.0 -0.9980164766311646
vn -0.06295342743396759 0.0 -0.9980164766311646
vn -0.42558035254478455 0.0 0.9049206376075745
vn -0.42558032274246216 0.0 0.9049206376075745
vn -0.42558032274246216 0.0 0.9049206376075745
vn -0.42558032274246216 0.0 0.9049206376075745
vn -0.06295324862003326 0.0 0.9980164766311646
vn -0.06295325607061386 0.0 0.9980164766311646
vn -0.06295324862003326 0.0 0.9980164766311646
vn -0.06295325607061386 0.0 0.9980164766311646
vn -0.42558249831199646 0.0 -0.9049196243286133
vn -0.42558252811431885 0.0 -0.9049196243286133
vn -0.42558249831199646 0.0 -0.9049196243286133
vn -0.4255824685096741 0.0 -0.9049196243286133
vn 0.8849978446960449 0.0 -0.4655950665473938
vn 0.8849978446960449 0.0 -0.4655950665473938
vn 0.8849978446960449 0.0 -0.4655950367450714
vn 0.8849978446960449 0.0 -0.4655950367450714
vn -0.0 0.0 -1.0
vn -0.0 0.0 -1.0
vn -0.0 0.0 -1.0
vn -0.0 0.0 -1.0
vn -0.0 0.0 -1.0
vn -0.0 0.0 -1.0
vn -0.0 0.0 1.0
vn -0.0 0.0 1.0
vn -0.0 0.0 1.0
vn -0.0 0.0 1.0
vn -0.0 0.0 1.0
vn -0.0 0.0 1.0
vn -0.8849979043006897 0.0 0.465595006942749
vn -0.8849979043006897 0.0 0.465595006942749
vn -0.8849979043006897 0.0 0.46559494733810425
vn -0.8849978446960449 0.0 0.4655950367450714
vn 0.06295323371887207 0.0 -0.9980164766311646
vn 0.06295324116945267 0.0 -0.9980164766311646
vn 0.06295323371887207 0.0 -0.9980164766311646
vn 0.06295324116945267 0.0 -0.9980164766311646
vn 0.4255823493003845 0.0 0.9049196839332581
vn 0.4255823493003845 0.0 0.9049196839332581
vn 0.4255823791027069 0.0 0.9049196839332581
vn 0.4255823493003845 0.0 0.9049196839332581
vn 0.06295347958803177 0.0 0.9980164170265198
vn 0.06295347213745117 0.0 0.9980164170265198
vn 0.06295347958803177 0.0 0.9980164170265198
vn 0.06295347213745117 0.0 0.9980164170265198
vn 0.42558056116104126 0.0 -0.9049205780029297
vn 0.42558053135871887 0.0 -0.9049205780029297
vn 0.42558053135871887 0.0 -0.9049205780029297
vn 0.42558056116104126 0.0 -0.9049205780029297
vn -0.8849982619285583 0.0 -0.46559423208236694
vn -0.8849982619285583 0.0 -0.4655942916870117
vn -0.8849982619285583 0.0 -0.46559423208236694
vn -0.8849982619285583 0.0 -0.46559423208236694
vt 0.004084389191120863 0.46411168575286865
vt 0.12014024704694748 0.464110791683197
vt 0.12271055579185486 0.47048622369766235
vt 0.0409415103495121 0.48238605260849
vt 0.13139565289020538 0.48424822092056274
vt 0.1227104589343071 0.45773500204086304
vt 0.040941230952739716 0.4458361864089966
vt 0.13139542937278748 0.4439733028411865
vt 0.27987179160118103 0.46410995721817017
vt 0.2798718214035034 0.4571602940559387
vt 0.2798718810081482 0.47105973958969116
vt 0.4370323121547699 0.45773404836654663
vt 0.4396028220653534 0.46410930156707764
vt 0.5556569695472717 0.4641086459159851
vt 0.43703240156173706 0.4704849123954773
vt 0.5187990069389343 0.44583481550216675
vt 0.4283451735973358 0.4439725875854492
vt 0.518799364566803 0.4823833703994751
vt 0.4283455014228821 0.4842461943626404
vt 0.12271055579185486 0.47048622369766235
vt 0.1307993233203888 0.47483593225479126
vt 0.13533571362495422 0.4825095534324646
vt 0.13139565289020538 0.48424822092056274
vt 0.13139565289020538 0.48424822092056274
vt 0.1310259848833084 0.48732948303222656
vt 0.03992728888988495 0.4868369698524475
vt 0.0409415103495121 0.48238605260849
vt 0.004084389191120863 0.46411168575286865
vt 0.002706832019612193 0.45994096994400024
vt 0.03992696478962898 0.4413851499557495
vt 0.040941230952739716 0.4458361864089966
vt 0.040941230952739716 0.4458361864089966
vt 0.03992696478962898 0.4413851499557495
vt 0.13102573156356812 0.44089245796203613
vt 0.13139542937278748 0.4439733028411865
vt 0.0409415103495121 0.48238605260849
vt 0.03992728888988495 0.4868369698524475
vt 0.0027067239861935377 0.46828222274780273
vt 0.004084389191120863 0.46411168575286865
vt 0.13139542937278748 0.4439733028411865
vt 0.13533559441566467 0.44571179151535034
vt 0.1307993233203888 0.4532619118690491
vt 0.1227104589343071 0.45773500204086304
vt 0.2798718810081482 0.47105973958969116
vt 0.2798719108104706 0.47503262758255005
vt 0.1307993233203888 0.4750329852104187
vt 0.12271055579185486 0.47048622369766235
vt 0.43703240156173706 0.4704849123954773
vt 0.4291185736656189 0.4750322103500366
vt 0.1227104589343071 0.45773500204086304
vt 0.1307993233203888 0.4531874656677246
vt 0.2798719108104706 0.4531874656677246
vt 0.2798718214035034 0.4571602940559387
vt 0.4290229082107544 0.4531875252723694
vt 0.4370323121547699 0.45773404836654663
vt 0.4283455014228821 0.4842461943626404
vt 0.42440566420555115 0.4825069308280945
vt 0.4291122257709503 0.47502511739730835
vt 0.43703240156173706 0.4704849123954773
vt 0.518799364566803 0.4823833703994751
vt 0.5198132395744324 0.48683422803878784
vt 0.4287147521972656 0.4873272180557251
vt 0.4283455014228821 0.4842461943626404
vt 0.5187990069389343 0.44583481550216675
vt 0.5198127627372742 0.4413840174674988
vt 0.5570337772369385 0.4599378705024719
vt 0.5556569695472717 0.4641086459159851
vt 0.4283451735973358 0.4439725875854492
vt 0.4287143349647522 0.44089120626449585
vt 0.5198127627372742 0.4413840174674988
vt 0.5187990069389343 0.44583481550216675
vt 0.5556569695472717 0.4641086459159851
vt 0.5570338368415833 0.4682794213294983
vt 0.5198132395744324 0.48683422803878784
vt 0.518799364566803 0.4823833703994751
vt 0.4370323121547699 0.45773404836654663
vt 0.4288749098777771 0.45302069187164307
vt 0.42440536618232727 0.44571197032928467
vt 0.4283451735973358 0.4439725875854492

g Object04
s 1
usemtl Object04
f 3/3/3 2/2/2 1/1/1 
f 3/3/3 1/1/1 4/4/4 
f 5/5/5 3/3/3 4/4/4 
f 2/2/2 6/6/6 1/1/1 
f 1/1/1 6/6/6 7/7/7 
f 6/6/6 8/8/8 7/7/7 
f 2/2/2 9/9/9 6/6/6 
f 9/9/9 10/10/10 6/6/6 
f 11/11/11 9/9/9 2/2/2 
f 3/3/3 11/11/11 2/2/2 
f 10/10/10 9/9/9 12/12/12 
f 9/9/9 13/13/13 12/12/12 
f 9/9/9 11/11/11 13/13/13 
f 12/12/12 13/13/13 14/14/14 
f 13/13/13 15/15/15 14/14/14 
f 11/11/11 15/15/15 13/13/13 
f 12/12/12 14/14/14 16/16/16 
f 17/17/17 12/12/12 16/16/16 
f 18/18/18 14/14/14 15/15/15 
f 19/19/19 18/18/18 15/15/15 
f 22/22/22 21/21/21 20/20/20 
f 23/23/23 22/22/22 20/20/20 
f 26/26/26 25/25/25 24/24/24 
f 27/27/27 26/26/26 24/24/24 
f 30/30/30 29/29/29 28/28/28 
f 31/31/31 30/30/30 28/28/28 
f 34/34/34 33/33/33 32/32/32 
f 35/35/35 34/34/34 32/32/32 
f 38/38/38 37/37/37 36/36/36 
f 39/39/39 38/38/38 36/36/36 
f 42/42/42 41/41/41 40/40/40 
f 43/43/43 42/42/42 40/40/40 
f 46/46/46 45/45/45 44/44/44 
f 47/47/47 46/46/46 44/44/44 
f 44/44/44 45/45/45 48/48/48 
f 45/45/45 49/49/49 48/48/48 
f 52/52/52 51/51/51 50/50/50 
f 53/53/53 52/52/52 50/50/50 
f 54/54/54 52/52/52 53/53/53 
f 55/55/55 54/54/54 53/53/53 
f 58/58/58 57/57/57 56/56/56 
f 59/59/59 58/58/58 56/56/56 
f 62/62/62 61/61/61 60/60/60 
f 63/63/63 62/62/62 60/60/60 
f 66/66/66 65/65/65 64/64/64 
f 67/67/67 66/66/66 64/64/64 
f 70/70/70 69/69/69 68/68/68 
f 71/71/71 70/70/70 68/68/68 
f 74/74/74 73/73/73 72/72/72 
f 75/75/75 74/74/74 72/72/72 
f 78/78/78 77/77/77 76/76/76 
f 79/79/79 78/78/78 76/76/76 

