v -0.39038872718811035 1.4569512605667114 0.0
v -0.3976916968822479 1.4842064380645752 0.12697452306747437
v -0.7682814598083496 1.3307031393051147 0.12697452306747437
v -0.754173219203949 1.3062669038772583 0.0
v -1.0865142345428467 1.0865147113800049 0.12697452306747437
v -1.0665620565414429 1.066562533378601 0.0
v -1.330702781677246 0.7682821154594421 0.12697452306747437
v -1.3062664270401 0.754173755645752 0.0
v -1.484206199645996 0.39769238233566284 0.12697452306747437
v -1.4569510221481323 0.3903893828392029 0.0
v -1.536563515663147 5.983598612147034e-07 0.12697452306747437
v -1.5083469152450562 5.873719146620715e-07 0.0
v -0.782389760017395 1.3551394939422607 0.25394904613494873
v -0.4049946665763855 1.5114614963531494 0.25394904613494873
v -1.106466293334961 1.1064668893814087 0.25394904613494873
v -1.3551390171051025 0.7823904156684875 0.25394904613494873
v -1.5114612579345703 0.4049953818321228 0.25394904613494873
v -1.5647799968719482 6.093478646107542e-07 0.25394904613494873
v -0.7964980006217957 1.3795756101608276 0.3809235990047455
v -0.41229763627052307 1.5387166738510132 0.3809235990047455
v -1.1264183521270752 1.126418948173523 0.3809235990047455
v -1.379575252532959 0.7964986562728882 0.3809235990047455
v -1.538716435432434 0.41229838132858276 0.3809235990047455
v -1.592996597290039 6.203357543199672e-07 0.3809235990047455
v -0.8106063008308411 1.4040119647979736 0.5078980922698975
v -0.41960063576698303 1.5659717321395874 0.5078980922698975
v -1.146370530128479 1.1463711261749268 0.5078980922698975
v -1.404011607170105 0.8106069564819336 0.5078980922698975
v -1.5659714937210083 0.4196013808250427 0.5078980922698975
v -1.6212130784988403 6.313237008725991e-07 0.5078980922698975
v -0.8247146010398865 1.42844820022583 0.6348726153373718
v -0.426903635263443 1.5932269096374512 0.6348726153373718
v -1.1663225889205933 1.166323184967041 0.6348726153373718
v -1.4284478425979614 0.824715256690979 0.6348726153373718
v -1.593226671218872 0.4269043505191803 0.6348726153373718
v -1.6494296789169312 6.423116474252311e-07 0.6348726153373718
v 1.4559565782546997 -0.012983775697648525 -0.3938679099082947
v 1.514074683189392 -0.05582728609442711 -0.2856762409210205
v 1.501492977142334 0.3192487359046936 -0.14404389262199402
v 1.4436060190200806 0.3552044928073883 -0.25483638048171997
v 1.388691782951355 0.6696653366088867 0.015280098654329777
v 1.3328760862350464 0.6991862654685974 -0.09843817353248596
v 1.1833579540252686 0.9715421199798584 0.1814379096031189
v 1.1313129663467407 0.9955196380615234 0.06466840952634811
v 0.8994848132133484 1.204306960105896 0.3431062400341034
v 0.8526527881622314 1.2240099906921387 0.22336795926094055
v 0.5564178824424744 1.3520969152450562 0.48926764726638794
v 0.5158857107162476 1.3690860271453857 0.36684536933898926
v 1.559380054473877 0.2832929193973541 -0.033251360058784485
v 1.5721925497055054 -0.09867076575756073 -0.17748461663722992
v 1.4445072412490845 0.6401442289352417 0.1289982944726944
v 1.2354028224945068 0.9475647211074829 0.2982074022293091
v 0.9463168382644653 1.1846036911010742 0.46284452080726624
v 0.5969500541687012 1.335107684135437 0.6116899847984314
v 1.6172670125961304 0.24733707308769226 0.07754117250442505
v 1.6303107738494873 -0.14151425659656525 -0.06929288804531097
v 1.5003228187561035 0.6106233596801758 0.24271658062934875
v 1.2874478101730347 0.9235872030258179 0.4149768352508545
v 0.9931489825248718 1.1649006605148315 0.5825827717781067
v 0.637482225894928 1.3181185722351074 0.7341122627258301
v 1.6751540899276733 0.21138133108615875 0.18833370506763458
v 1.6884287595748901 -0.18435771763324738 0.03889873996376991
v 1.556138515472412 0.5811024308204651 0.35643482208251953
v 1.339492678642273 0.8996098041534424 0.5317463874816895
v 1.0399810075759888 1.1451976299285889 0.7023210525512695
v 0.67801433801651 1.3011293411254883 0.8565345406532288
v 1.7330410480499268 0.1754254847764969 0.29912617802619934
v 1.7465468645095825 -0.2272011786699295 0.1470903903245926
v 1.6119539737701416 0.5515814423561096 0.4701530933380127
v 1.3915376663208008 0.8756322860717773 0.6485158205032349
v 1.0868130922317505 1.1254945993423462 0.8220593333244324
v 0.7185465097427368 1.2841402292251587 0.9789568185806274
v -0.8271225690841675 -1.0650439262390137 -0.6757665276527405
v -0.867770254611969 -1.1371155977249146 -0.5754066109657288
v -0.5159762501716614 -1.3295530080795288 -0.5858389735221863
v -0.48178860545158386 -1.2539474964141846 -0.6860073208808899
v -0.13073495030403137 -1.4349373579025269 -0.5486465692520142
v -0.10362157970666885 -1.3573966026306152 -0.6494978666305542
v 0.2617001533508301 -1.4460870027542114 -0.46636390686035156
v 0.2816070318222046 -1.3683414459228516 -0.5687262415885925
v 0.6345852017402649 -1.3622421026229858 -0.3445985019207001
v 0.6476446390151978 -1.2860361337661743 -0.4491969048976898
v 0.9625086784362793 -1.189116358757019 -0.19164840877056122
v 0.9695463180541992 -1.1160895824432373 -0.2990554869174957
v -0.550163984298706 -1.4051586389541626 -0.48567062616348267
v -0.9084180593490601 -1.2091872692108154 -0.47504666447639465
v -0.15784820914268494 -1.5124781131744385 -0.44779524207115173
v 0.2417934238910675 -1.5238325595855713 -0.364001601934433
v 0.6215258240699768 -1.4384478330612183 -0.24000009894371033
v 0.9554710984230042 -1.2621428966522217 -0.08424132317304611
v -0.5843515992164612 -1.4807641506195068 -0.3855021893978119
v -0.9490659236907959 -1.2812591791152954 -0.37468665838241577
v -0.18496152758598328 -1.59001886844635 -0.346943736076355
v 0.221886545419693 -1.6015779972076416 -0.26163914799690247
v 0.6084664463996887 -1.5146538019180298 -0.13540171086788177
v 0.9484334588050842 -1.3351695537567139 0.023165760561823845
v -0.6185391545295715 -1.5563697814941406 -0.2853337824344635
v -0.9897136092185974 -1.3533309698104858 -0.27432671189308167
v -0.21207480132579803 -1.6675596237182617 -0.24609239399433136
v 0.20197968184947968 -1.679323673248291 -0.1592768132686615
v 0.5954071283340454 -1.5908595323562622 -0.03080330416560173
v 0.9413959383964539 -1.4081963300704956 0.13057281076908112
v -0.6527268886566162 -1.6319754123687744 -0.1851654350757599
v -1.0303614139556885 -1.4254027605056763 -0.17396675050258636
v -0.23918801546096802 -1.7451003789901733 -0.14524103701114655
v 0.18207289278507233 -1.7570692300796509 -0.05691445246338844
v 0.5823476910591125 -1.6670655012130737 0.07379505783319473
v 0.9343583583831787 -1.4812231063842773 0.23797990381717682
vn -0.37372028827667236 0.9022409915924072 -0.21516110002994537
vn -0.37372025847435 0.902241051197052 -0.21516107022762299
vn -0.4880933463573456 0.8454028367996216 -0.21693068742752075
vn -0.4880933463573456 0.8454028367996216 -0.21693076193332672
vn -0.690268337726593 0.6902685761451721 -0.21693077683448792
vn -0.6902682781219482 0.6902685761451721 -0.21693094074726105
vn -0.8454025983810425 0.488093763589859 -0.21693074703216553
vn -0.8454025983810425 0.488093763589859 -0.21693088114261627
vn -0.9429242014884949 0.25265613198280334 -0.21693070232868195
vn -0.9429242014884949 0.25265613198280334 -0.21693071722984314
vn -0.9682238101959229 0.12746945023536682 -0.2151610404253006
vn -0.9682238101959229 0.12746945023536682 -0.2151610553264618
vn -0.48809343576431274 0.8454028367996216 -0.2169303596019745
vn -0.3737202286720276 0.9022411704063416 -0.21516083180904388
vn -0.690268337726593 0.6902686953544617 -0.2169302999973297
vn -0.8454025983810425 0.4880938231945038 -0.21693037450313568
vn -0.9429242014884949 0.25265610218048096 -0.21693047881126404
vn -0.9682238101959229 0.12746942043304443 -0.2151608169078827
vn -0.48809343576431274 0.8454028367996216 -0.21693049371242523
vn -0.37372031807899475 0.902241051197052 -0.21516086161136627
vn -0.6902683973312378 0.6902686357498169 -0.21693043410778046
vn -0.8454025983810425 0.488093763589859 -0.21693044900894165
vn -0.9429242014884949 0.25265610218048096 -0.21693046391010284
vn -0.9682238101959229 0.12746936082839966 -0.2151608169078827
vn -0.48809343576431274 0.8454028367996216 -0.21693061292171478
vn -0.37372034788131714 0.9022409915924072 -0.2151610553264618
vn -0.690268337726593 0.6902686357498169 -0.21693061292171478
vn -0.8454025387763977 0.4880938231945038 -0.21693065762519836
vn -0.9429242014884949 0.2526560425758362 -0.21693067252635956
vn -0.9682238101959229 0.12746930122375488 -0.2151610106229782
vn -0.48809343576431274 0.8454028367996216 -0.21693041920661926
vn -0.37372025847435 0.902241051197052 -0.21516099572181702
vn -0.6902683973312378 0.6902686953544617 -0.2169302999973297
vn -0.8454025983810425 0.48809385299682617 -0.21693055331707
vn -0.9429242014884949 0.25265607237815857 -0.21693067252635956
vn -0.9682238101959229 0.12746931612491608 -0.2151610106229782
vn 0.8944305181503296 0.1839289516210556 -0.4076324701309204
vn 0.8944306373596191 0.18392878770828247 -0.40763217210769653
vn 0.8815277218818665 0.3026660680770874 -0.3623564839363098
vn 0.8815275430679321 0.30266615748405457 -0.3623567521572113
vn 0.809864342212677 0.5252876281738281 -0.2611371576786041
vn 0.8098641633987427 0.5252877473831177 -0.26113754510879517
vn 0.6794147491455078 0.7170715928077698 -0.15557615458965302
vn 0.6794145107269287 0.7170717716217041 -0.15557648241519928
vn 0.49906855821609497 0.8649483323097229 -0.05286725237965584
vn 0.49906855821609497 0.8649483323097229 -0.05286746472120285
vn 0.39452335238456726 0.9188807010650635 -0.0031027882359921932
vn 0.3945232629776001 0.918880820274353 -0.0031029433012008667
vn 0.8815277814865112 0.30266594886779785 -0.3623562157154083
vn 0.8944308161735535 0.18392866849899292 -0.4076319932937622
vn 0.8098645210266113 0.5252875089645386 -0.26113685965538025
vn 0.6794148087501526 0.7170716524124146 -0.1555759757757187
vn 0.49906855821609497 0.8649483323097229 -0.05286725237965584
vn 0.3945232927799225 0.9188807010650635 -0.0031028694938868284
vn 0.8815275430679321 0.3026660978794098 -0.36235663294792175
vn 0.8944306373596191 0.18392880260944366 -0.40763232111930847
vn 0.8098642826080322 0.5252877473831177 -0.2611371874809265
vn 0.6794147491455078 0.7170715928077698 -0.1555761992931366
vn 0.49906855821609497 0.8649483323097229 -0.05286739766597748
vn 0.3945232033729553 0.918880820274353 -0.0031029535457491875
vn 0.8815275430679321 0.30266615748405457 -0.36235666275024414
vn 0.8944305181503296 0.18392886221408844 -0.40763258934020996
vn 0.809864342212677 0.5252876877784729 -0.26113709807395935
vn 0.679414689540863 0.7170717120170593 -0.1555762141942978
vn 0.4990684390068054 0.8649483323097229 -0.05286749452352524
vn 0.39452308416366577 0.918880820274353 -0.003102949820458889
vn 0.8815277218818665 0.3026660680770874 -0.36235636472702026
vn 0.8944305181503296 0.18392883241176605 -0.40763258934020996
vn 0.8098645210266113 0.5252876877784729 -0.26113662123680115
vn 0.6794148087501526 0.7170714735984802 -0.15557625889778137
vn 0.49906840920448303 0.8649484515190125 -0.05286768078804016
vn 0.39452293515205383 0.918880820274353 -0.003103075083345175
vn -0.3847239911556244 -0.6688269376754761 -0.6361273527145386
vn -0.3847240209579468 -0.6688269376754761 -0.6361273527145386
vn -0.2687985599040985 -0.722449541091919 -0.6370353698730469
vn -0.26879847049713135 -0.7224494814872742 -0.6370354294776917
vn -0.02405267022550106 -0.7894007563591003 -0.6134069561958313
vn -0.024052539840340614 -0.7894006371498108 -0.6134069561958313
vn 0.22526335716247559 -0.796484112739563 -0.5611323118209839
vn 0.22526349127292633 -0.7964840531349182 -0.5611324906349182
vn 0.46215930581092834 -0.7432171106338501 -0.4837738573551178
vn 0.4621593654155731 -0.743216872215271 -0.4837740957736969
vn 0.5707016587257385 -0.6959719657897949 -0.43580111861228943
vn 0.5707017183303833 -0.695971667766571 -0.4358014464378357
vn -0.26879867911338806 -0.7224496006965637 -0.6370351910591125
vn -0.38472411036491394 -0.6688268184661865 -0.6361272931098938
vn -0.024052750319242477 -0.7894010543823242 -0.6134064197540283
vn 0.2252633422613144 -0.7964844107627869 -0.5611318349838257
vn 0.4621594250202179 -0.7432171702384949 -0.48377370834350586
vn 0.5707017183303833 -0.6959719657897949 -0.4358009397983551
vn -0.26879850029945374 -0.7224496006965637 -0.6370351910591125
vn -0.38472408056259155 -0.6688268184661865 -0.6361272931098938
vn -0.024052709341049194 -0.7894010543823242 -0.6134065389633179
vn 0.2252633273601532 -0.7964843511581421 -0.5611321330070496
vn 0.4621593952178955 -0.7432169318199158 -0.48377394676208496
vn 0.5707018375396729 -0.695971667766571 -0.43580132722854614
vn -0.2687983810901642 -0.722449541091919 -0.6370354294776917
vn -0.38472408056259155 -0.6688268184661865 -0.6361274123191833
vn -0.024052616208791733 -0.789400577545166 -0.6134069561958313
vn 0.2252632975578308 -0.7964840531349182 -0.561132550239563
vn 0.4621594250202179 -0.7432168126106262 -0.48377421498298645
vn 0.5707017183303833 -0.6959715485572815 -0.4358016848564148
vn -0.26879844069480896 -0.7224494814872742 -0.6370354294776917
vn -0.38472405076026917 -0.668826699256897 -0.6361274719238281
vn -0.024052591994404793 -0.7894006371498108 -0.6134069561958313
vn 0.22526335716247559 -0.7964839339256287 -0.561132550239563
vn 0.4621593952178955 -0.7432167530059814 -0.4837743937969208
vn 0.5707017183303833 -0.6959714293479919 -0.4358018636703491
vt 0.01728757470846176 0.9895517472177744
vt 0.01728757470846176 0.7930345088243484
vt 0.21149826049804688 0.7930345088243484
vt 0.21149826049804688 0.9895517472177744
vt 0.4057089388370514 0.7930345088243484
vt 0.4057089388370514 0.9895517472177744
vt 0.5999196767807007 0.7930345088243484
vt 0.5999196767807007 0.9895517472177744
vt 0.7941304445266724 0.7930345088243484
vt 0.7941303253173828 0.9895517472177744
vt 0.9883409738540649 0.7930345088243484
vt 0.9883409738540649 0.9895517472177744
vt 0.21149826049804688 0.5965172350406647
vt 0.01728757470846176 0.5965172350406647
vt 0.4057089388370514 0.5965172350406647
vt 0.5999196767807007 0.5965172350406647
vt 0.7941304445266724 0.5965172350406647
vt 0.9883409738540649 0.5965172350406647
vt 0.21149826049804688 0.3999999165534973
vt 0.01728757470846176 0.3999999165534973
vt 0.4057089388370514 0.3999999165534973
vt 0.5999196767807007 0.3999999165534973
vt 0.7941304445266724 0.3999999165534973
vt 0.9883409738540649 0.3999999165534973
vt 0.21149826049804688 0.20348268747329712
vt 0.01728757470846176 0.20348268747329712
vt 0.4057089388370514 0.20348268747329712
vt 0.5999196767807007 0.20348268747329712
vt 0.7941303253173828 0.20348268747329712
vt 0.9883409738540649 0.20348268747329712
vt 0.21149826049804688 0.006965517997741699
vt 0.01728757470846176 0.006965517997741699
vt 0.4057089388370514 0.006965517997741699
vt 0.5999196767807007 0.006965517997741699
vt 0.7941303253173828 0.006965517997741699
vt 0.9883409738540649 0.006965517997741699
vt 0.013804659247398376 0.9930345304310322
vt 0.013804659247398376 0.7972138226032257
vt 0.21010500192642212 0.7972138226032257
vt 0.21010500192642212 0.9930345304310322
vt 0.40640535950660706 0.7972138226032257
vt 0.40640535950660706 0.9930345304310322
vt 0.6027056574821472 0.7972138226032257
vt 0.6027056574821472 0.9930345304310322
vt 0.7990061044692993 0.7972138226032257
vt 0.7990059852600098 0.9930345304310322
vt 0.9953063726425171 0.7972138226032257
vt 0.9953063726425171 0.9930345304310322
vt 0.21010500192642212 0.6013931035995483
vt 0.013804659247398376 0.6013931035995483
vt 0.40640535950660706 0.6013931035995483
vt 0.6027056574821472 0.6013931035995483
vt 0.7990061044692993 0.6013931035995483
vt 0.9953063726425171 0.6013931035995483
vt 0.21010500192642212 0.4055723547935486
vt 0.013804659247398376 0.4055723547935486
vt 0.40640535950660706 0.4055723547935486
vt 0.6027056574821472 0.4055723547935486
vt 0.7990061044692993 0.4055723547935486
vt 0.9953063726425171 0.4055723547935486
vt 0.21010500192642212 0.2097516655921936
vt 0.013804659247398376 0.2097516655921936
vt 0.40640535950660706 0.2097516655921936
vt 0.6027056574821472 0.2097516655921936
vt 0.7990059852600098 0.2097516655921936
vt 0.9953063726425171 0.2097516655921936
vt 0.21010500192642212 0.013931035995483398
vt 0.013804659247398376 0.013931035995483398
vt 0.40640535950660706 0.013931035995483398
vt 0.6027056574821472 0.013931035995483398
vt 0.7990059852600098 0.013931035995483398
vt 0.9953063726425171 0.013931035995483398
vt 0.014501333236694336 0.9864172488451004
vt 0.014501333236694336 0.7918503433465958
vt 0.2082940638065338 0.7918503433465958
vt 0.2082940638065338 0.9864172488451004
vt 0.4020867943763733 0.7918503433465958
vt 0.4020867943763733 0.9864172488451004
vt 0.5958795547485352 0.7918503433465958
vt 0.5958795547485352 0.9864172488451004
vt 0.789672315120697 0.7918503433465958
vt 0.7896722555160522 0.9864172488451004
vt 0.9834650158882141 0.7918503433465958
vt 0.9834650158882141 0.9864172488451004
vt 0.2082940638065338 0.5972833931446075
vt 0.014501333236694336 0.5972833931446075
vt 0.4020867943763733 0.5972833931446075
vt 0.5958795547485352 0.5972833931446075
vt 0.789672315120697 0.5972833931446075
vt 0.9834650158882141 0.5972833931446075
vt 0.2082940638065338 0.4027165174484253
vt 0.014501333236694336 0.4027165174484253
vt 0.4020867943763733 0.4027165174484253
vt 0.5958795547485352 0.4027165174484253
vt 0.789672315120697 0.4027165174484253
vt 0.9834650158882141 0.4027165174484253
vt 0.2082940638065338 0.20814961194992065
vt 0.014501333236694336 0.20814961194992065
vt 0.4020867943763733 0.20814961194992065
vt 0.5958795547485352 0.20814961194992065
vt 0.7896722555160522 0.20814961194992065
vt 0.9834650158882141 0.20814961194992065
vt 0.2082940638065338 0.013582766056060791
vt 0.014501333236694336 0.013582766056060791
vt 0.4020867943763733 0.013582766056060791
vt 0.5958795547485352 0.013582766056060791
vt 0.7896722555160522 0.013582766056060791
vt 0.9834650158882141 0.013582766056060791

g Cone002
s 1
usemtl Cone002
f 3/3/3 2/2/2 1/1/1 
f 4/4/4 3/3/3 1/1/1 
f 5/5/5 3/3/3 4/4/4 
f 6/6/6 5/5/5 4/4/4 
f 7/7/7 5/5/5 6/6/6 
f 8/8/8 7/7/7 6/6/6 
f 9/9/9 7/7/7 8/8/8 
f 10/10/10 9/9/9 8/8/8 
f 11/11/11 9/9/9 10/10/10 
f 12/12/12 11/11/11 10/10/10 
f 3/3/3 13/13/13 2/2/2 
f 13/13/13 14/14/14 2/2/2 
f 15/15/15 13/13/13 3/3/3 
f 5/5/5 15/15/15 3/3/3 
f 16/16/16 15/15/15 5/5/5 
f 7/7/7 16/16/16 5/5/5 
f 17/17/17 16/16/16 7/7/7 
f 9/9/9 17/17/17 7/7/7 
f 18/18/18 17/17/17 9/9/9 
f 11/11/11 18/18/18 9/9/9 
f 13/13/13 19/19/19 14/14/14 
f 19/19/19 20/20/20 14/14/14 
f 21/21/21 19/19/19 13/13/13 
f 15/15/15 21/21/21 13/13/13 
f 22/22/22 21/21/21 15/15/15 
f 16/16/16 22/22/22 15/15/15 
f 23/23/23 22/22/22 16/16/16 
f 17/17/17 23/23/23 16/16/16 
f 24/24/24 23/23/23 17/17/17 
f 18/18/18 24/24/24 17/17/17 
f 19/19/19 25/25/25 20/20/20 
f 25/25/25 26/26/26 20/20/20 
f 27/27/27 25/25/25 19/19/19 
f 21/21/21 27/27/27 19/19/19 
f 28/28/28 27/27/27 21/21/21 
f 22/22/22 28/28/28 21/21/21 
f 29/29/29 28/28/28 22/22/22 
f 23/23/23 29/29/29 22/22/22 
f 30/30/30 29/29/29 23/23/23 
f 24/24/24 30/30/30 23/23/23 
f 25/25/25 31/31/31 26/26/26 
f 31/31/31 32/32/32 26/26/26 
f 33/33/33 31/31/31 25/25/25 
f 27/27/27 33/33/33 25/25/25 
f 34/34/34 33/33/33 27/27/27 
f 28/28/28 34/34/34 27/27/27 
f 35/35/35 34/34/34 28/28/28 
f 29/29/29 35/35/35 28/28/28 
f 36/36/36 35/35/35 29/29/29 
f 30/30/30 36/36/36 29/29/29 
f 39/39/39 38/38/38 37/37/37 
f 40/40/40 39/39/39 37/37/37 
f 41/41/41 39/39/39 40/40/40 
f 42/42/42 41/41/41 40/40/40 
f 43/43/43 41/41/41 42/42/42 
f 44/44/44 43/43/43 42/42/42 
f 45/45/45 43/43/43 44/44/44 
f 46/46/46 45/45/45 44/44/44 
f 47/47/47 45/45/45 46/46/46 
f 48/48/48 47/47/47 46/46/46 
f 39/39/39 49/49/49 38/38/38 
f 49/49/49 50/50/50 38/38/38 
f 51/51/51 49/49/49 39/39/39 
f 41/41/41 51/51/51 39/39/39 
f 52/52/52 51/51/51 41/41/41 
f 43/43/43 52/52/52 41/41/41 
f 53/53/53 52/52/52 43/43/43 
f 45/45/45 53/53/53 43/43/43 
f 54/54/54 53/53/53 45/45/45 
f 47/47/47 54/54/54 45/45/45 
f 49/49/49 55/55/55 50/50/50 
f 55/55/55 56/56/56 50/50/50 
f 57/57/57 55/55/55 49/49/49 
f 51/51/51 57/57/57 49/49/49 
f 58/58/58 57/57/57 51/51/51 
f 52/52/52 58/58/58 51/51/51 
f 59/59/59 58/58/58 52/52/52 
f 53/53/53 59/59/59 52/52/52 
f 60/60/60 59/59/59 53/53/53 
f 54/54/54 60/60/60 53/53/53 
f 55/55/55 61/61/61 56/56/56 
f 61/61/61 62/62/62 56/56/56 
f 63/63/63 61/61/61 55/55/55 
f 57/57/57 63/63/63 55/55/55 
f 64/64/64 63/63/63 57/57/57 
f 58/58/58 64/64/64 57/57/57 
f 65/65/65 64/64/64 58/58/58 
f 59/59/59 65/65/65 58/58/58 
f 66/66/66 65/65/65 59/59/59 
f 60/60/60 66/66/66 59/59/59 
f 61/61/61 67/67/67 62/62/62 
f 67/67/67 68/68/68 62/62/62 
f 69/69/69 67/67/67 61/61/61 
f 63/63/63 69/69/69 61/61/61 
f 70/70/70 69/69/69 63/63/63 
f 64/64/64 70/70/70 63/63/63 
f 71/71/71 70/70/70 64/64/64 
f 65/65/65 71/71/71 64/64/64 
f 72/72/72 71/71/71 65/65/65 
f 66/66/66 72/72/72 65/65/65 
f 75/75/75 74/74/74 73/73/73 
f 76/76/76 75/75/75 73/73/73 
f 77/77/77 75/75/75 76/76/76 
f 78/78/78 77/77/77 76/76/76 
f 79/79/79 77/77/77 78/78/78 
f 80/80/80 79/79/79 78/78/78 
f 81/81/81 79/79/79 80/80/80 
f 82/82/82 81/81/81 80/80/80 
f 83/83/83 81/81/81 82/82/82 
f 84/84/84 83/83/83 82/82/82 
f 75/75/75 85/85/85 74/74/74 
f 85/85/85 86/86/86 74/74/74 
f 87/87/87 85/85/85 75/75/75 
f 77/77/77 87/87/87 75/75/75 
f 88/88/88 87/87/87 77/77/77 
f 79/79/79 88/88/88 77/77/77 
f 89/89/89 88/88/88 79/79/79 
f 81/81/81 89/89/89 79/79/79 
f 90/90/90 89/89/89 81/81/81 
f 83/83/83 90/90/90 81/81/81 
f 85/85/85 91/91/91 86/86/86 
f 91/91/91 92/92/92 86/86/86 
f 93/93/93 91/91/91 85/85/85 
f 87/87/87 93/93/93 85/85/85 
f 94/94/94 93/93/93 87/87/87 
f 88/88/88 94/94/94 87/87/87 
f 95/95/95 94/94/94 88/88/88 
f 89/89/89 95/95/95 88/88/88 
f 96/96/96 95/95/95 89/89/89 
f 90/90/90 96/96/96 89/89/89 
f 91/91/91 97/97/97 92/92/92 
f 97/97/97 98/98/98 92/92/92 
f 99/99/99 97/97/97 91/91/91 
f 93/93/93 99/99/99 91/91/91 
f 100/100/100 99/99/99 93/93/93 
f 94/94/94 100/100/100 93/93/93 
f 101/101/101 100/100/100 94/94/94 
f 95/95/95 101/101/101 94/94/94 
f 102/102/102 101/101/101 95/95/95 
f 96/96/96 102/102/102 95/95/95 
f 97/97/97 103/103/103 98/98/98 
f 103/103/103 104/104/104 98/98/98 
f 105/105/105 103/103/103 97/97/97 
f 99/99/99 105/105/105 97/97/97 
f 106/106/106 105/105/105 99/99/99 
f 100/100/100 106/106/106 99/99/99 
f 107/107/107 106/106/106 100/100/100 
f 101/101/101 107/107/107 100/100/100 
f 108/108/108 107/107/107 101/101/101 
f 102/102/102 108/108/108 101/101/101 

