v 0.4830583930015564 0.9375948905944824 1.1071770191192627
v 0.5461656451225281 1.1318191289901733 0.8837146759033203
v 0.7742589116096497 0.9375950694084167 0.9272052049636841
v 0.6905066967010498 1.2366890907287598 0.5950325727462769
v 0.49437835812568665 1.309702754020691 0.7229665517807007
v 0.9185999035835266 1.0424649715423584 0.6385231018066406
v 0.8629856109619141 1.2136282920837402 0.34732261300086975
v 1.0242211818695068 0.8585351705551147 0.8239917755126953
v 0.3477850556373596 0.8585351705551147 1.2420523166656494
v 0.8950334191322327 1.256134271621704 0.14755567908287048
v -0.9419069290161133 0.4745955467224121 1.1071770191192627
v -1.1774929761886597 0.3034321665763855 0.9272052049636841
v -1.107123851776123 0.5946326851844788 0.8837146759033203
v -1.1467620134353638 0.7664938569068909 0.77215176820755
v -0.762975811958313 0.48765695095062256 1.291237473487854
v -1.3102240562438965 0.09005770087242126 0.8731769919395447
v -0.08920764178037643 -0.27455300092697144 1.508948564529419
v 0.0007782955071888864 -0.5515010952949524 1.4262245893478394
v -0.3247937262058258 -0.44571638107299805 1.4262245893478394
v -0.5259785652160645 -0.463060587644577 1.3819016218185425
v 0.021269692108035088 -0.06546135991811752 1.5740630626678467
v 0.23030003905296326 -0.7087903022766113 1.3819016218185425
v 0.32353469729423523 -0.44663116335868835 1.4262245893478394
v -0.5259785652160645 -0.463060587644577 1.3819016218185425
v 0.697705864906311 -0.06546135991811752 1.3819016218185425
v 0.524749219417572 -0.16968311369419098 1.4262245893478394
v 0.23354877531528473 -0.1696830838918686 1.508948564529419
v 0.021269692108035088 -0.06546135991811752 1.5740630626678467
v -0.08920764178037643 -0.27455300092697144 1.508948564529419
v -1.1963316202163696 -0.8691861033439636 0.41661709547042847
v -1.1211005449295044 -1.026097059249878 0.1689072549343109
v -1.3223150968551636 -0.7491488456726074 0.1689072549343109
v -1.4115227460861206 -0.4745957851409912 0.3473225235939026
v -1.4422165155410767 -0.5563722252845764 0.09701190888881683
v -1.2855392694473267 -0.5946329236030579 0.5950325131416321
v -1.3559083938598633 -0.3034324645996094 0.6385230422019958
v -0.9627828598022461 -1.0388689041137695 0.5950325131416321
v -1.149566411972046 -0.8352091908454895 0.6724228262901306
v -1.3130286931991577 -0.15877306461334229 0.7734480500221252
v -0.7075799107551575 -1.1957799196243286 0.6385231018066406
v -0.8875518441200256 -1.1957799196243286 0.34732261300086975
v -0.9748106598854065 -1.199701189994812 0.09701190888881683
v -0.5567499995231628 -1.199700951576233 0.7734480500221252
v 0.456958144903183 -1.4063720703125 0.416617214679718
v 0.6294370889663696 -1.383311152458191 0.16890724003314972
v 0.3038649260997772 -1.4890960454940796 0.16890724003314972
v 0.6446030139923096 -1.3659493923187256 -0.17390888929367065
v 0.84747314453125 -1.321595311164856 -0.006353224627673626
v 0.28139057755470276 -1.483964204788208 -0.17390890419483185
v 0.4438241124153137 -1.3659495115280151 -0.498775839805603
v 0.09119448065757751 -1.5673253536224365 -0.006353224627673626
v 0.446818083524704 -1.3751640319824219 0.5690576434135437
v 0.4294126033782959 -1.3215954303741455 -0.6827894449234009
v -0.4569580554962158 1.4063720703125 -0.416617214679718
v -0.30386489629745483 1.4890960454940796 -0.1689072698354721
v -0.6294369697570801 1.3833112716674805 -0.1689072698354721
v -0.44681796431541443 1.3751640319824219 -0.5690577030181885
v -0.09119445830583572 1.5673253536224365 0.006353219971060753
v -0.28139054775238037 1.4839643239974976 0.17390888929367065
v -0.6446027755737305 1.3659495115280151 0.17390890419483185
v -0.4438239634037018 1.3659496307373047 0.49877581000328064
v -0.8474729657173157 1.321595549583435 0.006353219971060753
v -0.42941248416900635 1.321595549583435 0.6827893257141113
v 0.07351949065923691 0.8442032933235168 -1.2623356580734253
v 0.4367317259311676 0.7261885404586792 -1.2623356580734253
v 0.33634236454963684 1.035155177116394 -1.0615568161010742
v -0.10794045776128769 0.8167909979820251 -1.310882329940796
v 0.6483380198478699 0.5710612535476685 -1.310882329940796
v 0.7424325942993164 0.7491486668586731 -1.1071770191192627
v 0.6524466276168823 1.0260967016220093 -0.9272052049636841
v 0.9076496362686157 0.8691858053207397 -0.8837146759033203
v 0.4393078684806824 1.2143901586532593 -0.8928219676017761
v 1.0321241617202759 0.8498982191085815 -0.7917967438697815
v -1.0409789085388184 0.16968299448490143 -1.1071770191192627
v -1.1309648752212524 0.4466310739517212 -0.9272052049636841
v -1.245198369026184 0.16968299448490143 -0.8837146759033203
v -1.245198369026184 -0.16968318819999695 -0.8837146759033203
v -1.3771029710769653 -1.1521403564529464e-07 -0.7655059099197388
v -1.1309648752212524 -0.4466312527656555 -0.9272052049636841
v -1.040979027748108 -0.16968314349651337 -1.1071770191192627
v -0.9027172923088074 -7.374190857944996e-08 -1.284591555595398
v -1.11174738407135 -0.6433289647102356 -0.8665311932563782
v -1.11174738407135 0.643328845500946 -0.8665311932563782
v 0.8256038427352905 0.19095204770565033 -1.2623355388641357
v 0.8256038427352905 -0.19095171988010406 -1.2623355388641357
v 1.0884265899658203 2.1762872393082944e-07 -1.0615565776824951
v 0.9419072270393372 -0.47459524869918823 -1.1071768999099731
v 0.7434592247009277 -0.4401382505893707 -1.310882329940796
v 1.1071243286132812 -0.5946323275566101 -0.8837145566940308
v 1.1774933338165283 -0.30343201756477356 -0.9272051453590393
v 1.2907072305679321 -0.042539093643426895 -0.892821729183197
v 1.127245545387268 -0.7189750075340271 -0.7917967438697815
v 0.7434590458869934 0.35505983233451843 -1.310882329940796
v 0.0007782955071888864 -0.5515010952949524 1.4262245893478394
v -0.08920764178037643 -0.27455300092697144 1.508948564529419
v 0.23354877531528473 -0.1696830838918686 1.508948564529419
v 0.32353469729423523 -0.44663116335868835 1.4262245893478394
vn 0.3766043782234192 0.5962468385696411 0.7089844346046448
vn 0.39762556552886963 0.6801790595054626 0.6158331036567688
vn 0.4658189117908478 0.6074517965316772 0.6434399485588074
vn 0.5205883383750916 0.7695172429084778 0.36990681290626526
vn 0.5103470683097839 0.6943260431289673 0.5074023008346558
vn 0.603203535079956 0.7072674036026001 0.36867091059684753
vn 0.5966405272483826 0.7561128735542297 0.2689112722873688
vn 0.49845901131629944 0.7045213580131531 0.505161702632904
vn 0.36148661375045776 0.5995910167694092 0.7140154242515564
vn 0.589754045009613 0.7654372453689575 0.2574799954891205
vn -0.7002277970314026 0.2680348753929138 0.6616935729980469
vn -0.7002276182174683 0.268034964799881 0.6616937518119812
vn -0.7002276182174683 0.2680347263813019 0.6616937518119812
vn -0.7002276182174683 0.2680346965789795 0.6616937518119812
vn -0.7002277970314026 0.2680349051952362 0.6616935729980469
vn -0.7002275586128235 0.268034964799881 0.6616936922073364
vn -0.06838387250900269 -0.2573155164718628 0.9639047980308533
vn -0.054430119693279266 -0.35512301325798035 0.9332336783409119
vn -0.16352586448192596 -0.33378738164901733 0.9283561706542969
vn -0.17676447331905365 -0.3243563175201416 0.9292724132537842
vn 0.08799169212579727 -0.270810604095459 0.9586026072502136
vn 0.08329419046640396 -0.25635334849357605 0.9629876017570496
vn 0.25277093052864075 -0.25530722737312317 0.9332336783409119
vn -0.17676447331905365 -0.3243563175201416 0.9292724132537842
vn 0.3336573541164398 -0.158510223031044 0.9292724132537842
vn 0.3284904956817627 -0.17392154037952423 0.9283561706542969
vn 0.20656998455524445 -0.16797757148742676 0.9639047980308533
vn 0.08799169212579727 -0.270810604095459 0.9586026072502136
vn -0.06838387250900269 -0.2573155164718628 0.9639047980308533
vn -0.791019082069397 -0.5747090578079224 0.20975741744041443
vn -0.7702232599258423 -0.6376234889030457 0.013874056749045849
vn -0.8444279432296753 -0.5354894995689392 0.01387401670217514
vn -0.9813395142555237 -0.09301691502332687 0.16828753054141998
vn -0.9003391265869141 -0.4047290086746216 0.1599501371383667
vn -0.8485389947891235 -0.35950008034706116 0.38825416564941406
vn -0.9540901780128479 -0.03299008309841156 0.2976970672607422
vn -0.6041176915168762 -0.695917010307312 0.3882542550563812
vn -0.766802191734314 -0.5571144819259644 0.3188070058822632
vn -0.8936952352523804 -0.13436737656593323 0.42808204889297485
vn -0.326205313205719 -0.8971992135047913 0.2976972758769989
vn -0.39171484112739563 -0.9045654535293579 0.16828767955303192
vn -0.6631399393081665 -0.731205403804779 0.1599498838186264
vn -0.4039578139781952 -0.8084328174591064 0.4280822277069092
vn 0.30313435196876526 -0.9329509735107422 0.19419613480567932
vn 0.3519704043865204 -0.9306426644325256 0.10010504722595215
vn 0.26226839423179626 -0.9597886800765991 0.10010508447885513
vn 0.33867785334587097 -0.9281525015830994 -0.15437036752700806
vn 0.3020522892475128 -0.9525535106658936 -0.037500377744436264
vn 0.2715587913990021 -0.9499608874320984 -0.1543702632188797
vn 0.3002886474132538 -0.9241921305656433 -0.23599942028522491
vn 0.3155320882797241 -0.9481736421585083 -0.03750051558017731
vn 0.30209746956825256 -0.9297595620155334 0.21043837070465088
vn 0.29954686760902405 -0.9219090342521667 -0.24567341804504395
vn -0.3031340539455414 0.9329509735107422 -0.19419610500335693
vn -0.2622683346271515 0.9597886800765991 -0.10010522603988647
vn -0.35197001695632935 0.93064284324646 -0.10010513663291931
vn -0.3020970821380615 0.929759681224823 -0.21043828129768372
vn -0.31553179025650024 0.9481736421585083 0.03750041872262955
vn -0.27155837416648865 0.9499610066413879 0.15437032282352448
vn -0.3386777341365814 0.9281526207923889 0.15437032282352448
vn -0.30028820037841797 0.9241921901702881 0.23599956929683685
vn -0.3020517826080322 0.9525536894798279 0.037500329315662384
vn -0.2995464503765106 0.9219090342521667 0.24567364156246185
vn 0.14049911499023438 0.5711819529533386 -0.8087096214294434
vn 0.22844107449054718 0.5518214106559753 -0.8020647168159485
vn 0.20988993346691132 0.6089164018630981 -0.7649620771408081
vn 0.13097786903381348 0.569770872592926 -0.8112989664077759
vn 0.3261357843875885 0.5930904150009155 -0.7361244559288025
vn 0.46151453256607056 0.5460231304168701 -0.6991873979568481
vn 0.4367216229438782 0.6223275661468506 -0.6496018171310425
vn 0.528609573841095 0.5765953063964844 -0.6229845881462097
vn 0.32986146211624146 0.5816232562065125 -0.7435764074325562
vn 0.5419229865074158 0.5746230483055115 -0.6132926940917969
vn -0.6911889314651489 0.1615051031112671 -0.70439612865448
vn -0.7109777331352234 0.2586681544780731 -0.6539124846458435
vn -0.7621503472328186 0.1445518136024475 -0.6310559511184692
vn -0.7621503472328186 -0.14455172419548035 -0.6310558915138245
vn -0.7300576567649841 0.0 -0.6833855509757996
vn -0.7109774947166443 -0.2586684226989746 -0.6539126038551331
vn -0.6911888122558594 -0.1615051031112671 -0.7043963074684143
vn -0.7407777309417725 0.0 -0.6717501878738403
vn -0.717637836933136 -0.2683447003364563 -0.6426407098770142
vn -0.7176380157470703 0.2683444321155548 -0.6426405906677246
vn 0.586643397808075 0.04288214072585106 -0.8087092041969299
vn 0.5954059958457947 -0.046737924218177795 -0.8020644187927246
vn 0.6439735293388367 -0.011451629921793938 -0.7649620175361633
vn 0.661915123462677 -0.2701951563358307 -0.6991873383522034
vn 0.6648444533348083 -0.1268978714942932 -0.7361241579055786
vn 0.711724579334259 -0.32455918192863464 -0.6229843497276306
vn 0.7268233299255371 -0.22303684055805206 -0.6496018171310425
vn 0.6550896763801575 -0.1339850127696991 -0.743576169013977
vn 0.7139628529548645 -0.3378303349018097 -0.6132924556732178
vn 0.582359254360199 0.0515013188123703 -0.8112985491752625
vn -0.054430119693279266 -0.35512301325798035 0.9332336783409119
vn -0.06838387250900269 -0.2573155164718628 0.9639047980308533
vn 0.20656998455524445 -0.16797757148742676 0.9639047980308533
vn 0.25277093052864075 -0.25530722737312317 0.9332336783409119
vt 0.5677452683448792 0.8644938170909882
vt 0.4952240586280823 0.8422473967075348
vt 0.5196301937103271 0.8047048598527908
vt 0.44158244132995605 0.8162788450717926
vt 0.4542679488658905 0.848710685968399
vt 0.4659882187843323 0.778736412525177
vt 0.3871549665927887 0.7770681977272034
vt 0.5109609365463257 0.7615025341510773
vt 0.6227282285690308 0.9003873839974403
vt 0.3278372287750244 0.7576273381710052
vt 0.7916920185089111 0.1344510316848755
vt 0.7183268666267395 0.1569751501083374
vt 0.7191715240478516 0.11220473051071167
vt 0.6888843774795532 0.08388721942901611
vt 0.8573446273803711 0.1355639100074768
vt 0.6869233846664429 0.18788492679595947
vt 0.8765367865562439 0.4552491307258606
vt 0.7913910150527954 0.4741590619087219
vt 0.8166407942771912 0.39184635877609253
vt 0.7981310486793518 0.32339465618133545
vt 0.9373689293861389 0.4713062644004822
vt 0.7400364875793457 0.5179756581783295
vt 0.7579867243766785 0.5830522179603577
vt 0.7986905574798584 0.3267698287963867
vt 0.6813822984695435 0.7091815173625946
vt 0.7327368259429932 0.6653649210929871
vt 0.8178825974464417 0.646454930305481
vt 0.8791695833206177 0.6652552783489227
vt 0.8729346990585327 0.6014534831047058
vt 0.5788995623588562 0.2593468427658081
vt 0.5118468403816223 0.26129239797592163
vt 0.5244717001914978 0.22013622522354126
vt 0.5631176233291626 0.20345056056976318
vt 0.503799557685852 0.18400967121124268
vt 0.6175447702407837 0.24266117811203003
vt 0.6419506669044495 0.20511895418167114
vt 0.6015406250953674 0.29483282566070557
vt 0.6302303075790405 0.27509307861328125
vt 0.6869233846664429 0.18788492679595947
vt 0.6006966233253479 0.3396031856536865
vt 0.5344882607460022 0.2967783808708191
vt 0.4744725525379181 0.27961266040802
vt 0.6282691955566406 0.3790907859802246
vt 0.5202451944351196 0.4505530595779419
vt 0.45319271087646484 0.45249831676483154
vt 0.46581780910491943 0.4113417863845825
vt 0.3942546248435974 0.43702149391174316
vt 0.41581839323043823 0.47081857919692993
vt 0.40833932161331177 0.3911072611808777
vt 0.32039177417755127 0.3892461657524109
vt 0.44514545798301697 0.3752155900001526
vt 0.5715762376785278 0.4662989377975464
vt 0.2620216906070709 0.37134039402008057
vt 0.1940833479166031 0.8734961003065109
vt 0.2611360251903534 0.8715503811836243
vt 0.24851074814796448 0.9127067998051643
vt 0.14275236427783966 0.8577498495578766
vt 0.2985101640224457 0.8532302677631378
vt 0.3200741112232208 0.8870272636413574
vt 0.30598923563957214 0.9329417794942856
vt 0.3939366936683655 0.934802919626236
vt 0.26918309926986694 0.948833204805851
vt 0.4523067772388458 0.9527084603905678
vt 0.013978522270917892 0.7638831287622452
vt 0.04214789345860481 0.6720540225505829
vt 0.09582552313804626 0.7387551665306091
vt -0.025707900524139404 0.8060731589794159
vt 0.032946228981018066 0.614867240190506
vt 0.08792951703071594 0.6507607698440552
vt 0.13604454696178436 0.7105495929718018
vt 0.16045039892196655 0.6730072200298309
vt 0.14471352100372314 0.7537520825862885
vt 0.20140649378299713 0.6665439307689667
vt 0.27456122636795044 0.04236215353012085
vt 0.34792643785476685 0.019838690757751465
vt 0.34708207845687866 0.06460839509963989
vt 0.33641278743743896 0.09938973188400269
vt 0.37736886739730835 0.0929262638092041
vt 0.31200677156448364 0.13693153858184814
vt 0.26389193534851074 0.07714313268661499
vt 0.20890863239765167 0.041249632835388184
vt 0.3206758201122284 0.18013441562652588
vt 0.37932994961738586 -0.011071443557739258
vt 0.07263262569904327 0.5726772248744965
vt 0.10080200433731079 0.4808480739593506
vt 0.15447965264320374 0.5475493669509888
vt 0.14658358693122864 0.4595549702644348
vt 0.09160033613443375 0.423661470413208
vt 0.21910451352596283 0.4818015694618225
vt 0.19469867646694183 0.5193437933921814
vt 0.20336765050888062 0.5625462830066681
vt 0.2600606083869934 0.4753381013870239
vt 0.032946228981018066 0.614867240190506
vt 0.721868634223938 0.6416641175746918
vt 0.7817645072937012 0.7050668597221375
vt 0.8178825974464417 0.646454930305481
vt 0.7579867243766785 0.5830522179603577

g Object002
s 1
usemtl Object002
f 3/3/3 2/2/2 1/1/1 
f 4/4/4 2/2/2 3/3/3 
f 4/4/4 5/5/5 2/2/2 
f 6/6/6 4/4/4 3/3/3 
f 4/4/4 6/6/6 7/7/7 
f 5/5/5 4/4/4 7/7/7 
f 3/3/3 8/8/8 6/6/6 
f 8/8/8 3/3/3 1/1/1 
f 9/9/9 1/1/1 2/2/2 
f 5/5/5 9/9/9 2/2/2 
f 9/9/9 8/8/8 1/1/1 
f 10/10/10 5/5/5 7/7/7 
f 10/10/10 7/7/7 6/6/6 
f 8/8/8 10/10/10 6/6/6 
f 13/13/13 12/12/12 11/11/11 
f 14/14/14 13/13/13 11/11/11 
f 15/15/15 14/14/14 11/11/11 
f 15/15/15 11/11/11 12/12/12 
f 16/16/16 12/12/12 13/13/13 
f 14/14/14 16/16/16 13/13/13 
f 16/16/16 15/15/15 12/12/12 
f 19/19/19 18/18/18 17/17/17 
f 20/20/20 19/19/19 17/17/17 
f 21/21/21 20/20/20 17/17/17 
f 22/22/22 18/18/18 19/19/19 
f 18/18/18 22/22/22 23/23/23 
f 24/24/24 22/22/22 19/19/19 
f 22/22/22 25/25/25 23/23/23 
f 25/25/25 26/26/26 23/23/23 
f 23/23/23 26/26/26 27/27/27 
f 28/28/28 27/27/27 26/26/26 
f 25/25/25 28/28/28 26/26/26 
f 27/27/27 28/28/28 29/29/29 
f 32/32/32 31/31/31 30/30/30 
f 33/33/33 32/32/32 30/30/30 
f 33/33/33 34/34/34 32/32/32 
f 35/35/35 33/33/33 30/30/30 
f 35/35/35 36/36/36 33/33/33 
f 34/34/34 33/33/33 36/36/36 
f 30/30/30 37/37/37 35/35/35 
f 37/37/37 30/30/30 31/31/31 
f 37/37/37 38/38/38 35/35/35 
f 39/39/39 36/36/36 35/35/35 
f 38/38/38 39/39/39 35/35/35 
f 39/39/39 34/34/34 36/36/36 
f 38/38/38 37/37/37 40/40/40 
f 40/40/40 37/37/37 41/41/41 
f 41/41/41 37/37/37 31/31/31 
f 31/31/31 42/42/42 41/41/41 
f 42/42/42 31/31/31 32/32/32 
f 34/34/34 42/42/42 32/32/32 
f 43/43/43 38/38/38 40/40/40 
f 43/43/43 40/40/40 41/41/41 
f 42/42/42 43/43/43 41/41/41 
f 46/46/46 45/45/45 44/44/44 
f 47/47/47 45/45/45 46/46/46 
f 47/47/47 48/48/48 45/45/45 
f 49/49/49 47/47/47 46/46/46 
f 50/50/50 47/47/47 49/49/49 
f 48/48/48 47/47/47 50/50/50 
f 46/46/46 51/51/51 49/49/49 
f 51/51/51 46/46/46 44/44/44 
f 52/52/52 44/44/44 45/45/45 
f 48/48/48 52/52/52 45/45/45 
f 52/52/52 51/51/51 44/44/44 
f 53/53/53 50/50/50 49/49/49 
f 51/51/51 53/53/53 49/49/49 
f 53/53/53 48/48/48 50/50/50 
f 56/56/56 55/55/55 54/54/54 
f 57/57/57 54/54/54 55/55/55 
f 58/58/58 57/57/57 55/55/55 
f 59/59/59 58/58/58 55/55/55 
f 59/59/59 55/55/55 56/56/56 
f 60/60/60 59/59/59 56/56/56 
f 61/61/61 59/59/59 60/60/60 
f 58/58/58 59/59/59 61/61/61 
f 56/56/56 62/62/62 60/60/60 
f 62/62/62 56/56/56 54/54/54 
f 57/57/57 62/62/62 54/54/54 
f 63/63/63 61/61/61 60/60/60 
f 62/62/62 63/63/63 60/60/60 
f 63/63/63 58/58/58 61/61/61 
f 66/66/66 65/65/65 64/64/64 
f 67/67/67 64/64/64 65/65/65 
f 68/68/68 67/67/67 65/65/65 
f 69/69/69 68/68/68 65/65/65 
f 69/69/69 65/65/65 66/66/66 
f 70/70/70 69/69/69 66/66/66 
f 70/70/70 71/71/71 69/69/69 
f 68/68/68 69/69/69 71/71/71 
f 66/66/66 72/72/72 70/70/70 
f 72/72/72 66/66/66 64/64/64 
f 67/67/67 72/72/72 64/64/64 
f 73/73/73 71/71/71 70/70/70 
f 72/72/72 73/73/73 70/70/70 
f 73/73/73 68/68/68 71/71/71 
f 76/76/76 75/75/75 74/74/74 
f 77/77/77 76/76/76 74/74/74 
f 77/77/77 78/78/78 76/76/76 
f 78/78/78 77/77/77 79/79/79 
f 79/79/79 77/77/77 80/80/80 
f 80/80/80 77/77/77 74/74/74 
f 74/74/74 81/81/81 80/80/80 
f 81/81/81 74/74/74 75/75/75 
f 82/82/82 78/78/78 79/79/79 
f 82/82/82 79/79/79 80/80/80 
f 81/81/81 82/82/82 80/80/80 
f 83/83/83 75/75/75 76/76/76 
f 78/78/78 83/83/83 76/76/76 
f 83/83/83 81/81/81 75/75/75 
f 86/86/86 85/85/85 84/84/84 
f 87/87/87 85/85/85 86/86/86 
f 87/87/87 88/88/88 85/85/85 
f 88/88/88 87/87/87 89/89/89 
f 90/90/90 89/89/89 87/87/87 
f 90/90/90 87/87/87 86/86/86 
f 86/86/86 91/91/91 90/90/90 
f 91/91/91 86/86/86 84/84/84 
f 92/92/92 88/88/88 89/89/89 
f 92/92/92 89/89/89 90/90/90 
f 91/91/91 92/92/92 90/90/90 
f 93/93/93 84/84/84 85/85/85 
f 88/88/88 93/93/93 85/85/85 
f 93/93/93 91/91/91 84/84/84 
f 96/96/96 95/95/95 94/94/94 
f 97/97/97 96/96/96 94/94/94 

