v 0.8580747246742249 0.0649939477443695 0.08583007752895355
v 0.96225905418396 -0.01859687827527523 -0.08583001047372818
v 0.9231407046318054 -0.16309265792369843 -0.060483310371637344
v 0.8217372298240662 -0.06197480112314224 0.11098776012659073
v 0.8601652979850769 -0.30268022418022156 -0.0337243527173996
v 0.7655599117279053 -0.18236716091632843 0.13716012239456177
v 0.7778209447860718 -0.42732056975364685 -0.0067438650876283646
v 0.6942496299743652 -0.28781822323799133 0.1631346046924591
v 0.6792090535163879 -0.5343918204307556 0.020456066355109215
v 0.610954999923706 -0.3767094016075134 0.18889954686164856
v 0.5677596926689148 -0.621880292892456 0.047874268144369125
v 0.5189255475997925 -0.4480223059654236 0.21444383263587952
v 0.4471280872821808 -0.6884073615074158 0.07550803571939468
v 0.4214029014110565 -0.501323401927948 0.23975731432437897
v 0.32107481360435486 -0.7332537770271301 0.10335378348827362
v 0.3215281069278717 -0.5367299914360046 0.26482927799224854
v 0.1933547705411911 -0.7563557624816895 0.13140633702278137
v 0.2222527116537094 -0.5548646450042725 0.2896490693092346
v 0.06758604198694229 -0.7582857608795166 0.15966252982616425
v 0.1262606978416443 -0.5567976236343384 0.3142073154449463
v -0.052827395498752594 -0.740205705165863 0.1881154477596283
v 0.03591573238372803 -0.5439755320549011 0.33849334716796875
v -0.16480451822280884 -0.7038148045539856 0.21675653755664825
v -0.046794574707746506 -0.5181474685668945 0.36249813437461853
v -0.26567938923835754 -0.6512693762779236 0.2455783635377884
v -0.1202806904911995 -0.4812842905521393 0.38621291518211365
v -0.35325634479522705 -0.5850990414619446 0.2745717465877533
v -0.1833690106868744 -0.43549787998199463 0.40962982177734375
v -0.42586174607276917 -0.5081081986427307 0.3037258982658386
v -0.23529772460460663 -0.38296523690223694 0.43274083733558655
v -0.4823734164237976 -0.4232776463031769 0.3330283463001251
v -0.2757062017917633 -0.32585233449935913 0.4555395245552063
v -0.5222347378730774 -0.33365321159362793 0.36246633529663086
v -0.3046064078807831 -0.2662498652935028 0.47801971435546875
v -0.5454427599906921 -0.24224229156970978 0.3920266926288605
v -0.32234716415405273 -0.2061157524585724 0.5001760125160217
v -0.5525184273719788 -0.15193378925323486 0.42169010639190674
v -0.32957199215888977 -0.1472216248512268 0.5220057964324951
v -0.5444672703742981 -0.06537488847970963 0.45144158601760864
v -0.3271665573120117 -0.0911257341504097 0.5435052514076233
v -0.5227128863334656 0.015083430334925652 0.4812626242637634
v -0.31620898842811584 -0.0391395203769207 0.5646729469299316
v -0.4890275001525879 0.0874514952301979 0.511132001876831
v -0.29791417717933655 0.007687902543693781 0.5855093002319336
v -0.44544732570648193 0.15015842020511627 0.5410282015800476
v -0.2735823094844818 0.048570822924375534 0.6060156226158142
v -0.3941832482814789 0.20207878947257996 0.5709286332130432
v -0.24454931914806366 0.08298412710428238 0.6261947154998779
v -0.3375338315963745 0.242540180683136 0.6008077263832092
v -0.2121388465166092 0.11065249890089035 0.6460527777671814
v -0.2777895927429199 0.2713237404823303 0.6306402087211609
v -0.1776277869939804 0.13152608275413513 0.6655954718589783
v -0.21715249121189117 0.2886371314525604 0.6603986620903015
v -0.14220750331878662 0.14576038718223572 0.6848320364952087
v -0.157660573720932 0.29507535696029663 0.6900533437728882
v -0.10695935785770416 0.1536850482225418 0.7037739157676697
v -0.10111892223358154 0.2915699779987335 0.719574511051178
v -0.07283470034599304 0.15577362477779388 0.722434937953949
v -0.04905015602707863 0.2793269753456116 0.7489305138587952
v -0.0406426265835762 0.15261079370975494 0.7408311367034912
v -0.002656863071024418 0.2597549855709076 0.7780889272689819
v -0.011044480837881565 0.144863098859787 0.7589808106422424
v 0.03719913214445114 0.2343912124633789 0.807016134262085
v 0.015449590049684048 0.13324767351150513 0.776905357837677
v 0.06999974697828293 0.20482954382896423 0.8356775641441345
v 0.038474444299936295 0.11850696057081223 0.794629693031311
v 0.09556277096271515 0.17264604568481445 0.8640381693840027
v 0.05780306085944176 0.10138310492038727 0.8121803402900696
v 0.11401217430830002 0.13934028148651123 0.8920589089393616
v 0.0733347162604332 0.08259936422109604 0.829587459564209
v 0.12575137615203857 0.10626333206892014 0.9197103381156921
v 0.08508293330669403 0.06284141540527344 0.8468853235244751
v 0.1314040869474411 0.07459259033203125 0.9469547867774963
v 0.09315846115350723 0.04275068640708923 0.8641080856323242
v 0.13176801800727844 0.0452912263572216 0.9737550020217896
v 0.0977608934044838 0.02290436625480652 0.881297767162323
v 0.12775862216949463 0.019085656851530075 1.0000776052474976
v 0.09915954619646072 0.0038182747084647417 0.8984959125518799
v 0.12035176157951355 -0.00353616988286376 1.0258880853652954
v 0.09768274426460266 -0.01406217459589243 0.9157485365867615
v 0.11071160435676575 -0.022010525688529015 1.0506993532180786
v 0.09295406192541122 -0.0332801379263401 0.936409592628479
vn 0.8202951550483704 -0.12413843721151352 0.5583059787750244
vn 0.8202951550483704 -0.12413842976093292 0.5583059191703796
vn 0.7951046824455261 -0.18383878469467163 0.5779375433921814
vn 0.7990679144859314 -0.17504461109638214 0.5751954913139343
vn 0.7390559315681458 -0.2861649990081787 0.6098407506942749
vn 0.7435662150382996 -0.27909278869628906 0.6076317429542542
vn 0.6712367534637451 -0.376465380191803 0.6385257840156555
vn 0.6759697794914246 -0.37096843123435974 0.6367473006248474
vn 0.5939229726791382 -0.45361974835395813 0.6644430756568909
vn 0.5986074209213257 -0.4495334029197693 0.6630149483680725
vn 0.5094230771064758 -0.5168761014938354 0.687987744808197
vn 0.5138275027275085 -0.5140208005905151 0.6868507266044617
vn 0.4200500547885895 -0.5658560991287231 0.7094821333885193
vn 0.4239768981933594 -0.564038097858429 0.7085934281349182
vn 0.3280723989009857 -0.6005439162254333 0.7291882038116455
vn 0.3313593864440918 -0.5995538830757141 0.7285163402557373
vn 0.23566372692584991 -0.6212705969810486 0.7473188638687134
vn 0.23818586766719818 -0.6208834648132324 0.7468408346176147
vn 0.14484982192516327 -0.6286871433258057 0.7640491127967834
vn 0.14652720093727112 -0.6286655068397522 0.763746976852417
vn 0.05746927484869957 -0.6237308979034424 0.7795236110687256
vn 0.058270011097192764 -0.6238318681716919 0.7793833017349243
vn -0.024867214262485504 -0.6075888872146606 0.7938622832298279
vn -0.024924729019403458 -0.6075734496116638 0.7938723564147949
vn -0.10081101208925247 -0.581653356552124 0.8071657419204712
vn -0.10165470093488693 -0.5812984108924866 0.8073155879974365
vn -0.1692967563867569 -0.5474720597267151 0.8195199370384216
vn -0.1708046793937683 -0.5465843081474304 0.8197996616363525
vn -0.22955431044101715 -0.506703794002533 0.8309969902038574
vn -0.23156093060970306 -0.5051336288452148 0.8313961029052734
vn -0.2811155319213867 -0.4610719084739685 0.8416571021080017
vn -0.28342410922050476 -0.45872586965560913 0.8421646952629089
vn -0.3238195478916168 -0.41231799125671387 0.851548433303833
vn -0.3262166380882263 -0.40916958451271057 0.8521519899368286
vn -0.35780373215675354 -0.3621688485145569 0.8607032895088196
vn -0.360077828168869 -0.3582667112350464 0.8613877892494202
vn -0.3835020959377289 -0.31229621171951294 0.8691359162330627
vn -0.38546767830848694 -0.3077628016471863 0.8698831796646118
vn -0.4016418159008026 -0.2642807364463806 0.8768349289894104
vn -0.403160035610199 -0.25931355357170105 0.8776209354400635
vn -0.41323480010032654 -0.21958819031715393 0.8837522268295288
vn -0.41423875093460083 -0.214448943734169 0.8845438361167908
vn -0.4195774793624878 -0.17953087389469147 0.8897883892059326
vn -0.42009446024894714 -0.1745276153087616 0.8905395865440369
vn -0.4222505986690521 -0.14523056149482727 0.8947696089744568
vn -0.4224201738834381 -0.1406945288181305 0.8954139947891235
vn -0.4231194257736206 -0.11757603287696838 0.8984130024909973
vn -0.4232048988342285 -0.11382768303155899 0.8988553285598755
vn -0.4243263304233551 -0.09715761244297028 0.9002820253372192
vn -0.4247082471847534 -0.0944598987698555 0.9003889560699463
vn -0.42826512455940247 -0.08418161422014236 0.899723470211029
vn -0.4294149875640869 -0.08268897980451584 0.899313747882843
vn -0.43752458691596985 -0.07835797220468521 0.8957858681678772
vn -0.43993547558784485 -0.07805309444665909 0.8946309089660645
vn -0.45475322008132935 -0.07874057441949844 0.8871299028396606
vn -0.45881807804107666 -0.07938244193792343 0.8849771618843079
vn -0.482401579618454 -0.08354061096906662 0.8719573616981506
vn -0.4882213771343231 -0.08464517444372177 0.8686052560806274
vn -0.522280216217041 -0.08993472903966904 0.8480184078216553
vn -0.5294370651245117 -0.0908484011888504 0.8434708714485168
vn -0.5749082565307617 -0.09397222101688385 0.8128035664558411
vn -0.5822862982749939 -0.09410203993320465 0.807519257068634
vn -0.638727068901062 -0.09074428677558899 0.7640636563301086
vn -0.6445920467376709 -0.08997491002082825 0.7592138051986694
vn -0.7095035314559937 -0.07504427433013916 0.700694739818573
vn -0.7120329141616821 -0.07421314716339111 0.6982130408287048
vn -0.7804799675941467 -0.042561307549476624 0.623730480670929
vn -0.7787037491798401 -0.04363839700818062 0.6258722543716431
vn -0.8436785340309143 0.008773243054747581 0.5367770791053772
vn -0.8382825255393982 0.003142150118947029 0.5452269911766052
vn -0.8919488787651062 0.07805055379867554 0.4453484117984772
vn -0.8852745294570923 0.06551527976989746 0.46043112874031067
vn -0.9206567406654358 0.16178345680236816 0.35527077317237854
vn -0.9158605933189392 0.1411551684141159 0.37586522102355957
vn -0.9281118512153625 0.25514912605285645 0.2711223065853119
vn -0.928142249584198 0.22662632167339325 0.2952839434146881
vn -0.9148696064949036 0.3532205820083618 0.19557271897792816
vn -0.921882688999176 0.3180564343929291 0.2212970107793808
vn -0.8860382437705994 0.4450605809688568 0.1298353374004364
vn -0.8992851972579956 0.4088175296783447 0.1554165631532669
vn -0.8758988976478577 0.4692671000957489 0.11220283806324005
vn -0.8758989572525024 0.4692670702934265 0.11220284551382065
vt 0.9780423641204834 0.02304738759994507
vt 0.9853898286819458 0.9846227969974279
vt 0.9639410972595215 0.9846227988600731
vt 0.9498368501663208 0.02304738759994507
vt 0.9412972927093506 0.9846227988600731
vt 0.9204937219619751 0.02304738759994507
vt 0.9184659719467163 0.9846228007227182
vt 0.8913724422454834 0.02304738759994507
vt 0.8954489827156067 0.9846228007227182
vt 0.8624860644340515 0.02304738759994507
vt 0.8722473382949829 0.9846228025853634
vt 0.833847165107727 0.02304738759994507
vt 0.8488632440567017 0.9846228044480085
vt 0.8054670095443726 0.02304738759994507
vt 0.8252997398376465 0.9846228044480085
vt 0.7773575186729431 0.02304738759994507
vt 0.8015612363815308 0.9846228063106537
vt 0.7495307922363281 0.02304738759994507
vt 0.7776504755020142 0.9846228063106537
vt 0.7219973802566528 0.02304738759994507
vt 0.7535731792449951 0.9846228081732988
vt 0.6947692036628723 0.02304738759994507
vt 0.729336678981781 0.9846228081732988
vt 0.6678562164306641 0.02304738759994507
vt 0.7049471735954285 0.984622810035944
vt 0.6412683725357056 0.02304738759994507
vt 0.6804126501083374 0.9846228118985891
vt 0.6150145530700684 0.02304738759994507
vt 0.6557419896125793 0.9846228118985891
vt 0.5891035795211792 0.02304738759994507
vt 0.6309458613395691 0.9846228137612343
vt 0.5635429620742798 0.02304738759994507
vt 0.6060349941253662 0.9846228137612343
vt 0.5383393168449402 0.02304738759994507
vt 0.5810205340385437 0.9846228156238794
vt 0.5134987235069275 0.02304738759994507
vt 0.5559189319610596 0.9846228156238794
vt 0.48902428150177 0.02304738759994507
vt 0.530742883682251 0.9846228174865246
vt 0.4649201035499573 0.02304738759994507
vt 0.50550776720047 0.9846228193491697
vt 0.4411880373954773 0.02304738759994507
vt 0.4802318811416626 0.9846228193491697
vt 0.4178273677825928 0.02304738759994507
vt 0.4549333453178406 0.9846228212118149
vt 0.3948367238044739 0.02304738759994507
vt 0.4296311140060425 0.9846228212118149
vt 0.37221288681030273 0.02304738759994507
vt 0.4043470621109009 0.98462282307446
vt 0.3499491810798645 0.02304738759994507
vt 0.37910234928131104 0.9846228249371052
vt 0.32803887128829956 0.02304738759994507
vt 0.3539203405380249 0.9846228249371052
vt 0.30647188425064087 0.023047447204589844
vt 0.32882606983184814 0.9846228267997503
vt 0.2852352261543274 0.023047447204589844
vt 0.3038448095321655 0.9846228267997503
vt 0.26431339979171753 0.023047447204589844
vt 0.2790033221244812 0.9846228286623955
vt 0.24368858337402344 0.023047447204589844
vt 0.2543291449546814 0.9846228305250406
vt 0.2233399748802185 0.023047447204589844
vt 0.2298504114151001 0.9846228305250406
vt 0.2032436728477478 0.023047447204589844
vt 0.20559674501419067 0.9846228323876858
vt 0.1833723783493042 0.023047447204589844
vt 0.18159770965576172 0.9846228323876858
vt 0.1636953353881836 0.023047447204589844
vt 0.15788602828979492 0.9846228342503309
vt 0.14417946338653564 0.023047447204589844
vt 0.13448703289031982 0.9846228342503309
vt 0.12478595972061157 0.023047447204589844
vt 0.11143237352371216 0.9846228361129761
vt 0.10547661781311035 0.023047447204589844
vt 0.08875370025634766 0.9846228361129761
vt 0.08620434999465942 0.023047447204589844
vt 0.0664791464805603 0.9846228379756212
vt 0.06692278385162354 0.023047447204589844
vt 0.04463773965835571 0.9846228379756212
vt 0.047579944133758545 0.023047447204589844
vt 0.02364218235015869 0.9846228398382664
vt 0.024415671825408936 0.023047447204589844

g Skill_Dispel_luoxuan
s 1
usemtl Skill_Dispel_luoxuan
f 3/3/3 2/2/2 1/1/1 
f 4/4/4 3/3/3 1/1/1 
f 5/5/5 3/3/3 4/4/4 
f 6/6/6 5/5/5 4/4/4 
f 7/7/7 5/5/5 6/6/6 
f 8/8/8 7/7/7 6/6/6 
f 9/9/9 7/7/7 8/8/8 
f 10/10/10 9/9/9 8/8/8 
f 11/11/11 9/9/9 10/10/10 
f 12/12/12 11/11/11 10/10/10 
f 13/13/13 11/11/11 12/12/12 
f 14/14/14 13/13/13 12/12/12 
f 15/15/15 13/13/13 14/14/14 
f 16/16/16 15/15/15 14/14/14 
f 17/17/17 15/15/15 16/16/16 
f 18/18/18 17/17/17 16/16/16 
f 19/19/19 17/17/17 18/18/18 
f 20/20/20 19/19/19 18/18/18 
f 21/21/21 19/19/19 20/20/20 
f 22/22/22 21/21/21 20/20/20 
f 23/23/23 21/21/21 22/22/22 
f 24/24/24 23/23/23 22/22/22 
f 25/25/25 23/23/23 24/24/24 
f 26/26/26 25/25/25 24/24/24 
f 27/27/27 25/25/25 26/26/26 
f 28/28/28 27/27/27 26/26/26 
f 29/29/29 27/27/27 28/28/28 
f 30/30/30 29/29/29 28/28/28 
f 31/31/31 29/29/29 30/30/30 
f 32/32/32 31/31/31 30/30/30 
f 33/33/33 31/31/31 32/32/32 
f 34/34/34 33/33/33 32/32/32 
f 35/35/35 33/33/33 34/34/34 
f 36/36/36 35/35/35 34/34/34 
f 37/37/37 35/35/35 36/36/36 
f 38/38/38 37/37/37 36/36/36 
f 39/39/39 37/37/37 38/38/38 
f 40/40/40 39/39/39 38/38/38 
f 41/41/41 39/39/39 40/40/40 
f 42/42/42 41/41/41 40/40/40 
f 43/43/43 41/41/41 42/42/42 
f 44/44/44 43/43/43 42/42/42 
f 45/45/45 43/43/43 44/44/44 
f 46/46/46 45/45/45 44/44/44 
f 47/47/47 45/45/45 46/46/46 
f 48/48/48 47/47/47 46/46/46 
f 49/49/49 47/47/47 48/48/48 
f 50/50/50 49/49/49 48/48/48 
f 51/51/51 49/49/49 50/50/50 
f 52/52/52 51/51/51 50/50/50 
f 53/53/53 51/51/51 52/52/52 
f 54/54/54 53/53/53 52/52/52 
f 55/55/55 53/53/53 54/54/54 
f 56/56/56 55/55/55 54/54/54 
f 57/57/57 55/55/55 56/56/56 
f 58/58/58 57/57/57 56/56/56 
f 59/59/59 57/57/57 58/58/58 
f 60/60/60 59/59/59 58/58/58 
f 61/61/61 59/59/59 60/60/60 
f 62/62/62 61/61/61 60/60/60 
f 63/63/63 61/61/61 62/62/62 
f 64/64/64 63/63/63 62/62/62 
f 65/65/65 63/63/63 64/64/64 
f 66/66/66 65/65/65 64/64/64 
f 67/67/67 65/65/65 66/66/66 
f 68/68/68 67/67/67 66/66/66 
f 69/69/69 67/67/67 68/68/68 
f 70/70/70 69/69/69 68/68/68 
f 71/71/71 69/69/69 70/70/70 
f 72/72/72 71/71/71 70/70/70 
f 73/73/73 71/71/71 72/72/72 
f 74/74/74 73/73/73 72/72/72 
f 75/75/75 73/73/73 74/74/74 
f 76/76/76 75/75/75 74/74/74 
f 77/77/77 75/75/75 76/76/76 
f 78/78/78 77/77/77 76/76/76 
f 79/79/79 77/77/77 78/78/78 
f 80/80/80 79/79/79 78/78/78 
f 81/81/81 79/79/79 80/80/80 
f 82/82/82 81/81/81 80/80/80 

