v -1.9901322811932687e-09 0.045528918504714966 0.0
v 0.011783751659095287 0.04397755488753319 0.0
v 0.01162181980907917 0.043373219668865204 0.0023349926341325045
v -1.9627837133384674e-09 0.044903259724378586 0.0023349926341325045
v 0.01117941178381443 0.0417221263051033 0.004044326022267342
v -1.888066591959614e-09 0.04319392517209053 0.004044326022267342
v 0.022451627999544144 0.03888736665248871 0.0023349926341325045
v 0.022764457389712334 0.0394292026758194 0.0
v 0.021596960723400116 0.037407036870718 0.004044326022267342
v 0.031751397997140884 0.031751397997140884 0.0023349926341325045
v 0.032193806022405624 0.032193806022405624 0.0
v 0.03054271638393402 0.03054271638393402 0.004044326022267342
v 0.03888736665248871 0.022451629862189293 0.0023349926341325045
v 0.0394291989505291 0.022764459252357483 0.0
v 0.037407036870718 0.021596962586045265 0.004044326022267342
v 0.043373219668865204 0.011621818877756596 0.0023349926341325045
v 0.04397755488753319 0.011783750727772713 0.0
v 0.0417221263051033 0.011179410852491856 0.004044326022267342
v 0.044903259724378586 0.0 0.0023349926341325045
v 0.045528918504714966 0.0 0.0
v 0.04319392517209053 0.0 0.004044326022267342
v 0.043373219668865204 -0.011621818877756596 0.0023349926341325045
v 0.04397755488753319 -0.011783750727772713 0.0
v 0.0417221263051033 -0.011179410852491856 0.004044326022267342
v 0.03888736665248871 -0.022451629862189293 0.0023349926341325045
v 0.0394291989505291 -0.022764459252357483 0.0
v 0.037407036870718 -0.021596962586045265 0.004044326022267342
v -1.7860006806813544e-09 0.040858931839466095 -0.004669985268265009
v 0.010575070977210999 0.03946669399738312 -0.004669985268265009
v 0.01117941178381443 0.0417221263051033 -0.004044326953589916
v -1.888066591959614e-09 0.04319392517209053 -0.004044326953589916
v 0.011621818877756596 0.043373215943574905 -0.0023349954281002283
v -1.9627837133384674e-09 0.04490325599908829 -0.0023349954281002283
v 0.011783751659095287 0.04397755488753319 0.0
v -1.9901322811932687e-09 0.045528918504714966 0.0
v 0.021596960723400116 0.037407036870718 -0.004044326953589916
v 0.020429464057087898 0.035384874790906906 -0.004669985268265009
v 0.022451626136898994 0.03888736665248871 -0.0023349954281002283
v 0.022764457389712334 0.0394292026758194 0.0
v 0.03054271638393402 0.03054271638393402 -0.004044326953589916
v 0.028891626745462418 0.028891626745462418 -0.004669985268265009
v 0.031751397997140884 0.031751397997140884 -0.0023349954281002283
v 0.032193806022405624 0.032193806022405624 0.0
v 0.037407036870718 0.021596962586045265 -0.004044326953589916
v 0.03538487106561661 0.020429465919733047 -0.004669985268265009
v 0.03888736292719841 0.022451627999544144 -0.0023349954281002283
v 0.0394291989505291 0.022764459252357483 0.0
v 0.0417221263051033 0.011179410852491856 -0.004044326953589916
v 0.03946669399738312 0.01057506911456585 -0.004669985268265009
v 0.043373215943574905 0.011621817946434021 -0.0023349954281002283
v 0.04397755488753319 0.011783750727772713 0.0
v 0.04319392517209053 0.0 -0.004044326953589916
v 0.040858931839466095 0.0 -0.004669985268265009
v 0.04490325599908829 0.0 -0.0023349954281002283
v 0.045528918504714966 0.0 0.0
v 0.0417221263051033 -0.011179410852491856 -0.004044326953589916
v 0.03946669399738312 -0.01057506911456585 -0.004669985268265009
v 0.043373215943574905 -0.011621817946434021 -0.0023349954281002283
v 0.04397755488753319 -0.011783750727772713 0.0
v 0.037407036870718 -0.021596962586045265 -0.004044326953589916
v 0.03538487106561661 -0.020429465919733047 -0.004669985268265009
v 0.03888736292719841 -0.022451627999544144 -0.0023349954281002283
v 0.0394291989505291 -0.022764459252357483 0.0
vn 0.13052618503570557 0.9914448857307434 -6.119024646977778e-07
vn 0.258819043636322 0.9659258127212524 -4.451807740224467e-07
vn 0.22548696398735046 0.8415288925170898 0.490901917219162
vn 0.11395049840211868 0.8655401468276978 0.4877043664455414
vn 0.18301257491111755 0.6830121874809265 0.7071072459220886
vn 0.09269149601459503 0.7040621042251587 0.7040630578994751
vn 0.4356074035167694 0.7544940114021301 0.4909020960330963
vn 0.5 0.866025447845459 -2.630614233112283e-07
vn 0.3535532057285309 0.6123719811439514 0.7071071863174438
vn 0.6160417795181274 0.6160418391227722 0.4909021854400635
vn 0.7071067690849304 0.7071067690849304 -3.7941552477605e-07
vn 0.49999961256980896 0.4999997317790985 0.7071071863174438
vn 0.7544942498207092 0.4356074631214142 0.4909018874168396
vn 0.866025447845459 0.5000000596046448 -5.918881242905627e-07
vn 0.6123719215393066 0.3535532057285309 0.7071072459220886
vn 0.8415290117263794 0.22548703849315643 0.49090173840522766
vn 0.9659258127212524 0.2588191032409668 -6.424767207136028e-07
vn 0.6830121874809265 0.18301257491111755 0.7071072459220886
vn 0.8712148666381836 0.0 0.4909018874168396
vn 1.0 0.0 -6.171825361889205e-07
vn 0.7071062326431274 0.0 0.7071073055267334
vn 0.8415289521217346 -0.22548705339431763 0.49090176820755005
vn 0.9659258127212524 -0.2588191032409668 -6.42476663870184e-07
vn 0.6830121874809265 -0.18301257491111755 0.7071072459220886
vn 0.8065550923347473 -0.3340861201286316 0.4877040684223175
vn 0.9238795042037964 -0.38268351554870605 -6.620584258598683e-07
vn 0.6560814380645752 -0.2717578113079071 0.7040630578994751
vn 0.034054309129714966 0.2586681842803955 -0.9653658270835876
vn 0.06698711961507797 0.24999931454658508 -0.9659260511398315
vn 0.133504718542099 0.4982464611530304 -0.8566954135894775
vn 0.06775330752134323 0.5146375894546509 -0.8547266721725464
vn 0.2254868745803833 0.8415287733078003 -0.4909021556377411
vn 0.11395049095153809 0.8655399680137634 -0.48770463466644287
vn 0.258819043636322 0.9659258127212524 -4.451807740224467e-07
vn 0.13052618503570557 0.9914448857307434 -6.119024646977778e-07
vn 0.25791135430336 0.44671547412872314 -0.8566954135894775
vn 0.12940917909145355 0.22414323687553406 -0.9659260511398315
vn 0.4356072247028351 0.7544940114021301 -0.4909023344516754
vn 0.5 0.866025447845459 -2.630614233112283e-07
vn 0.3647417426109314 0.3647417426109314 -0.8566954135894775
vn 0.18301215767860413 0.18301217257976532 -0.9659260511398315
vn 0.6160417795181274 0.6160417199134827 -0.4909023940563202
vn 0.7071067690849304 0.7071067690849304 -3.7941552477605e-07
vn 0.44671568274497986 0.2579113841056824 -0.856695294380188
vn 0.2241431027650833 0.12940910458564758 -0.9659260511398315
vn 0.7544940114021301 0.43560731410980225 -0.4909021556377411
vn 0.866025447845459 0.5000000596046448 -5.918881242905627e-07
vn 0.49824655055999756 0.13350477814674377 -0.856695294380188
vn 0.24999922513961792 0.06698707491159439 -0.9659260511398315
vn 0.8415288925170898 0.22548699378967285 -0.4909020662307739
vn 0.9659258127212524 0.2588191032409668 -6.424767207136028e-07
vn 0.51582270860672 0.0 -0.856695294380188
vn 0.25881829857826233 0.0 -0.9659260511398315
vn 0.871214747428894 0.0 -0.4909021854400635
vn 1.0 0.0 -6.171825361889205e-07
vn 0.49824655055999756 -0.13350477814674377 -0.856695294380188
vn 0.24999922513961792 -0.06698707491159439 -0.9659260511398315
vn 0.8415288925170898 -0.22548699378967285 -0.4909021258354187
vn 0.9659258127212524 -0.2588191032409668 -6.42476663870184e-07
vn 0.4795657694339752 -0.19864262640476227 -0.8547267317771912
vn 0.24104022979736328 -0.0998421236872673 -0.9653658270835876
vn 0.8065549731254578 -0.33408600091934204 -0.48770445585250854
vn 0.9238795042037964 -0.38268351554870605 -6.620584258598683e-07
vt 0.5985405445098877 0.9895517826080322
vt 0.5985405445098877 0.8669114112854004
vt 0.7918257713317871 0.8669114112854004
vt 0.7918257713317871 0.9895517826080322
vt 0.9851106405258179 0.8669114112854004
vt 0.9851106405258179 0.9895517826080322
vt 0.7918257713317871 0.7442710399627686
vt 0.5985405445098877 0.7442710399627686
vt 0.9851106405258179 0.7442710399627686
vt 0.7918257713317871 0.6216306686401367
vt 0.5985405445098877 0.6216306686401367
vt 0.9851106405258179 0.6216306686401367
vt 0.7918257713317871 0.4989902973175049
vt 0.5985405445098877 0.4989902973175049
vt 0.9851106405258179 0.4989902973175049
vt 0.7918257713317871 0.37634992599487305
vt 0.5985405445098877 0.37634992599487305
vt 0.9851106405258179 0.37634992599487305
vt 0.7918257713317871 0.2537095546722412
vt 0.5985405445098877 0.2537095546722412
vt 0.9851106405258179 0.2537095546722412
vt 0.7918257713317871 0.13106918334960938
vt 0.5985405445098877 0.13106918334960938
vt 0.9851106405258179 0.13106918334960938
vt 0.7918257713317871 0.008428573608398438
vt 0.5985405445098877 0.008428573608398438
vt 0.9851106405258179 0.008428573608398438
vt 0.011658898554742336 0.9895517826080322
vt 0.011658898554742336 0.8669114112854004
vt 0.2049439549446106 0.8669114112854004
vt 0.2049439549446106 0.9895517826080322
vt 0.39822918176651 0.8669114112854004
vt 0.39822918176651 0.9895517826080322
vt 0.5915142297744751 0.8669114112854004
vt 0.5915142297744751 0.9895517826080322
vt 0.2049439549446106 0.7442710399627686
vt 0.011658898554742336 0.7442710399627686
vt 0.39822918176651 0.7442710399627686
vt 0.5915142297744751 0.7442710399627686
vt 0.2049439549446106 0.6216306686401367
vt 0.011658898554742336 0.6216306686401367
vt 0.39822918176651 0.6216306686401367
vt 0.5915142297744751 0.6216306686401367
vt 0.2049439549446106 0.4989902973175049
vt 0.011658898554742336 0.4989902973175049
vt 0.39822918176651 0.4989902973175049
vt 0.5915142297744751 0.4989902973175049
vt 0.2049439549446106 0.37634992599487305
vt 0.011658898554742336 0.37634992599487305
vt 0.39822918176651 0.37634992599487305
vt 0.5915142297744751 0.37634992599487305
vt 0.2049439549446106 0.2537095546722412
vt 0.011658898554742336 0.2537095546722412
vt 0.39822918176651 0.2537095546722412
vt 0.5915142297744751 0.2537095546722412
vt 0.2049439549446106 0.13106918334960938
vt 0.011658898554742336 0.13106918334960938
vt 0.39822918176651 0.13106918334960938
vt 0.5915142297744751 0.13106918334960938
vt 0.2049439549446106 0.008428573608398438
vt 0.011658898554742336 0.008428573608398438
vt 0.39822918176651 0.008428573608398438
vt 0.5915142297744751 0.008428573608398438

g Torus001
s 1
usemtl Torus001
f 3/3/3 2/2/2 1/1/1 
f 4/4/4 3/3/3 1/1/1 
f 5/5/5 3/3/3 4/4/4 
f 6/6/6 5/5/5 4/4/4 
f 3/3/3 7/7/7 2/2/2 
f 7/7/7 8/8/8 2/2/2 
f 9/9/9 7/7/7 3/3/3 
f 5/5/5 9/9/9 3/3/3 
f 7/7/7 10/10/10 8/8/8 
f 10/10/10 11/11/11 8/8/8 
f 12/12/12 10/10/10 7/7/7 
f 9/9/9 12/12/12 7/7/7 
f 10/10/10 13/13/13 11/11/11 
f 13/13/13 14/14/14 11/11/11 
f 15/15/15 13/13/13 10/10/10 
f 12/12/12 15/15/15 10/10/10 
f 13/13/13 16/16/16 14/14/14 
f 16/16/16 17/17/17 14/14/14 
f 18/18/18 16/16/16 13/13/13 
f 15/15/15 18/18/18 13/13/13 
f 16/16/16 19/19/19 17/17/17 
f 19/19/19 20/20/20 17/17/17 
f 21/21/21 19/19/19 16/16/16 
f 18/18/18 21/21/21 16/16/16 
f 19/19/19 22/22/22 20/20/20 
f 22/22/22 23/23/23 20/20/20 
f 24/24/24 22/22/22 19/19/19 
f 21/21/21 24/24/24 19/19/19 
f 22/22/22 25/25/25 23/23/23 
f 25/25/25 26/26/26 23/23/23 
f 27/27/27 25/25/25 22/22/22 
f 24/24/24 27/27/27 22/22/22 
f 30/30/30 29/29/29 28/28/28 
f 31/31/31 30/30/30 28/28/28 
f 32/32/32 30/30/30 31/31/31 
f 33/33/33 32/32/32 31/31/31 
f 34/34/34 32/32/32 33/33/33 
f 35/35/35 34/34/34 33/33/33 
f 30/30/30 36/36/36 29/29/29 
f 36/36/36 37/37/37 29/29/29 
f 38/38/38 36/36/36 30/30/30 
f 32/32/32 38/38/38 30/30/30 
f 39/39/39 38/38/38 32/32/32 
f 34/34/34 39/39/39 32/32/32 
f 36/36/36 40/40/40 37/37/37 
f 40/40/40 41/41/41 37/37/37 
f 42/42/42 40/40/40 36/36/36 
f 38/38/38 42/42/42 36/36/36 
f 43/43/43 42/42/42 38/38/38 
f 39/39/39 43/43/43 38/38/38 
f 40/40/40 44/44/44 41/41/41 
f 44/44/44 45/45/45 41/41/41 
f 46/46/46 44/44/44 40/40/40 
f 42/42/42 46/46/46 40/40/40 
f 47/47/47 46/46/46 42/42/42 
f 43/43/43 47/47/47 42/42/42 
f 44/44/44 48/48/48 45/45/45 
f 48/48/48 49/49/49 45/45/45 
f 50/50/50 48/48/48 44/44/44 
f 46/46/46 50/50/50 44/44/44 
f 51/51/51 50/50/50 46/46/46 
f 47/47/47 51/51/51 46/46/46 
f 48/48/48 52/52/52 49/49/49 
f 52/52/52 53/53/53 49/49/49 
f 54/54/54 52/52/52 48/48/48 
f 50/50/50 54/54/54 48/48/48 
f 55/55/55 54/54/54 50/50/50 
f 51/51/51 55/55/55 50/50/50 
f 52/52/52 56/56/56 53/53/53 
f 56/56/56 57/57/57 53/53/53 
f 58/58/58 56/56/56 52/52/52 
f 54/54/54 58/58/58 52/52/52 
f 59/59/59 58/58/58 54/54/54 
f 55/55/55 59/59/59 54/54/54 
f 56/56/56 60/60/60 57/57/57 
f 60/60/60 61/61/61 57/57/57 
f 62/62/62 60/60/60 56/56/56 
f 58/58/58 62/62/62 56/56/56 
f 63/63/63 62/62/62 58/58/58 
f 59/59/59 63/63/63 58/58/58 

