[
	{
		"ID": 1,
		"StoreID": "StoreId_BlackMarket",
		"Type": "StoreType_Random",
		"StoreName": "Black Market Store"
	},
	{
		"ID": 2,
		"StoreID": "StoreId_Crystal",
		"Type": "StoreType_Static",
		"StoreName": "Trinity Crystal Store"
	},
	{
		"ID": 3,
		"StoreID": "StoreId_Honor",
		"Type": "StoreType_Static",
		"StoreName": "Honor Store"
	},
	{
		"ID": 4,
		"StoreID": "StoreId_Friendship",
		"Type": "StoreType_Static",
		"StoreName": "Friendship Store"
	},
	{
		"ID": 5,
		"StoreID": "StoreId_SkinHero",
		"Type": "StoreType_Static",
		"StoreName": "Hero Skin Store"
	},
	{
		"ID": 6,
		"StoreID": "StoreId_SkinSoldier",
		"Type": "StoreType_Static",
		"StoreName": "Soldier Skin Store"
	},
	{
		"ID": 7,
		"StoreID": "StoreId_Gift",
		"Type": "StoreType_Gift",
		"StoreName": "Gift Pack Store"
	},
	{
		"ID": 8,
		"StoreID": "StoreId_Privilege",
		"Type": "StoreType_Gift",
		"StoreName": "Privilege Store"
	},
	{
		"ID": 9,
		"StoreID": "StoreId_Medal",
		"Type": "StoreType_Static",
		"StoreName": "Badge Store"
	},
	{
		"ID": 10,
		"StoreID": "StoreId_Union",
		"Type": "StoreType_Static",
		"StoreName": "Guild Store"
	},
	{
		"ID": 11,
		"StoreID": "StoreId_Recharge",
		"Type": "StoreType_Recharge",
		"StoreName": "Recharge Store"
	},
	{
		"ID": 12,
		"StoreID": "StoreId_Memory",
		"Type": "StoreType_Static",
		"StoreName": "Memory Store"
	},
	{
		"ID": 13,
		"StoreID": "StoreId_Equipment",
		"Type": "StoreType_Static",
		"StoreName": "Equipment Store"
	},
	{
		"ID": 14,
		"StoreID": "StoreId_GuildPerson",
		"Type": "StoreType_Static",
		"StoreName": "Guild Member Store"
	},
	{
		"ID": 15,
		"StoreID": "StoreId_UnchartedEquip",
		"Type": "StoreType_Static",
		"StoreName": "Secret Realm Equipment Store"
	},
	{
		"ID": 16,
		"StoreID": "StoreId_UnchartedSkin",
		"Type": "StoreType_Static",
		"StoreName": "Secret Realm Skin Store"
	}
]