[
	{
		"ID": 1,
		"WinConditionType": "BattleWinConditionType_KillActor",
		"Param1": [
			1008
		],
		"Param2": [
			0
		]
	},
	{
		"ID": 2,
		"WinConditionType": "BattleWinConditionType_ActorReachPosition",
		"Param1": [
			0
		],
		"Param2": [
			0
		]
	},
	{
		"ID": 3,
		"WinConditionType": "BattleWinConditionType_ActorNotDead",
		"Param1": [
			0
		],
		"Param2": [
			0
		]
	},
	{
		"ID": 4,
		"WinConditionType": "BattleWinConditionType_KillActor",
		"Param1": [
			1015
		],
		"Param2": [
			0
		]
	},
	{
		"ID": 5,
		"WinConditionType": "BattleWinConditionType_KillActor",
		"Param1": [
			1019
		],
		"Param2": [
			0
		]
	},
	{
		"ID": 6,
		"WinConditionType": "BattleWinConditionType_KillActor",
		"Param1": [
			1020
		],
		"Param2": [
			0
		]
	},
	{
		"ID": 7,
		"WinConditionType": "BattleWinConditionType_KillActor",
		"Param1": [
			10005
		],
		"Param2": [
			0
		]
	},
	{
		"ID": 8,
		"WinConditionType": "BattleWinConditionType_KillActor",
		"Param1": [
			1024
		],
		"Param2": [
			0
		]
	},
	{
		"ID": 9,
		"WinConditionType": "BattleWinConditionType_ActorReachPosition",
		"Param2": [
			1
		],
		"Param3": [
			{
				"X": 10,
				"Y": 5
			}
		]
	},
	{
		"ID": 10,
		"WinConditionType": "BattleWinConditionType_ActorReachPosition",
		"Param2": [
			1
		],
		"Param3": [
			{
				"X": 17,
				"Y": 5
			}
		]
	},
	{
		"ID": 11,
		"WinConditionType": "BattleWinConditionType_Turn",
		"Param2": [
			5
		]
	},
	{
		"ID": 12,
		"WinConditionType": "BattleWinConditionType_KillCount",
		"Param2": [
			2
		]
	},
	{
		"ID": 13,
		"WinConditionType": "BattleWinConditionType_KillCount",
		"Param2": [
			3
		]
	},
	{
		"ID": 14,
		"WinConditionType": "BattleWinConditionType_Turn",
		"Param2": [
			5
		]
	},
	{
		"ID": 15,
		"WinConditionType": "BattleWinConditionType_KillActor",
		"Param1": [
			211
		],
		"Param2": [
			0
		]
	},
	{
		"ID": 16,
		"WinConditionType": "BattleWinConditionType_KillActor",
		"Param1": [
			212
		],
		"Param2": [
			0
		]
	},
	{
		"ID": 17,
		"WinConditionType": "BattleWinConditionType_Turn",
		"Param2": [
			8
		]
	},
	{
		"ID": 18,
		"WinConditionType": "BattleWinConditionType_KillActor",
		"Param1": [
			300
		],
		"Param2": [
			0
		]
	},
	{
		"ID": 19,
		"WinConditionType": "BattleWinConditionType_KillActor",
		"Param1": [
			310
		],
		"Param2": [
			0
		]
	},
	{
		"ID": 20,
		"WinConditionType": "BattleWinConditionType_KillActor",
		"Param1": [
			311
		],
		"Param2": [
			0
		]
	},
	{
		"ID": 21,
		"WinConditionType": "BattleWinConditionType_KillActor",
		"Param1": [
			314
		],
		"Param2": [
			0
		]
	},
	{
		"ID": 22,
		"WinConditionType": "BattleWinConditionType_KillActor",
		"Param1": [
			315
		],
		"Param2": [
			0
		]
	},
	{
		"ID": 23,
		"WinConditionType": "BattleWinConditionType_KillActor",
		"Param1": [
			316
		],
		"Param2": [
			0
		]
	},
	{
		"ID": 24,
		"WinConditionType": "BattleWinConditionType_Turn",
		"Param2": [
			5
		]
	},
	{
		"ID": 25,
		"WinConditionType": "BattleWinConditionType_ActorReachPosition",
		"Param2": [
			2
		],
		"Param3": [
			{
				"X": 12,
				"Y": 3
			},
			{
				"X": 12,
				"Y": 4
			},
			{
				"X": 13,
				"Y": 3
			},
			{
				"X": 13,
				"Y": 4
			},
			{
				"X": 14,
				"Y": 3
			},
			{
				"X": 14,
				"Y": 4
			}
		]
	},
	{
		"ID": 26,
		"WinConditionType": "BattleWinConditionType_KillOthers",
		"Param1": [
			203
		]
	},
	{
		"ID": 27,
		"WinConditionType": "BattleWinConditionType_ActorHpLess",
		"Param1": [
			205
		],
		"Param2": [
			5000
		]
	},
	{
		"ID": 28,
		"WinConditionType": "BattleWinConditionType_ActorReachPosition",
		"Param1": [
			1506
		],
		"Param3": [
			{
				"X": 6,
				"Y": 0
			},
			{
				"X": 7,
				"Y": 0
			},
			{
				"X": 8,
				"Y": 0
			}
		]
	},
	{
		"ID": 29,
		"WinConditionType": "BattleWinConditionType_KillActor",
		"Param1": [
			221
		]
	},
	{
		"ID": 30,
		"WinConditionType": "BattleWinConditionType_ActorReachPosition",
		"Param2": [
			1
		],
		"Param3": [
			{
				"X": 4,
				"Y": 12
			},
			{
				"X": 5,
				"Y": 12
			}
		]
	},
	{
		"ID": 31,
		"WinConditionType": "BattleWinConditionType_KillActor",
		"Param1": [
			224
		]
	},
	{
		"ID": 32,
		"WinConditionType": "BattleWinConditionType_Turn",
		"Param2": [
			6
		]
	},
	{
		"ID": 33,
		"WinConditionType": "BattleWinConditionType_KillActor",
		"Param1": [
			229
		]
	},
	{
		"ID": 34,
		"WinConditionType": "BattleWinConditionType_KillCount",
		"Param1": [
			7503
		],
		"Param2": [
			3
		]
	},
	{
		"ID": 35,
		"WinConditionType": "BattleWinConditionType_KillCount",
		"Param2": [
			9
		]
	},
	{
		"ID": 36,
		"WinConditionType": "BattleWinConditionType_KillActor",
		"Param1": [
			209
		]
	},
	{
		"ID": 37,
		"WinConditionType": "BattleWinConditionType_KillOthers",
		"Param1": [
			214
		]
	},
	{
		"ID": 38,
		"WinConditionType": "BattleWinConditionType_KillActor",
		"Param1": [
			216
		]
	},
	{
		"ID": 39,
		"WinConditionType": "BattleWinConditionType_KillActor",
		"Param1": [
			261
		]
	},
	{
		"ID": 40,
		"WinConditionType": "BattleWinConditionType_KillCount",
		"Param1": [
			217
		],
		"Param2": [
			4
		]
	},
	{
		"ID": 41,
		"WinConditionType": "BattleWinConditionType_KillActor",
		"Param1": [
			241
		]
	},
	{
		"ID": 42,
		"WinConditionType": "BattleWinConditionType_KillActor",
		"Param1": [
			248
		]
	},
	{
		"ID": 43,
		"WinConditionType": "BattleWinConditionType_KillActor",
		"Param1": [
			258
		]
	},
	{
		"ID": 44,
		"WinConditionType": "BattleWinConditionType_KillActor",
		"Param1": [
			259
		]
	},
	{
		"ID": 45,
		"WinConditionType": "BattleWinConditionType_KillActor",
		"Param1": [
			218
		]
	},
	{
		"ID": 46,
		"WinConditionType": "BattleWinConditionType_KillActor",
		"Param1": [
			244
		]
	},
	{
		"ID": 47,
		"WinConditionType": "BattleWinConditionType_KillOthers",
		"Param1": [
			385
		]
	},
	{
		"ID": 48,
		"WinConditionType": "BattleWinConditionType_KillActor",
		"Param1": [
			396
		]
	},
	{
		"ID": 49,
		"WinConditionType": "BattleWinConditionType_KillActor",
		"Param1": [
			395
		]
	},
	{
		"ID": 50,
		"WinConditionType": "BattleWinConditionType_KillOthers",
		"Param1": [
			400
		]
	},
	{
		"ID": 51,
		"WinConditionType": "BattleWinConditionType_KillOthers",
		"Param1": [
			1045
		]
	},
	{
		"ID": 52,
		"WinConditionType": "BattleWinConditionType_ActorReachPosition",
		"Param2": [
			3
		],
		"Param3": [
			{
				"X": 16,
				"Y": 3
			},
			{
				"X": 16,
				"Y": 4
			}
		]
	},
	{
		"ID": 53,
		"WinConditionType": "BattleWinConditionType_KillActor",
		"Param1": [
			912
		]
	},
	{
		"ID": 54,
		"WinConditionType": "BattleWinConditionType_KillActor",
		"Param1": [
			7514
		]
	},
	{
		"ID": 55,
		"WinConditionType": "BattleWinConditionType_KillCount",
		"Param2": [
			9
		]
	},
	{
		"ID": 56,
		"WinConditionType": "BattleWinConditionType_KillActor",
		"Param1": [
			800
		]
	},
	{
		"ID": 57,
		"WinConditionType": "BattleWinConditionType_KillActor",
		"Param1": [
			834
		]
	},
	{
		"ID": 58,
		"WinConditionType": "BattleWinConditionType_KillActor",
		"Param1": [
			872
		]
	},
	{
		"ID": 59,
		"WinConditionType": "BattleWinConditionType_KillActor",
		"Param1": [
			803
		]
	},
	{
		"ID": 60,
		"WinConditionType": "BattleWinConditionType_KillActor",
		"Param1": [
			837
		]
	},
	{
		"ID": 61,
		"WinConditionType": "BattleWinConditionType_KillActor",
		"Param1": [
			875
		]
	},
	{
		"ID": 62,
		"WinConditionType": "BattleWinConditionType_KillActor",
		"Param1": [
			806
		]
	},
	{
		"ID": 63,
		"WinConditionType": "BattleWinConditionType_KillActor",
		"Param1": [
			842
		]
	},
	{
		"ID": 64,
		"WinConditionType": "BattleWinConditionType_KillActor",
		"Param1": [
			879
		]
	},
	{
		"ID": 65,
		"WinConditionType": "BattleWinConditionType_KillActor",
		"Param1": [
			809
		]
	},
	{
		"ID": 66,
		"WinConditionType": "BattleWinConditionType_KillActor",
		"Param1": [
			843
		]
	},
	{
		"ID": 67,
		"WinConditionType": "BattleWinConditionType_KillActor",
		"Param1": [
			881
		]
	},
	{
		"ID": 68,
		"WinConditionType": "BattleWinConditionType_KillActor",
		"Param1": [
			812
		]
	},
	{
		"ID": 69,
		"WinConditionType": "BattleWinConditionType_KillActor",
		"Param1": [
			844
		]
	},
	{
		"ID": 70,
		"WinConditionType": "BattleWinConditionType_KillActor",
		"Param1": [
			883
		]
	},
	{
		"ID": 71,
		"WinConditionType": "BattleWinConditionType_KillActor",
		"Param1": [
			815
		]
	},
	{
		"ID": 72,
		"WinConditionType": "BattleWinConditionType_KillActor",
		"Param1": [
			846
		]
	},
	{
		"ID": 73,
		"WinConditionType": "BattleWinConditionType_KillActor",
		"Param1": [
			886
		]
	},
	{
		"ID": 74,
		"WinConditionType": "BattleWinConditionType_KillActor",
		"Param1": [
			818
		]
	},
	{
		"ID": 75,
		"WinConditionType": "BattleWinConditionType_KillActor",
		"Param1": [
			849
		]
	},
	{
		"ID": 76,
		"WinConditionType": "BattleWinConditionType_KillActor",
		"Param1": [
			888
		]
	},
	{
		"ID": 77,
		"WinConditionType": "BattleWinConditionType_KillCount",
		"Param2": [
			13
		]
	},
	{
		"ID": 78,
		"WinConditionType": "BattleWinConditionType_KillActor",
		"Param1": [
			447
		]
	},
	{
		"ID": 79,
		"WinConditionType": "BattleWinConditionType_KillOthers",
		"Param1": [
			3506
		]
	},
	{
		"ID": 80,
		"WinConditionType": "BattleWinConditionType_ActorReachPosition",
		"Param1": [
			1546
		],
		"Param3": [
			{
				"X": 8,
				"Y": 19
			},
			{
				"X": 9,
				"Y": 19
			},
			{
				"X": 10,
				"Y": 19
			}
		]
	},
	{
		"ID": 81,
		"WinConditionType": "BattleWinConditionType_ActorReachPosition",
		"Param1": [
			1547
		],
		"Param3": [
			{
				"X": 8,
				"Y": 19
			},
			{
				"X": 9,
				"Y": 19
			},
			{
				"X": 10,
				"Y": 19
			}
		]
	},
	{
		"ID": 82,
		"WinConditionType": "BattleWinConditionType_ActorReachPosition",
		"Param1": [
			1548
		],
		"Param3": [
			{
				"X": 8,
				"Y": 19
			},
			{
				"X": 9,
				"Y": 19
			},
			{
				"X": 10,
				"Y": 19
			}
		]
	},
	{
		"ID": 83,
		"WinConditionType": "BattleWinConditionType_ActorReachPosition",
		"Param1": [
			1601
		],
		"Param3": [
			{
				"X": 8,
				"Y": 19
			},
			{
				"X": 9,
				"Y": 19
			},
			{
				"X": 10,
				"Y": 19
			}
		]
	},
	{
		"ID": 84,
		"WinConditionType": "BattleWinConditionType_KillCount",
		"Param2": [
			13
		]
	},
	{
		"ID": 85,
		"WinConditionType": "BattleWinConditionType_KillActor",
		"Param1": [
			1172
		]
	},
	{
		"ID": 86,
		"WinConditionType": "BattleWinConditionType_KillActor",
		"Param1": [
			1176
		]
	},
	{
		"ID": 87,
		"WinConditionType": "BattleWinConditionType_KillActor",
		"Param1": [
			1181
		]
	},
	{
		"ID": 88,
		"WinConditionType": "BattleWinConditionType_KillActor",
		"Param1": [
			1188
		]
	},
	{
		"ID": 89,
		"WinConditionType": "BattleWinConditionType_ActorReachPosition",
		"Param1": [
			1364
		],
		"Param3": [
			{
				"X": 8,
				"Y": 19
			},
			{
				"X": 9,
				"Y": 19
			},
			{
				"X": 10,
				"Y": 19
			}
		]
	},
	{
		"ID": 90,
		"WinConditionType": "BattleWinConditionType_ActorReachPosition",
		"Param1": [
			1365
		],
		"Param3": [
			{
				"X": 8,
				"Y": 19
			},
			{
				"X": 9,
				"Y": 19
			},
			{
				"X": 10,
				"Y": 19
			}
		]
	},
	{
		"ID": 91,
		"WinConditionType": "BattleWinConditionType_ActorReachPosition",
		"Param1": [
			1366
		],
		"Param3": [
			{
				"X": 8,
				"Y": 19
			},
			{
				"X": 9,
				"Y": 19
			},
			{
				"X": 10,
				"Y": 19
			}
		]
	},
	{
		"ID": 92,
		"WinConditionType": "BattleWinConditionType_KillActor",
		"Param1": [
			1396
		]
	},
	{
		"ID": 93,
		"WinConditionType": "BattleWinConditionType_KillOthers",
		"Param1": [
			1392
		]
	},
	{
		"ID": 94,
		"WinConditionType": "BattleWinConditionType_KillCount",
		"Param2": [
			10
		]
	},
	{
		"ID": 95,
		"WinConditionType": "BattleWinConditionType_KillActor",
		"Param1": [
			643
		]
	},
	{
		"ID": 96,
		"WinConditionType": "BattleWinConditionType_KillCount",
		"Param2": [
			18
		]
	},
	{
		"ID": 97,
		"WinConditionType": "BattleWinConditionType_KillActor",
		"Param1": [
			2215
		]
	},
	{
		"ID": 98,
		"WinConditionType": "BattleWinConditionType_KillCount",
		"Param2": [
			29
		]
	},
	{
		"ID": 99,
		"WinConditionType": "BattleWinConditionType_Turn",
		"Param2": [
			10
		]
	},
	{
		"ID": 100,
		"WinConditionType": "BattleWinConditionType_EventTrigger",
		"Param1": [
			3631
		]
	},
	{
		"ID": 101,
		"WinConditionType": "BattleWinConditionType_EventTrigger",
		"Param1": [
			3651
		]
	},
	{
		"ID": 102,
		"WinConditionType": "BattleWinConditionType_Turn",
		"Param2": [
			8
		]
	},
	{
		"ID": 103,
		"WinConditionType": "BattleWinConditionType_KillActor",
		"Param1": [
			404
		]
	},
	{
		"ID": 115,
		"WinConditionType": "BattleWinConditionType_KillActor",
		"Param1": [
			409
		]
	},
	{
		"ID": 121,
		"WinConditionType": "BattleWinConditionType_ActorReachPosition",
		"Param1": [
			1505
		],
		"Param2": [
			3
		],
		"Param3": [
			{
				"X": 15,
				"Y": 3
			},
			{
				"X": 16,
				"Y": 3
			}
		]
	},
	{
		"ID": 129,
		"WinConditionType": "BattleWinConditionType_KillCount",
		"Param2": [
			10
		]
	},
	{
		"ID": 136,
		"WinConditionType": "BattleWinConditionType_KillActor",
		"Param1": [
			406
		]
	},
	{
		"ID": 141,
		"WinConditionType": "BattleWinConditionType_KillCount",
		"Param2": [
			16
		]
	},
	{
		"ID": 143,
		"WinConditionType": "BattleWinConditionType_KillCount",
		"Param2": [
			21
		]
	},
	{
		"ID": 144,
		"WinConditionType": "BattleWinConditionType_KillActor",
		"Param1": [
			2803
		]
	},
	{
		"ID": 145,
		"WinConditionType": "BattleWinConditionType_EventTrigger",
		"Param1": [
			1005
		]
	},
	{
		"ID": 345,
		"WinConditionType": "BattleWinConditionType_ActorReachPosition",
		"Param2": [
			2
		],
		"Param3": [
			{
				"X": 0,
				"Y": 0
			}
		]
	},
	{
		"ID": 378,
		"WinConditionType": "BattleWinConditionType_KillActor",
		"Param1": [
			2804
		]
	},
	{
		"ID": 380,
		"WinConditionType": "BattleWinConditionType_KillCount",
		"Param2": [
			15
		]
	},
	{
		"ID": 518,
		"WinConditionType": "BattleWinConditionType_KillActor",
		"Param1": [
			350
		],
		"Param2": [
			0
		]
	},
	{
		"ID": 519,
		"WinConditionType": "BattleWinConditionType_KillActor",
		"Param1": [
			360
		],
		"Param2": [
			0
		]
	},
	{
		"ID": 521,
		"WinConditionType": "BattleWinConditionType_KillActor",
		"Param1": [
			364
		],
		"Param2": [
			0
		]
	},
	{
		"ID": 801,
		"WinConditionType": "BattleWinConditionType_ActorHpLess",
		"Param1": [
			2472
		],
		"Param2": [
			1000
		]
	},
	{
		"ID": 998,
		"WinConditionType": "BattleWinConditionType_KillCount",
		"Param2": [
			25
		]
	},
	{
		"ID": 999,
		"WinConditionType": "BattleWinConditionType_KillAll"
	},
	{
		"ID": 1000,
		"WinConditionType": "BattleWinConditionType_KillCount",
		"Param2": [
			2
		]
	},
	{
		"ID": 1001,
		"WinConditionType": "BattleWinConditionType_ActorReachPosition",
		"Param1": [
			1536
		],
		"Param3": [
			{
				"X": 8,
				"Y": 0
			}
		]
	},
	{
		"ID": 1002,
		"WinConditionType": "BattleWinConditionType_ActorReachPosition",
		"Param1": [
			1540
		],
		"Param3": [
			{
				"X": 6,
				"Y": 0
			},
			{
				"X": 7,
				"Y": 0
			},
			{
				"X": 8,
				"Y": 0
			}
		]
	},
	{
		"ID": 1003,
		"WinConditionType": "BattleWinConditionType_KillActor",
		"Param1": [
			322
		]
	},
	{
		"ID": 1004,
		"WinConditionType": "BattleWinConditionType_ActorReachPosition",
		"Param1": [
			1541
		],
		"Param3": [
			{
				"X": 8,
				"Y": 1
			}
		]
	},
	{
		"ID": 1005,
		"WinConditionType": "BattleWinConditionType_KillOthers",
		"Param1": [
			325
		]
	},
	{
		"ID": 1006,
		"WinConditionType": "BattleWinConditionType_KillActor",
		"Param1": [
			326
		]
	},
	{
		"ID": 1007,
		"WinConditionType": "BattleWinConditionType_ActorReachPosition",
		"Param1": [
			1542
		],
		"Param3": [
			{
				"X": 8,
				"Y": 1
			}
		]
	},
	{
		"ID": 1008,
		"WinConditionType": "BattleWinConditionType_KillOthers",
		"Param1": [
			423
		]
	},
	{
		"ID": 1009,
		"WinConditionType": "BattleWinConditionType_KillActor",
		"Param1": [
			430
		]
	},
	{
		"ID": 1010,
		"WinConditionType": "BattleWinConditionType_KillActor",
		"Param1": [
			434
		]
	},
	{
		"ID": 1011,
		"WinConditionType": "BattleWinConditionType_KillActor",
		"Param1": [
			438
		]
	},
	{
		"ID": 1012,
		"WinConditionType": "BattleWinConditionType_KillActor",
		"Param1": [
			447
		]
	},
	{
		"ID": 1013,
		"WinConditionType": "BattleWinConditionType_KillActor",
		"Param1": [
			324
		]
	},
	{
		"ID": 1014,
		"WinConditionType": "BattleWinConditionType_ActorReachPosition",
		"Param1": [
			1380
		],
		"Param3": [
			{
				"X": 6,
				"Y": 0
			},
			{
				"X": 7,
				"Y": 0
			}
		]
	},
	{
		"ID": 1015,
		"WinConditionType": "BattleWinConditionType_KillActor",
		"Param1": [
			1714
		]
	},
	{
		"ID": 1016,
		"WinConditionType": "BattleWinConditionType_KillOthers",
		"Param1": [
			1719,
			1787
		]
	},
	{
		"ID": 1055,
		"WinConditionType": "BattleWinConditionType_KillActor",
		"Param1": [
			1726
		]
	},
	{
		"ID": 1056,
		"WinConditionType": "BattleWinConditionType_ActorReachPosition",
		"Param1": [
			1917
		],
		"Param2": [
			4
		],
		"Param3": [
			{
				"X": 8,
				"Y": 7
			},
			{
				"X": 8,
				"Y": 8
			},
			{
				"X": 9,
				"Y": 7
			},
			{
				"X": 9,
				"Y": 8
			}
		]
	},
	{
		"ID": 1057,
		"WinConditionType": "BattleWinConditionType_ActorReachPosition",
		"Param1": [
			1963
		],
		"Param3": [
			{
				"X": 7,
				"Y": 20
			},
			{
				"X": 8,
				"Y": 20
			}
		]
	},
	{
		"ID": 1291,
		"WinConditionType": "BattleWinConditionType_ActorReachPosition",
		"Param1": [
			3906
		],
		"Param3": [
			{
				"X": 17,
				"Y": 0
			},
			{
				"X": 18,
				"Y": 0
			},
			{
				"X": 19,
				"Y": 0
			},
			{
				"X": 17,
				"Y": 1
			},
			{
				"X": 18,
				"Y": 1
			},
			{
				"X": 19,
				"Y": 1
			},
			{
				"X": 17,
				"Y": 2
			},
			{
				"X": 18,
				"Y": 2
			},
			{
				"X": 19,
				"Y": 2
			}
		]
	},
	{
		"ID": 1292,
		"WinConditionType": "BattleWinConditionType_ActorReachPosition",
		"Param1": [
			3907
		],
		"Param3": [
			{
				"X": 17,
				"Y": 0
			},
			{
				"X": 18,
				"Y": 0
			},
			{
				"X": 19,
				"Y": 0
			},
			{
				"X": 17,
				"Y": 1
			},
			{
				"X": 18,
				"Y": 1
			},
			{
				"X": 19,
				"Y": 1
			},
			{
				"X": 17,
				"Y": 2
			},
			{
				"X": 18,
				"Y": 2
			},
			{
				"X": 19,
				"Y": 2
			}
		]
	},
	{
		"ID": 1471,
		"WinConditionType": "BattleWinConditionType_KillCount",
		"Param2": [
			17
		]
	},
	{
		"ID": 1501,
		"WinConditionType": "BattleWinConditionType_ActorReachPosition",
		"Param1": [
			1586
		],
		"Param3": [
			{
				"X": 8,
				"Y": 0
			}
		]
	},
	{
		"ID": 1502,
		"WinConditionType": "BattleWinConditionType_ActorReachPosition",
		"Param1": [
			1590
		],
		"Param3": [
			{
				"X": 6,
				"Y": 0
			},
			{
				"X": 7,
				"Y": 0
			},
			{
				"X": 8,
				"Y": 0
			}
		]
	},
	{
		"ID": 1504,
		"WinConditionType": "BattleWinConditionType_ActorReachPosition",
		"Param1": [
			1591
		],
		"Param3": [
			{
				"X": 8,
				"Y": 1
			}
		]
	},
	{
		"ID": 1505,
		"WinConditionType": "BattleWinConditionType_KillOthers",
		"Param1": [
			375
		]
	},
	{
		"ID": 1506,
		"WinConditionType": "BattleWinConditionType_KillActor",
		"Param1": [
			376
		]
	},
	{
		"ID": 1507,
		"WinConditionType": "BattleWinConditionType_ActorReachPosition",
		"Param1": [
			1592
		],
		"Param3": [
			{
				"X": 8,
				"Y": 1
			}
		]
	},
	{
		"ID": 1508,
		"WinConditionType": "BattleWinConditionType_KillActor",
		"Param1": [
			374
		]
	},
	{
		"ID": 1509,
		"WinConditionType": "BattleWinConditionType_KillActor",
		"Param1": [
			355
		]
	},
	{
		"ID": 1510,
		"WinConditionType": "BattleWinConditionType_KillActor",
		"Param1": [
			357
		]
	},
	{
		"ID": 1511,
		"WinConditionType": "BattleWinConditionType_KillActor",
		"Param1": [
			358
		]
	},
	{
		"ID": 1512,
		"WinConditionType": "BattleWinConditionType_KillOthers",
		"Param1": [
			1579
		]
	},
	{
		"ID": 1514,
		"WinConditionType": "BattleWinConditionType_ActorReachPosition",
		"Param1": [
			1610
		],
		"Param3": [
			{
				"X": 6,
				"Y": 0
			},
			{
				"X": 7,
				"Y": 0
			}
		]
	},
	{
		"ID": 1515,
		"WinConditionType": "BattleWinConditionType_KillActor",
		"Param1": [
			1733
		]
	},
	{
		"ID": 1516,
		"WinConditionType": "BattleWinConditionType_KillOthers",
		"Param1": [
			1739,
			1788
		]
	},
	{
		"ID": 1555,
		"WinConditionType": "BattleWinConditionType_KillActor",
		"Param1": [
			1746
		]
	},
	{
		"ID": 1556,
		"WinConditionType": "BattleWinConditionType_ActorReachPosition",
		"Param1": [
			1931
		],
		"Param2": [
			4
		],
		"Param3": [
			{
				"X": 8,
				"Y": 7
			},
			{
				"X": 8,
				"Y": 8
			},
			{
				"X": 9,
				"Y": 7
			},
			{
				"X": 9,
				"Y": 8
			}
		]
	},
	{
		"ID": 1557,
		"WinConditionType": "BattleWinConditionType_ActorReachPosition",
		"Param1": [
			1964
		],
		"Param3": [
			{
				"X": 7,
				"Y": 20
			},
			{
				"X": 8,
				"Y": 20
			}
		]
	},
	{
		"ID": 2000,
		"WinConditionType": "BattleWinConditionType_Turn",
		"Param2": [
			6
		]
	},
	{
		"ID": 2100,
		"WinConditionType": "BattleWinConditionType_ActorReachPosition",
		"Param2": [
			1
		],
		"Param3": [
			{
				"X": 13,
				"Y": 13
			}
		]
	},
	{
		"ID": 2101,
		"WinConditionType": "BattleWinConditionType_KillCount",
		"Param2": [
			7
		]
	},
	{
		"ID": 2140,
		"WinConditionType": "BattleWinConditionType_ActorReachPosition",
		"Param2": [
			1
		],
		"Param3": [
			{
				"X": 18,
				"Y": 12
			}
		]
	},
	{
		"ID": 2141,
		"WinConditionType": "BattleWinConditionType_KillCount",
		"Param2": [
			13
		]
	},
	{
		"ID": 2170,
		"WinConditionType": "BattleWinConditionType_ActorReachPosition",
		"Param2": [
			1
		],
		"Param3": [
			{
				"X": 13,
				"Y": 1
			}
		]
	},
	{
		"ID": 2171,
		"WinConditionType": "BattleWinConditionType_KillCount",
		"Param2": [
			8
		]
	},
	{
		"ID": 2200,
		"WinConditionType": "BattleWinConditionType_ActorReachPosition",
		"Param2": [
			1
		],
		"Param3": [
			{
				"X": 6,
				"Y": 2
			}
		]
	},
	{
		"ID": 2201,
		"WinConditionType": "BattleWinConditionType_KillCount",
		"Param2": [
			8
		]
	},
	{
		"ID": 2220,
		"WinConditionType": "BattleWinConditionType_ActorReachPosition",
		"Param2": [
			1
		],
		"Param3": [
			{
				"X": 14,
				"Y": 1
			}
		]
	},
	{
		"ID": 2221,
		"WinConditionType": "BattleWinConditionType_KillCount",
		"Param2": [
			8
		]
	},
	{
		"ID": 2360,
		"WinConditionType": "BattleWinConditionType_KillCount",
		"Param2": [
			8
		]
	},
	{
		"ID": 2480,
		"WinConditionType": "BattleWinConditionType_ActorReachPosition",
		"Param1": [
			1546
		],
		"Param2": [
			3
		],
		"Param3": [
			{
				"X": 8,
				"Y": 0
			},
			{
				"X": 9,
				"Y": 0
			},
			{
				"X": 10,
				"Y": 0
			},
			{
				"X": 8,
				"Y": 1
			},
			{
				"X": 9,
				"Y": 1
			},
			{
				"X": 10,
				"Y": 1
			}
		]
	},
	{
		"ID": 2490,
		"WinConditionType": "BattleWinConditionType_ActorReachPosition",
		"Param1": [
			1547
		],
		"Param2": [
			3
		],
		"Param3": [
			{
				"X": 8,
				"Y": 0
			},
			{
				"X": 9,
				"Y": 0
			},
			{
				"X": 10,
				"Y": 0
			},
			{
				"X": 8,
				"Y": 1
			},
			{
				"X": 9,
				"Y": 1
			},
			{
				"X": 10,
				"Y": 1
			}
		]
	},
	{
		"ID": 2500,
		"WinConditionType": "BattleWinConditionType_ActorReachPosition",
		"Param1": [
			1552
		],
		"Param2": [
			3
		],
		"Param3": [
			{
				"X": 8,
				"Y": 0
			},
			{
				"X": 9,
				"Y": 0
			},
			{
				"X": 10,
				"Y": 0
			},
			{
				"X": 8,
				"Y": 1
			},
			{
				"X": 9,
				"Y": 1
			},
			{
				"X": 10,
				"Y": 1
			}
		]
	},
	{
		"ID": 2530,
		"WinConditionType": "BattleWinConditionType_ActorReachPosition",
		"Param1": [
			1555
		],
		"Param2": [
			3
		],
		"Param3": [
			{
				"X": 12,
				"Y": 0
			},
			{
				"X": 13,
				"Y": 0
			},
			{
				"X": 14,
				"Y": 0
			},
			{
				"X": 12,
				"Y": 1
			},
			{
				"X": 13,
				"Y": 1
			},
			{
				"X": 14,
				"Y": 1
			}
		]
	},
	{
		"ID": 2531,
		"WinConditionType": "BattleWinConditionType_ActorReachPosition",
		"Param1": [
			5517
		],
		"Param2": [
			3
		],
		"Param3": [
			{
				"X": 12,
				"Y": 0
			},
			{
				"X": 13,
				"Y": 0
			},
			{
				"X": 14,
				"Y": 0
			},
			{
				"X": 12,
				"Y": 1
			},
			{
				"X": 13,
				"Y": 1
			},
			{
				"X": 14,
				"Y": 1
			}
		]
	},
	{
		"ID": 2800,
		"WinConditionType": "BattleWinConditionType_KillCount",
		"Param2": [
			9
		]
	},
	{
		"ID": 2820,
		"WinConditionType": "BattleWinConditionType_KillActor",
		"Param1": [
			1187
		]
	},
	{
		"ID": 2830,
		"WinConditionType": "BattleWinConditionType_KillCount",
		"Param2": [
			10
		]
	},
	{
		"ID": 2850,
		"WinConditionType": "BattleWinConditionType_KillCount",
		"Param2": [
			7
		]
	},
	{
		"ID": 2860,
		"WinConditionType": "BattleWinConditionType_KillCount",
		"Param1": [
			5008
		],
		"Param2": [
			10
		]
	},
	{
		"ID": 2861,
		"WinConditionType": "BattleWinConditionType_KillActor",
		"Param1": [
			2506
		]
	},
	{
		"ID": 3101,
		"WinConditionType": "BattleWinConditionType_KillActor",
		"Param1": [
			2785
		]
	},
	{
		"ID": 3102,
		"WinConditionType": "BattleWinConditionType_ActorReachPosition",
		"Param1": [
			30
		],
		"Param3": [
			{
				"X": 3,
				"Y": 14
			},
			{
				"X": 4,
				"Y": 14
			},
			{
				"X": 14,
				"Y": 14
			},
			{
				"X": 15,
				"Y": 14
			}
		]
	},
	{
		"ID": 3103,
		"WinConditionType": "BattleWinConditionType_KillCount",
		"Param2": [
			7
		]
	},
	{
		"ID": 3104,
		"WinConditionType": "BattleWinConditionType_EventTrigger",
		"Param1": [
			500068
		]
	},
	{
		"ID": 3105,
		"WinConditionType": "BattleWinConditionType_KillActor",
		"Param1": [
			9000
		]
	},
	{
		"ID": 3106,
		"WinConditionType": "BattleWinConditionType_KillActor",
		"Param1": [
			9012
		]
	},
	{
		"ID": 3107,
		"WinConditionType": "BattleWinConditionType_KillActor",
		"Param1": [
			9023
		]
	},
	{
		"ID": 3108,
		"WinConditionType": "BattleWinConditionType_KillActor",
		"Param1": [
			9035
		]
	},
	{
		"ID": 3109,
		"WinConditionType": "BattleWinConditionType_ActorReachPosition",
		"Param1": [
			9247
		],
		"Param3": [
			{
				"X": 0,
				"Y": 0
			}
		]
	},
	{
		"ID": 3110,
		"WinConditionType": "BattleWinConditionType_KillActor",
		"Param1": [
			9253
		]
	},
	{
		"ID": 3111,
		"WinConditionType": "BattleWinConditionType_EventTrigger",
		"Param1": [
			500712
		]
	},
	{
		"ID": 3112,
		"WinConditionType": "BattleWinConditionType_EventTrigger",
		"Param1": [
			500811
		]
	},
	{
		"ID": 3113,
		"WinConditionType": "BattleWinConditionType_KillActor",
		"Param1": [
			9370
		]
	},
	{
		"ID": 3114,
		"WinConditionType": "BattleWinConditionType_ActorReachPosition",
		"Param1": [
			81
		],
		"Param3": [
			{
				"X": 9,
				"Y": 3
			}
		]
	},
	{
		"ID": 3115,
		"WinConditionType": "BattleWinConditionType_KillActor",
		"Param1": [
			9498
		]
	},
	{
		"ID": 6015,
		"WinConditionType": "BattleWinConditionType_KillActor",
		"Param1": [
			630
		]
	},
	{
		"ID": 6017,
		"WinConditionType": "BattleWinConditionType_KillActor",
		"Param1": [
			636
		]
	},
	{
		"ID": 6019,
		"WinConditionType": "BattleWinConditionType_KillActor",
		"Param1": [
			643
		]
	},
	{
		"ID": 6703,
		"WinConditionType": "BattleWinConditionType_KillActor",
		"Param1": [
			9150
		]
	},
	{
		"ID": 6704,
		"WinConditionType": "BattleWinConditionType_KillActor",
		"Param1": [
			9157
		]
	},
	{
		"ID": 6705,
		"WinConditionType": "BattleWinConditionType_KillActor",
		"Param1": [
			643
		]
	},
	{
		"ID": 6601,
		"WinConditionType": "BattleWinConditionType_KillCount",
		"Param2": [
			10
		]
	},
	{
		"ID": 6660,
		"WinConditionType": "BattleWinConditionType_ActorReachPosition",
		"Param1": [
			2492
		],
		"Param2": [
			4,
			1
		],
		"Param3": [
			{
				"X": 9,
				"Y": 15
			}
		]
	},
	{
		"ID": 6801,
		"WinConditionType": "BattleWinConditionType_KillCount",
		"Param2": [
			11
		]
	},
	{
		"ID": 6811,
		"WinConditionType": "BattleWinConditionType_KillActor",
		"Param1": [
			2619
		]
	},
	{
		"ID": 6812,
		"WinConditionType": "BattleWinConditionType_KillCount",
		"Param2": [
			7
		]
	},
	{
		"ID": 6813,
		"WinConditionType": "BattleWinConditionType_KillActor",
		"Param1": [
			2603
		]
	},
	{
		"ID": 6821,
		"WinConditionType": "BattleWinConditionType_ActorNotDead",
		"Param1": [
			2608
		]
	},
	{
		"ID": 6822,
		"WinConditionType": "BattleWinConditionType_KillCount",
		"Param2": [
			22
		]
	},
	{
		"ID": 6825,
		"WinConditionType": "BattleWinConditionType_ActorReachPosition",
		"Param1": [
			2624
		],
		"Param2": [
			3
		],
		"Param3": [
			{
				"X": 15,
				"Y": 7
			},
			{
				"X": 16,
				"Y": 7
			},
			{
				"X": 15,
				"Y": 8
			},
			{
				"X": 16,
				"Y": 8
			},
			{
				"X": 15,
				"Y": 9
			},
			{
				"X": 16,
				"Y": 9
			}
		]
	},
	{
		"ID": 6826,
		"WinConditionType": "BattleWinConditionType_ActorReachPosition",
		"Param2": [
			1
		],
		"Param3": [
			{
				"X": 8,
				"Y": 1
			}
		]
	},
	{
		"ID": 6827,
		"WinConditionType": "BattleWinConditionType_KillCount",
		"Param2": [
			9
		]
	},
	{
		"ID": 6828,
		"WinConditionType": "BattleWinConditionType_KillCount",
		"Param2": [
			11
		]
	},
	{
		"ID": 6829,
		"WinConditionType": "BattleWinConditionType_ActorReachPosition",
		"Param1": [
			69,
			2643
		],
		"Param3": [
			{
				"X": 7,
				"Y": 8
			},
			{
				"X": 7,
				"Y": 9
			},
			{
				"X": 7,
				"Y": 10
			},
			{
				"X": 7,
				"Y": 11
			},
			{
				"X": 7,
				"Y": 12
			},
			{
				"X": 7,
				"Y": 13
			},
			{
				"X": 7,
				"Y": 17
			},
			{
				"X": 7,
				"Y": 18
			},
			{
				"X": 7,
				"Y": 19
			},
			{
				"X": 7,
				"Y": 20
			}
		]
	},
	{
		"ID": 7000,
		"WinConditionType": "BattleWinConditionType_KillActor",
		"Param1": [
			670
		]
	},
	{
		"ID": 7001,
		"WinConditionType": "BattleWinConditionType_KillCount",
		"Param2": [
			7
		]
	},
	{
		"ID": 7002,
		"WinConditionType": "BattleWinConditionType_KillActor",
		"Param1": [
			679
		]
	},
	{
		"ID": 7003,
		"WinConditionType": "BattleWinConditionType_KillCount",
		"Param2": [
			7
		]
	},
	{
		"ID": 7004,
		"WinConditionType": "BattleWinConditionType_KillActor",
		"Param1": [
			1127
		]
	},
	{
		"ID": 7005,
		"WinConditionType": "BattleWinConditionType_KillCount",
		"Param2": [
			7
		]
	},
	{
		"ID": 7006,
		"WinConditionType": "BattleWinConditionType_KillCount",
		"Param2": [
			27
		]
	},
	{
		"ID": 7007,
		"WinConditionType": "BattleWinConditionType_Turn",
		"Param2": [
			12
		]
	},
	{
		"ID": 7008,
		"WinConditionType": "BattleWinConditionType_Turn",
		"Param2": [
			7
		]
	},
	{
		"ID": 7009,
		"WinConditionType": "BattleWinConditionType_Turn",
		"Param2": [
			7
		]
	},
	{
		"ID": 7010,
		"WinConditionType": "BattleWinConditionType_KillCount",
		"Param2": [
			7
		]
	},
	{
		"ID": 7011,
		"WinConditionType": "BattleWinConditionType_KillOthers",
		"Param1": [
			2122
		]
	},
	{
		"ID": 7012,
		"WinConditionType": "BattleWinConditionType_KillOthers",
		"Param1": [
			2125
		]
	},
	{
		"ID": 7013,
		"WinConditionType": "BattleWinConditionType_KillActor",
		"Param1": [
			2125
		]
	},
	{
		"ID": 7014,
		"WinConditionType": "BattleWinConditionType_KillActor",
		"Param1": [
			2123
		]
	},
	{
		"ID": 7015,
		"WinConditionType": "BattleWinConditionType_KillActor",
		"Param1": [
			2126
		]
	},
	{
		"ID": 7016,
		"WinConditionType": "BattleWinConditionType_ActorReachPosition",
		"Param1": [
			2124
		],
		"Param3": [
			{
				"X": 15,
				"Y": 10
			}
		]
	},
	{
		"ID": 7017,
		"WinConditionType": "BattleWinConditionType_KillCount",
		"Param2": [
			22
		]
	},
	{
		"ID": 7018,
		"WinConditionType": "BattleWinConditionType_KillActor",
		"Param1": [
			2167
		]
	},
	{
		"ID": 7019,
		"WinConditionType": "BattleWinConditionType_Turn",
		"Param2": [
			8
		]
	},
	{
		"ID": 7020,
		"WinConditionType": "BattleWinConditionType_KillActor",
		"Param1": [
			2170
		]
	},
	{
		"ID": 7021,
		"WinConditionType": "BattleWinConditionType_KillActor",
		"Param1": [
			2306
		]
	},
	{
		"ID": 7022,
		"WinConditionType": "BattleWinConditionType_KillActor",
		"Param1": [
			2310
		]
	},
	{
		"ID": 7023,
		"WinConditionType": "BattleWinConditionType_KillActor",
		"Param1": [
			2314
		]
	},
	{
		"ID": 7024,
		"WinConditionType": "BattleWinConditionType_KillActor",
		"Param1": [
			2318
		]
	},
	{
		"ID": 7025,
		"WinConditionType": "BattleWinConditionType_KillActor",
		"Param1": [
			2321
		]
	},
	{
		"ID": 7026,
		"WinConditionType": "BattleWinConditionType_KillActor",
		"Param1": [
			2324
		]
	},
	{
		"ID": 7027,
		"WinConditionType": "BattleWinConditionType_KillActor",
		"Param1": [
			2354
		]
	},
	{
		"ID": 7028,
		"WinConditionType": "BattleWinConditionType_KillActor",
		"Param1": [
			2357
		]
	},
	{
		"ID": 7029,
		"WinConditionType": "BattleWinConditionType_KillActor",
		"Param1": [
			2364
		]
	},
	{
		"ID": 7030,
		"WinConditionType": "BattleWinConditionType_KillActor",
		"Param1": [
			2369
		]
	},
	{
		"ID": 7031,
		"WinConditionType": "BattleWinConditionType_KillActor",
		"Param1": [
			2457
		]
	},
	{
		"ID": 7032,
		"WinConditionType": "BattleWinConditionType_EventTrigger",
		"Param1": [
			120536
		]
	},
	{
		"ID": 7033,
		"WinConditionType": "BattleWinConditionType_EventTrigger",
		"Param1": [
			120567
		]
	},
	{
		"ID": 7034,
		"WinConditionType": "BattleWinConditionType_EventTrigger",
		"Param1": [
			120686
		]
	},
	{
		"ID": 7035,
		"WinConditionType": "BattleWinConditionType_KillActor",
		"Param1": [
			9445
		]
	},
	{
		"ID": 7070,
		"WinConditionType": "BattleWinConditionType_KillCount",
		"Param2": [
			3
		]
	},
	{
		"ID": 7072,
		"WinConditionType": "BattleWinConditionType_KillCount",
		"Param2": [
			5
		]
	},
	{
		"ID": 7074,
		"WinConditionType": "BattleWinConditionType_KillActor",
		"Param1": [
			694
		]
	},
	{
		"ID": 7075,
		"WinConditionType": "BattleWinConditionType_KillActor",
		"Param1": [
			695
		]
	},
	{
		"ID": 7076,
		"WinConditionType": "BattleWinConditionType_KillCount",
		"Param2": [
			10
		]
	},
	{
		"ID": 7077,
		"WinConditionType": "BattleWinConditionType_Turn",
		"Param2": [
			6
		]
	},
	{
		"ID": 7080,
		"WinConditionType": "BattleWinConditionType_KillCount",
		"Param2": [
			2
		]
	},
	{
		"ID": 7083,
		"WinConditionType": "BattleWinConditionType_ActorReachPosition",
		"Param1": [
			9
		],
		"Param2": [
			2
		],
		"Param3": [
			{
				"X": 14,
				"Y": 0
			},
			{
				"X": 15,
				"Y": 0
			},
			{
				"X": 14,
				"Y": 1
			},
			{
				"X": 15,
				"Y": 1
			}
		]
	},
	{
		"ID": 7084,
		"WinConditionType": "BattleWinConditionType_KillActor",
		"Param1": [
			2870
		]
	},
	{
		"ID": 7085,
		"WinConditionType": "BattleWinConditionType_KillActor",
		"Param1": [
			2872
		]
	},
	{
		"ID": 7086,
		"WinConditionType": "BattleWinConditionType_KillActor",
		"Param1": [
			9172
		]
	},
	{
		"ID": 7087,
		"WinConditionType": "BattleWinConditionType_KillActor",
		"Param1": [
			9143
		]
	},
	{
		"ID": 7088,
		"WinConditionType": "BattleWinConditionType_EventTrigger",
		"Param1": [
			120646
		]
	},
	{
		"ID": 7089,
		"WinConditionType": "BattleWinConditionType_KillActor",
		"Param1": [
			9550
		]
	},
	{
		"ID": 7090,
		"WinConditionType": "BattleWinConditionType_EventTrigger",
		"Param1": [
			120709
		]
	},
	{
		"ID": 7135,
		"WinConditionType": "BattleWinConditionType_KillActor",
		"Param1": [
			904
		]
	},
	{
		"ID": 7136,
		"WinConditionType": "BattleWinConditionType_KillActor",
		"Param1": [
			1213
		]
	},
	{
		"ID": 7140,
		"WinConditionType": "BattleWinConditionType_KillCount",
		"Param2": [
			4
		]
	},
	{
		"ID": 7144,
		"WinConditionType": "BattleWinConditionType_KillCount",
		"Param2": [
			8
		]
	},
	{
		"ID": 7153,
		"WinConditionType": "BattleWinConditionType_KillActor",
		"Param1": [
			863
		]
	},
	{
		"ID": 7180,
		"WinConditionType": "BattleWinConditionType_KillCount",
		"Param2": [
			5
		]
	},
	{
		"ID": 7181,
		"WinConditionType": "BattleWinConditionType_Turn",
		"Param2": [
			6
		]
	},
	{
		"ID": 7183,
		"WinConditionType": "BattleWinConditionType_KillCount",
		"Param2": [
			7
		]
	},
	{
		"ID": 7200,
		"WinConditionType": "BattleWinConditionType_Turn",
		"Param2": [
			7
		]
	},
	{
		"ID": 7201,
		"WinConditionType": "BattleWinConditionType_ActorReachPosition",
		"Param1": [
			3502
		],
		"Param2": [
			3
		],
		"Param3": [
			{
				"X": 11,
				"Y": 1
			}
		]
	},
	{
		"ID": 7202,
		"WinConditionType": "BattleWinConditionType_KillActor",
		"Param1": [
			1754
		]
	},
	{
		"ID": 7203,
		"WinConditionType": "BattleWinConditionType_KillCount",
		"Param2": [
			9
		]
	},
	{
		"ID": 7204,
		"WinConditionType": "BattleWinConditionType_KillActor",
		"Param1": [
			1829
		]
	},
	{
		"ID": 7205,
		"WinConditionType": "BattleWinConditionType_KillActor",
		"Param1": [
			1830
		]
	},
	{
		"ID": 7206,
		"WinConditionType": "BattleWinConditionType_EventTrigger",
		"Param1": [
			125200
		]
	},
	{
		"ID": 7207,
		"WinConditionType": "BattleWinConditionType_KillCount",
		"Param2": [
			13
		]
	},
	{
		"ID": 7208,
		"WinConditionType": "BattleWinConditionType_KillCount",
		"Param2": [
			11
		]
	},
	{
		"ID": 7209,
		"WinConditionType": "BattleWinConditionType_KillActor",
		"Param1": [
			2113
		]
	},
	{
		"ID": 7210,
		"WinConditionType": "BattleWinConditionType_KillCount",
		"Param2": [
			12
		]
	},
	{
		"ID": 7211,
		"WinConditionType": "BattleWinConditionType_KillCount",
		"Param2": [
			15
		]
	},
	{
		"ID": 7212,
		"WinConditionType": "BattleWinConditionType_KillActor",
		"Param1": [
			2198
		]
	},
	{
		"ID": 7213,
		"WinConditionType": "BattleWinConditionType_KillCount",
		"Param2": [
			20
		]
	},
	{
		"ID": 7214,
		"WinConditionType": "BattleWinConditionType_KillCount",
		"Param2": [
			7
		]
	},
	{
		"ID": 7215,
		"WinConditionType": "BattleWinConditionType_KillCount",
		"Param2": [
			27
		]
	},
	{
		"ID": 7216,
		"WinConditionType": "BattleWinConditionType_KillActor",
		"Param1": [
			2453
		]
	},
	{
		"ID": 7217,
		"WinConditionType": "BattleWinConditionType_KillCount",
		"Param2": [
			10
		]
	},
	{
		"ID": 7218,
		"WinConditionType": "BattleWinConditionType_KillCount",
		"Param2": [
			11
		]
	},
	{
		"ID": 7219,
		"WinConditionType": "BattleWinConditionType_KillActor",
		"Param1": [
			2756
		]
	},
	{
		"ID": 7220,
		"WinConditionType": "BattleWinConditionType_EventTrigger",
		"Param1": [
			227442
		]
	},
	{
		"ID": 7221,
		"WinConditionType": "BattleWinConditionType_Turn",
		"Param2": [
			7
		]
	},
	{
		"ID": 7222,
		"WinConditionType": "BattleWinConditionType_KillCount",
		"Param2": [
			7
		]
	},
	{
		"ID": 7223,
		"WinConditionType": "BattleWinConditionType_KillActor",
		"Param1": [
			9346
		]
	},
	{
		"ID": 7224,
		"WinConditionType": "BattleWinConditionType_KillActor",
		"Param1": [
			9446
		]
	},
	{
		"ID": 7225,
		"WinConditionType": "BattleWinConditionType_EventTrigger",
		"Param1": [
			227749
		]
	},
	{
		"ID": 7226,
		"WinConditionType": "BattleWinConditionType_KillCount",
		"Param2": [
			4
		]
	},
	{
		"ID": 7270,
		"WinConditionType": "BattleWinConditionType_ActorReachPosition",
		"Param2": [
			1
		],
		"Param3": [
			{
				"X": 8,
				"Y": 3
			}
		]
	},
	{
		"ID": 7271,
		"WinConditionType": "BattleWinConditionType_ActorReachPosition",
		"Param2": [
			2
		],
		"Param3": [
			{
				"X": 8,
				"Y": 3
			}
		]
	},
	{
		"ID": 7272,
		"WinConditionType": "BattleWinConditionType_KillActor",
		"Param1": [
			1665
		]
	},
	{
		"ID": 7273,
		"WinConditionType": "BattleWinConditionType_KillActor",
		"Param1": [
			1666
		]
	},
	{
		"ID": 7274,
		"WinConditionType": "BattleWinConditionType_KillActor",
		"Param1": [
			1685
		]
	},
	{
		"ID": 7280,
		"WinConditionType": "BattleWinConditionType_KillActor",
		"Param1": [
			2183
		]
	},
	{
		"ID": 7284,
		"WinConditionType": "BattleWinConditionType_KillActor",
		"Param1": [
			2186
		]
	},
	{
		"ID": 7324,
		"WinConditionType": "BattleWinConditionType_KillCount",
		"Param1": [
			1962
		],
		"Param2": [
			9
		]
	},
	{
		"ID": 7331,
		"WinConditionType": "BattleWinConditionType_KillActor",
		"Param1": [
			2297
		]
	},
	{
		"ID": 7332,
		"WinConditionType": "BattleWinConditionType_KillActor",
		"Param1": [
			2298
		]
	},
	{
		"ID": 7334,
		"WinConditionType": "BattleWinConditionType_KillActor",
		"Param1": [
			2305
		]
	},
	{
		"ID": 7354,
		"WinConditionType": "BattleWinConditionType_KillActor",
		"Param1": [
			2225
		]
	},
	{
		"ID": 7356,
		"WinConditionType": "BattleWinConditionType_KillActor",
		"Param1": [
			2522
		]
	},
	{
		"ID": 7357,
		"WinConditionType": "BattleWinConditionType_KillActor",
		"Param1": [
			2523
		]
	},
	{
		"ID": 7358,
		"WinConditionType": "BattleWinConditionType_KillActor",
		"Param1": [
			2531
		]
	},
	{
		"ID": 7359,
		"WinConditionType": "BattleWinConditionType_KillActor",
		"Param1": [
			2532
		]
	},
	{
		"ID": 7521,
		"WinConditionType": "BattleWinConditionType_KillCount",
		"Param2": [
			7
		]
	},
	{
		"ID": 7522,
		"WinConditionType": "BattleWinConditionType_KillActor",
		"Param1": [
			2426
		]
	},
	{
		"ID": 7523,
		"WinConditionType": "BattleWinConditionType_KillOthers",
		"Param1": [
			3517,
			4526,
			4024
		]
	},
	{
		"ID": 7561,
		"WinConditionType": "BattleWinConditionType_EventTrigger",
		"Param1": [
			3826
		]
	},
	{
		"ID": 7562,
		"WinConditionType": "BattleWinConditionType_EventTrigger",
		"Param1": [
			3837
		]
	},
	{
		"ID": 7563,
		"WinConditionType": "BattleWinConditionType_ActorHpLess",
		"Param1": [
			2516
		],
		"Param2": [
			1000
		]
	},
	{
		"ID": 7590,
		"WinConditionType": "BattleWinConditionType_KillOthers",
		"Param1": [
			1508,
			1509,
			4002
		]
	},
	{
		"ID": 7591,
		"WinConditionType": "BattleWinConditionType_ActorReachPosition",
		"Param2": [
			1
		],
		"Param3": [
			{
				"X": 8,
				"Y": 2
			}
		]
	},
	{
		"ID": 7592,
		"WinConditionType": "BattleWinConditionType_KillActor",
		"Param1": [
			2561
		]
	},
	{
		"ID": 7593,
		"WinConditionType": "BattleWinConditionType_KillCount",
		"Param2": [
			6
		]
	},
	{
		"ID": 7594,
		"WinConditionType": "BattleWinConditionType_EventTrigger",
		"Param1": [
			400438
		]
	},
	{
		"ID": 7595,
		"WinConditionType": "BattleWinConditionType_EventTrigger",
		"Param1": [
			400637
		]
	},
	{
		"ID": 7596,
		"WinConditionType": "BattleWinConditionType_ActorReachPosition",
		"Param1": [
			61
		],
		"Param3": [
			{
				"X": 5,
				"Y": 0
			}
		]
	},
	{
		"ID": 7597,
		"WinConditionType": "BattleWinConditionType_KillActor",
		"Param1": [
			9071
		]
	},
	{
		"ID": 7598,
		"WinConditionType": "BattleWinConditionType_KillActor",
		"Param1": [
			9297
		]
	},
	{
		"ID": 7599,
		"WinConditionType": "BattleWinConditionType_KillActor",
		"Param1": [
			6002
		]
	},
	{
		"ID": 7600,
		"WinConditionType": "BattleWinConditionType_ActorReachPosition",
		"Param1": [
			80
		],
		"Param3": [
			{
				"X": 14,
				"Y": 0
			}
		]
	},
	{
		"ID": 10801,
		"WinConditionType": "BattleWinConditionType_ActorReachPosition",
		"Param1": [
			9046
		],
		"Param3": [
			{
				"X": 9,
				"Y": 19
			}
		]
	},
	{
		"ID": 15801,
		"WinConditionType": "BattleWinConditionType_ActorReachPosition",
		"Param1": [
			9055
		],
		"Param3": [
			{
				"X": 9,
				"Y": 19
			}
		]
	},
	{
		"ID": 10821,
		"WinConditionType": "BattleWinConditionType_KillCount",
		"Param2": [
			27
		]
	},
	{
		"ID": 20001,
		"WinConditionType": "BattleWinConditionType_EventTrigger",
		"Param1": [
			4316
		]
	},
	{
		"ID": 20002,
		"WinConditionType": "BattleWinConditionType_EventTrigger",
		"Param1": [
			4330
		]
	},
	{
		"ID": 20003,
		"WinConditionType": "BattleWinConditionType_KillCount",
		"Param2": [
			4
		]
	},
	{
		"ID": 20004,
		"WinConditionType": "BattleWinConditionType_KillCount",
		"Param2": [
			5
		]
	},
	{
		"ID": 20005,
		"WinConditionType": "BattleWinConditionType_KillCount",
		"Param2": [
			5
		]
	},
	{
		"ID": 20205,
		"WinConditionType": "BattleWinConditionType_KillCount",
		"Param2": [
			11
		]
	},
	{
		"ID": 20208,
		"WinConditionType": "BattleWinConditionType_EventTrigger",
		"Param1": [
			4133
		]
	},
	{
		"ID": 20209,
		"WinConditionType": "BattleWinConditionType_KillCount",
		"Param2": [
			20
		]
	},
	{
		"ID": 20230,
		"WinConditionType": "BattleWinConditionType_KillActor",
		"Param1": [
			2906
		]
	},
	{
		"ID": 20240,
		"WinConditionType": "BattleWinConditionType_KillCount",
		"Param2": [
			7
		]
	},
	{
		"ID": 20250,
		"WinConditionType": "BattleWinConditionType_KillActor",
		"Param1": [
			2912
		]
	},
	{
		"ID": 20401,
		"WinConditionType": "BattleWinConditionType_KillActor",
		"Param1": [
			2971
		]
	},
	{
		"ID": 20601,
		"WinConditionType": "BattleWinConditionType_KillActor",
		"Param1": [
			9454
		]
	},
	{
		"ID": 20602,
		"WinConditionType": "BattleWinConditionType_KillCount",
		"Param2": [
			10
		]
	},
	{
		"ID": 20605,
		"WinConditionType": "BattleWinConditionType_KillActor",
		"Param1": [
			9487
		]
	},
	{
		"ID": 50011,
		"WinConditionType": "BattleWinConditionType_KillCount",
		"Param2": [
			16
		]
	},
	{
		"ID": 50012,
		"WinConditionType": "BattleWinConditionType_ActorReachPosition",
		"Param2": [
			1
		],
		"Param3": [
			{
				"X": 11,
				"Y": 10
			},
			{
				"X": 12,
				"Y": 10
			},
			{
				"X": 13,
				"Y": 10
			},
			{
				"X": 11,
				"Y": 11
			},
			{
				"X": 13,
				"Y": 11
			},
			{
				"X": 11,
				"Y": 12
			},
			{
				"X": 12,
				"Y": 12
			},
			{
				"X": 13,
				"Y": 12
			}
		]
	},
	{
		"ID": 50210,
		"WinConditionType": "BattleWinConditionType_KillActor",
		"Param1": [
			2903
		]
	},
	{
		"ID": 50212,
		"WinConditionType": "BattleWinConditionType_EventTrigger",
		"Param1": [
			30275
		]
	},
	{
		"ID": 50213,
		"WinConditionType": "BattleWinConditionType_EventTrigger",
		"Param1": [
			30292
		]
	},
	{
		"ID": 50218,
		"WinConditionType": "BattleWinConditionType_KillActor",
		"Param1": [
			9308
		]
	},
	{
		"ID": 50224,
		"WinConditionType": "BattleWinConditionType_KillCount",
		"Param2": [
			10
		]
	},
	{
		"ID": 502403,
		"WinConditionType": "BattleWinConditionType_KillCount",
		"Param2": [
			6
		]
	},
	{
		"ID": 503101,
		"WinConditionType": "BattleWinConditionType_Turn",
		"Param2": [
			5
		]
	},
	{
		"ID": 503111,
		"WinConditionType": "BattleWinConditionType_KillCount",
		"Param2": [
			11
		]
	},
	{
		"ID": 603001,
		"WinConditionType": "BattleWinConditionType_KillActor",
		"Param1": [
			9366
		]
	},
	{
		"ID": 603002,
		"WinConditionType": "BattleWinConditionType_KillActor",
		"Param1": [
			9367
		]
	},
	{
		"ID": 603003,
		"WinConditionType": "BattleWinConditionType_EventTrigger",
		"Param1": [
			600265
		]
	},
	{
		"ID": 20901,
		"WinConditionType": "BattleWinConditionType_KillCount",
		"Param2": [
			6
		]
	}
]