[
	{
		"ID": 101,
		"Name": "Basic ATK",
		"Resource": "UI/Icon/Drill_ABS/Drill_AtkADD.png",
		"RoomLevelRequired": 0,
		"ArmyIDRelated": [
			2
		],
		"IsSummon": false,
		"TechType": "TechDisplayType_SoldierTypeLevelUp",
		"TechLevelupInfoList": [
			1010,
			1011,
			1012,
			1013,
			1014
		]
	},
	{
		"ID": 102,
		"Name": "Basic DEF",
		"Resource": "UI/Icon/Drill_ABS/Drill_DefADD.png",
		"PreTechIDs": [
			101
		],
		"PreTechLevel": [
			5
		],
		"RoomLevelRequired": 0,
		"ArmyIDRelated": [
			2
		],
		"IsSummon": false,
		"TechType": "TechDisplayType_SoldierTypeLevelUp",
		"TechLevelupInfoList": [
			1020,
			1021,
			1022,
			1023,
			1024
		]
	},
	{
		"ID": 103,
		"Name": "Overall Survival",
		"Resource": "UI/Icon/Drill_ABS/Drill_HPMult.png",
		"PreTechIDs": [
			101
		],
		"PreTechLevel": [
			5
		],
		"RoomLevelRequired": 0,
		"ArmyIDRelated": [
			2
		],
		"IsSummon": false,
		"TechType": "TechDisplayType_SoldierTypeLevelUp",
		"TechLevelupInfoList": [
			1030,
			1031,
			1032,
			1033,
			1034,
			1035,
			1036,
			1037,
			1038,
			1039
		]
	},
	{
		"ID": 104,
		"Name": "Overall DEF",
		"Resource": "UI/Icon/Drill_ABS/Drill_DefMult.png",
		"PreTechIDs": [
			103
		],
		"PreTechLevel": [
			5
		],
		"RoomLevelRequired": 0,
		"ArmyIDRelated": [
			2
		],
		"IsSummon": false,
		"TechType": "TechDisplayType_SoldierTypeLevelUp",
		"TechLevelupInfoList": [
			1040,
			1041,
			1042,
			1043,
			1044,
			1045,
			1046,
			1047,
			1048,
			1049
		]
	},
	{
		"ID": 105,
		"Name": "Anti-Lancer Special",
		"Resource": "UI/Icon/Drill_ABS/Drill_Sward1.png",
		"PreTechIDs": [
			102
		],
		"PreTechLevel": [
			5
		],
		"RoomLevelRequired": 0,
		"ArmyIDRelated": [
			2
		],
		"IsSummon": false,
		"TechType": "TechDisplayType_SkillLevelUp",
		"TechLevelupInfoList": [
			1050,
			1051,
			1052,
			1053,
			1054,
			1055,
			1056,
			1057,
			1058,
			1059
		]
	},
	{
		"ID": 106,
		"Name": "Elite Infantry",
		"Resource": "",
		"PreTechIDs": [
			103
		],
		"PreTechLevel": [
			5
		],
		"RoomLevelRequired": 0,
		"SoldierIDRelated": [
			201
		],
		"IsSummon": false,
		"TechType": "TechDisplayType_SoldierLevelUp",
		"TechLevelupInfoList": [
			1060,
			1061,
			1062,
			1063,
			1064
		]
	},
	{
		"ID": 107,
		"Name": "Heavy Infantry",
		"Resource": "",
		"PreTechIDs": [
			106
		],
		"PreTechLevel": [
			5
		],
		"RoomLevelRequired": 10,
		"SoldierIDRelated": [
			202
		],
		"IsSummon": false,
		"TechType": "TechDisplayType_SoldierLevelUp",
		"TechLevelupInfoList": [
			1070,
			1071,
			1072,
			1073,
			1074,
			1075,
			1076,
			1077,
			1078,
			1079
		]
	},
	{
		"ID": 108,
		"Name": "Highland Warrior",
		"Resource": "",
		"PreTechIDs": [
			104,
			105
		],
		"PreTechLevel": [
			5,
			5
		],
		"RoomLevelRequired": 12,
		"SoldierIDRelated": [
			210
		],
		"IsSummon": false,
		"TechType": "TechDisplayType_SoldierLevelUp",
		"TechLevelupInfoList": [
			1080,
			1081,
			1082,
			1083,
			1084,
			1085,
			1086,
			1087,
			1088,
			1089
		]
	},
	{
		"ID": 109,
		"Name": "Overall ATK",
		"Resource": "UI/Icon/Drill_ABS/Drill_AtkMult.png",
		"RoomLevelRequired": 0,
		"ArmyIDRelated": [
			2
		],
		"IsSummon": false,
		"TechType": "TechDisplayType_SoldierTypeLevelUp",
		"TechLevelupInfoList": [
			1090,
			1091,
			1092,
			1093,
			1094,
			1095,
			1096,
			1097,
			1098,
			1099
		]
	},
	{
		"ID": 110,
		"Name": "Advanced Survival",
		"Resource": "UI/Icon/Drill_ABS/Drill_HPAdd.png",
		"PreTechIDs": [
			109
		],
		"PreTechLevel": [
			5
		],
		"RoomLevelRequired": 0,
		"ArmyIDRelated": [
			2
		],
		"IsSummon": false,
		"TechType": "TechDisplayType_SoldierTypeLevelUp",
		"TechLevelupInfoList": [
			1100,
			1101,
			1102,
			1103,
			1104,
			1105,
			1106,
			1107,
			1108,
			1109,
			11100,
			11101,
			11102,
			11103,
			11104
		]
	},
	{
		"ID": 111,
		"Name": "Advanced DEF",
		"Resource": "UI/Icon/Drill_ABS/Drill_DefADD.png",
		"PreTechIDs": [
			109
		],
		"PreTechLevel": [
			5
		],
		"RoomLevelRequired": 0,
		"ArmyIDRelated": [
			2
		],
		"IsSummon": false,
		"TechType": "TechDisplayType_SoldierTypeLevelUp",
		"TechLevelupInfoList": [
			1110,
			1111,
			1112,
			1113,
			1114,
			1115,
			1116,
			1117,
			1118,
			1119,
			11110,
			11111,
			11112,
			11113,
			11114
		]
	},
	{
		"ID": 112,
		"Name": "Maid",
		"Resource": "",
		"PreTechIDs": [
			111
		],
		"PreTechLevel": [
			5
		],
		"RoomLevelRequired": 0,
		"SoldierIDRelated": [
			234
		],
		"IsSummon": false,
		"TechType": "TechDisplayType_SoldierLevelUp",
		"TechLevelupInfoList": [
			1120,
			1121,
			1122,
			1123,
			1124
		]
	},
	{
		"ID": 113,
		"Name": "Orc",
		"Resource": "",
		"PreTechIDs": [
			110
		],
		"PreTechLevel": [
			5
		],
		"RoomLevelRequired": 0,
		"SoldierIDRelated": [
			213
		],
		"IsSummon": false,
		"TechType": "TechDisplayType_SoldierLevelUp",
		"TechLevelupInfoList": [
			1130,
			1131,
			1132,
			1133,
			1134
		]
	},
	{
		"ID": 114,
		"Name": "Warrior",
		"Resource": "",
		"PreTechIDs": [
			111
		],
		"PreTechLevel": [
			5
		],
		"RoomLevelRequired": 0,
		"SoldierIDRelated": [
			228
		],
		"IsSummon": false,
		"TechType": "TechDisplayType_SoldierLevelUp",
		"TechLevelupInfoList": [
			1140,
			1141,
			1142,
			1143,
			1144
		]
	},
	{
		"ID": 115,
		"Name": "Masked Maid",
		"Resource": "",
		"PreTechIDs": [
			112
		],
		"PreTechLevel": [
			5
		],
		"RoomLevelRequired": 12,
		"SoldierIDRelated": [
			237
		],
		"IsSummon": false,
		"TechType": "TechDisplayType_SoldierLevelUp",
		"TechLevelupInfoList": [
			1150,
			1151,
			1152,
			1153,
			1154,
			1155,
			1156,
			1157,
			1158,
			1159
		]
	},
	{
		"ID": 116,
		"Name": "Orc Berserker",
		"Resource": "",
		"PreTechIDs": [
			113
		],
		"PreTechLevel": [
			5
		],
		"RoomLevelRequired": 10,
		"SoldierIDRelated": [
			216
		],
		"IsSummon": false,
		"TechType": "TechDisplayType_SoldierLevelUp",
		"TechLevelupInfoList": [
			1160,
			1161,
			1162,
			1163,
			1164,
			1165,
			1166,
			1167,
			1168,
			1169
		]
	},
	{
		"ID": 117,
		"Name": "Berserker",
		"Resource": "",
		"PreTechIDs": [
			114
		],
		"PreTechLevel": [
			5
		],
		"RoomLevelRequired": 12,
		"SoldierIDRelated": [
			231
		],
		"IsSummon": false,
		"TechType": "TechDisplayType_SoldierLevelUp",
		"TechLevelupInfoList": [
			1170,
			1171,
			1172,
			1173,
			1174,
			1175,
			1176,
			1177,
			1178,
			1179
		]
	},
	{
		"ID": 118,
		"Name": "Advanced ATK",
		"Resource": "UI/Icon/Drill_ABS/Drill_AtkADD.png",
		"RoomLevelRequired": 0,
		"ArmyIDRelated": [
			2
		],
		"IsSummon": false,
		"TechType": "TechDisplayType_SoldierTypeLevelUp",
		"TechLevelupInfoList": [
			1180,
			1181,
			1182,
			1183,
			1184,
			1185,
			1186,
			1187,
			1188,
			1189,
			11180,
			11181,
			11182,
			11183,
			11184
		]
	},
	{
		"ID": 119,
		"Name": "Core ATK",
		"Resource": "UI/Icon/Drill_ABS/Drill_AtkMult.png",
		"PreTechIDs": [
			118
		],
		"PreTechLevel": [
			5
		],
		"RoomLevelRequired": 0,
		"ArmyIDRelated": [
			2
		],
		"IsSummon": false,
		"TechType": "TechDisplayType_SoldierTypeLevelUp",
		"TechLevelupInfoList": [
			1190,
			1191,
			1192,
			1193,
			1194,
			1195,
			1196,
			1197,
			1198,
			1199,
			11190,
			11191,
			11192,
			11193,
			11194,
			11195,
			11196,
			11197,
			11198,
			11199
		]
	},
	{
		"ID": 120,
		"Name": "Core Survival",
		"Resource": "UI/Icon/Drill_ABS/Drill_HPMult.png",
		"PreTechIDs": [
			118
		],
		"PreTechLevel": [
			5
		],
		"RoomLevelRequired": 0,
		"ArmyIDRelated": [
			2
		],
		"IsSummon": false,
		"TechType": "TechDisplayType_SoldierTypeLevelUp",
		"TechLevelupInfoList": [
			1200,
			1201,
			1202,
			1203,
			1204,
			1205,
			1206,
			1207,
			1208,
			1209,
			11200,
			11201,
			11202,
			11203,
			11204,
			11205,
			11206,
			11207,
			11208,
			11209
		]
	},
	{
		"ID": 121,
		"Name": "Core DEF",
		"Resource": "UI/Icon/Drill_ABS/Drill_DefMult.png",
		"PreTechIDs": [
			119
		],
		"PreTechLevel": [
			5
		],
		"RoomLevelRequired": 0,
		"ArmyIDRelated": [
			2
		],
		"IsSummon": false,
		"TechType": "TechDisplayType_SoldierTypeLevelUp",
		"TechLevelupInfoList": [
			1210,
			1211,
			1212,
			1213,
			1214,
			1215,
			1216,
			1217,
			1218,
			1219,
			11210,
			11211,
			11212,
			11213,
			11214,
			11215,
			11216,
			11217,
			11218,
			11219
		]
	},
	{
		"ID": 122,
		"Name": "Overrun Tactics",
		"Resource": "UI/Icon/Drill_ABS/Drill_Sward2.png",
		"PreTechIDs": [
			119
		],
		"PreTechLevel": [
			5
		],
		"RoomLevelRequired": 10,
		"ArmyIDRelated": [
			2
		],
		"IsSummon": false,
		"TechType": "TechDisplayType_SkillLevelUp",
		"TechLevelupInfoList": [
			1220,
			1221,
			1222,
			1223,
			1224,
			1225,
			1226,
			1227,
			1228,
			1229
		]
	},
	{
		"ID": 123,
		"Name": "Emergency Treatment",
		"Resource": "UI/Icon/Drill_ABS/Drill_Sward3.png",
		"PreTechIDs": [
			120
		],
		"PreTechLevel": [
			5
		],
		"RoomLevelRequired": 10,
		"ArmyIDRelated": [
			2
		],
		"IsSummon": false,
		"TechType": "TechDisplayType_SkillLevelUp",
		"TechLevelupInfoList": [
			1230,
			1231,
			1232,
			1233,
			1234,
			1235,
			1236,
			1237,
			1238,
			1239
		]
	},
	{
		"ID": 124,
		"Name": "Cyclops",
		"Resource": "",
		"PreTechIDs": [
			122,
			123
		],
		"PreTechLevel": [
			5,
			5
		],
		"RoomLevelRequired": 12,
		"SoldierIDRelated": [
			219
		],
		"IsSummon": false,
		"TechType": "TechDisplayType_SoldierLevelUp",
		"TechLevelupInfoList": [
			1240,
			1241,
			1242,
			1243,
			1244,
			1245,
			1246,
			1247,
			1248,
			1249
		]
	},
	{
		"ID": 125,
		"Name": "Guardian Infantry",
		"Resource": "",
		"PreTechIDs": [
			121
		],
		"PreTechLevel": [
			5
		],
		"RoomLevelRequired": 10,
		"SoldierIDRelated": [
			203
		],
		"IsSummon": false,
		"TechType": "TechDisplayType_SoldierLevelUp",
		"TechLevelupInfoList": [
			1250,
			1251,
			1252,
			1253,
			1254,
			1255,
			1256,
			1257,
			1258,
			1259
		]
	},
	{
		"ID": 126,
		"Name": "Dark Guard",
		"Resource": "",
		"PreTechIDs": [
			121
		],
		"PreTechLevel": [
			5
		],
		"RoomLevelRequired": 12,
		"SoldierIDRelated": [
			225
		],
		"IsSummon": false,
		"TechType": "TechDisplayType_SoldierLevelUp",
		"TechLevelupInfoList": [
			1260,
			1261,
			1262,
			1263,
			1264,
			1265,
			1266,
			1267,
			1268,
			1269
		]
	},
	{
		"ID": 201,
		"Name": "Basic ATK",
		"Resource": "UI/Icon/Drill_ABS/Drill_AtkADD.png",
		"RoomLevelRequired": 0,
		"ArmyIDRelated": [
			1
		],
		"IsSummon": false,
		"TechType": "TechDisplayType_SoldierTypeLevelUp",
		"TechLevelupInfoList": [
			2010,
			2011,
			2012,
			2013,
			2014
		]
	},
	{
		"ID": 202,
		"Name": "Basic DEF",
		"Resource": "UI/Icon/Drill_ABS/Drill_DefADD.png",
		"PreTechIDs": [
			201
		],
		"PreTechLevel": [
			5
		],
		"RoomLevelRequired": 0,
		"ArmyIDRelated": [
			1
		],
		"IsSummon": false,
		"TechType": "TechDisplayType_SoldierTypeLevelUp",
		"TechLevelupInfoList": [
			2020,
			2021,
			2022,
			2023,
			2024
		]
	},
	{
		"ID": 203,
		"Name": "Overall Survival",
		"Resource": "UI/Icon/Drill_ABS/Drill_HPMult.png",
		"PreTechIDs": [
			201
		],
		"PreTechLevel": [
			5
		],
		"RoomLevelRequired": 0,
		"ArmyIDRelated": [
			1
		],
		"IsSummon": false,
		"TechType": "TechDisplayType_SoldierTypeLevelUp",
		"TechLevelupInfoList": [
			2030,
			2031,
			2032,
			2033,
			2034,
			2035,
			2036,
			2037,
			2038,
			2039
		]
	},
	{
		"ID": 204,
		"Name": "Overall DEF",
		"Resource": "UI/Icon/Drill_ABS/Drill_DefMult.png",
		"PreTechIDs": [
			203
		],
		"PreTechLevel": [
			5
		],
		"RoomLevelRequired": 0,
		"ArmyIDRelated": [
			1
		],
		"IsSummon": false,
		"TechType": "TechDisplayType_SoldierTypeLevelUp",
		"TechLevelupInfoList": [
			2040,
			2041,
			2042,
			2043,
			2044,
			2045,
			2046,
			2047,
			2048,
			2049
		]
	},
	{
		"ID": 205,
		"Name": "Anti-Cavalry Special",
		"Resource": "UI/Icon/Drill_ABS/Drill_Spear1.png",
		"PreTechIDs": [
			203
		],
		"PreTechLevel": [
			5
		],
		"RoomLevelRequired": 0,
		"ArmyIDRelated": [
			1
		],
		"IsSummon": false,
		"TechType": "TechDisplayType_SkillLevelUp",
		"TechLevelupInfoList": [
			2050,
			2051,
			2052,
			2053,
			2054,
			2055,
			2056,
			2057,
			2058,
			2059
		]
	},
	{
		"ID": 206,
		"Name": "Elite Lancer",
		"Resource": "",
		"PreTechIDs": [
			202
		],
		"PreTechLevel": [
			5
		],
		"RoomLevelRequired": 0,
		"SoldierIDRelated": [
			101
		],
		"IsSummon": false,
		"TechType": "TechDisplayType_SoldierLevelUp",
		"TechLevelupInfoList": [
			2060,
			2061,
			2062,
			2063,
			2064
		]
	},
	{
		"ID": 207,
		"Name": "Phalanx",
		"Resource": "",
		"PreTechIDs": [
			206
		],
		"PreTechLevel": [
			5
		],
		"RoomLevelRequired": 10,
		"SoldierIDRelated": [
			102
		],
		"IsSummon": false,
		"TechType": "TechDisplayType_SoldierLevelUp",
		"TechLevelupInfoList": [
			2070,
			2071,
			2072,
			2073,
			2074,
			2075,
			2076,
			2077,
			2078,
			2079
		]
	},
	{
		"ID": 208,
		"Name": "Heavy Centurion",
		"Resource": "",
		"PreTechIDs": [
			204,
			205
		],
		"PreTechLevel": [
			5,
			5
		],
		"RoomLevelRequired": 12,
		"SoldierIDRelated": [
			106
		],
		"IsSummon": false,
		"TechType": "TechDisplayType_SoldierLevelUp",
		"TechLevelupInfoList": [
			2080,
			2081,
			2082,
			2083,
			2084,
			2085,
			2086,
			2087,
			2088,
			2089
		]
	},
	{
		"ID": 209,
		"Name": "Overall ATK",
		"Resource": "UI/Icon/Drill_ABS/Drill_AtkMult.png",
		"RoomLevelRequired": 0,
		"ArmyIDRelated": [
			1
		],
		"IsSummon": false,
		"TechType": "TechDisplayType_SoldierTypeLevelUp",
		"TechLevelupInfoList": [
			2090,
			2091,
			2092,
			2093,
			2094,
			2095,
			2096,
			2097,
			2098,
			2099
		]
	},
	{
		"ID": 210,
		"Name": "Advanced Survival",
		"Resource": "UI/Icon/Drill_ABS/Drill_HPAdd.png",
		"PreTechIDs": [
			209
		],
		"PreTechLevel": [
			5
		],
		"RoomLevelRequired": 0,
		"ArmyIDRelated": [
			1
		],
		"IsSummon": false,
		"TechType": "TechDisplayType_SoldierTypeLevelUp",
		"TechLevelupInfoList": [
			2100,
			2101,
			2102,
			2103,
			2104,
			2105,
			2106,
			2107,
			2108,
			2109,
			12100,
			12101,
			12102,
			12103,
			12104
		]
	},
	{
		"ID": 211,
		"Name": "Advanced DEF",
		"Resource": "UI/Icon/Drill_ABS/Drill_DefADD.png",
		"PreTechIDs": [
			209
		],
		"PreTechLevel": [
			5
		],
		"RoomLevelRequired": 0,
		"ArmyIDRelated": [
			1
		],
		"IsSummon": false,
		"TechType": "TechDisplayType_SoldierTypeLevelUp",
		"TechLevelupInfoList": [
			2110,
			2111,
			2112,
			2113,
			2114,
			2115,
			2116,
			2117,
			2118,
			2119,
			12110,
			12111,
			12112,
			12113,
			12114
		]
	},
	{
		"ID": 212,
		"Name": "Amazon",
		"Resource": "",
		"PreTechIDs": [
			210
		],
		"PreTechLevel": [
			5
		],
		"RoomLevelRequired": 0,
		"SoldierIDRelated": [
			103
		],
		"IsSummon": false,
		"TechType": "TechDisplayType_SoldierLevelUp",
		"TechLevelupInfoList": [
			2120,
			2121,
			2122,
			2123,
			2124
		]
	},
	{
		"ID": 213,
		"Name": "Rock Golem",
		"Resource": "",
		"PreTechIDs": [
			211
		],
		"PreTechLevel": [
			5
		],
		"RoomLevelRequired": 0,
		"SoldierIDRelated": [
			104
		],
		"IsSummon": false,
		"TechType": "TechDisplayType_SoldierLevelUp",
		"TechLevelupInfoList": [
			2130,
			2131,
			2132,
			2133,
			2134
		]
	},
	{
		"ID": 214,
		"Name": "Amazon Champion",
		"Resource": "",
		"PreTechIDs": [
			212
		],
		"PreTechLevel": [
			5
		],
		"RoomLevelRequired": 12,
		"SoldierIDRelated": [
			121
		],
		"IsSummon": false,
		"TechType": "TechDisplayType_SoldierLevelUp",
		"TechLevelupInfoList": [
			2140,
			2141,
			2142,
			2143,
			2144,
			2145,
			2146,
			2147,
			2148,
			2149
		]
	},
	{
		"ID": 215,
		"Name": "Stone Colossus",
		"Resource": "",
		"PreTechIDs": [
			213
		],
		"PreTechLevel": [
			5
		],
		"RoomLevelRequired": 10,
		"SoldierIDRelated": [
			105
		],
		"IsSummon": false,
		"TechType": "TechDisplayType_SoldierLevelUp",
		"TechLevelupInfoList": [
			2150,
			2151,
			2152,
			2153,
			2154,
			2155,
			2156,
			2157,
			2158,
			2159
		]
	},
	{
		"ID": 216,
		"Name": "Lava Titan",
		"Resource": "",
		"PreTechIDs": [
			213
		],
		"PreTechLevel": [
			5
		],
		"RoomLevelRequired": 12,
		"SoldierIDRelated": [
			112
		],
		"IsSummon": false,
		"TechType": "TechDisplayType_SoldierLevelUp",
		"TechLevelupInfoList": [
			2160,
			2161,
			2162,
			2163,
			2164,
			2165,
			2166,
			2167,
			2168,
			2169
		]
	},
	{
		"ID": 217,
		"Name": "Advanced ATK",
		"Resource": "UI/Icon/Drill_ABS/Drill_AtkADD.png",
		"RoomLevelRequired": 0,
		"ArmyIDRelated": [
			1
		],
		"IsSummon": false,
		"TechType": "TechDisplayType_SoldierTypeLevelUp",
		"TechLevelupInfoList": [
			2170,
			2171,
			2172,
			2173,
			2174,
			2175,
			2176,
			2177,
			2178,
			2179,
			12170,
			12171,
			12172,
			12173,
			12174
		]
	},
	{
		"ID": 218,
		"Name": "Core ATK",
		"Resource": "UI/Icon/Drill_ABS/Drill_AtkMult.png",
		"PreTechIDs": [
			217
		],
		"PreTechLevel": [
			5
		],
		"RoomLevelRequired": 0,
		"ArmyIDRelated": [
			1
		],
		"IsSummon": false,
		"TechType": "TechDisplayType_SoldierTypeLevelUp",
		"TechLevelupInfoList": [
			2180,
			2181,
			2182,
			2183,
			2184,
			2185,
			2186,
			2187,
			2188,
			2189,
			12180,
			12181,
			12182,
			12183,
			12184,
			12185,
			12186,
			12187,
			12188,
			12189
		]
	},
	{
		"ID": 219,
		"Name": "Core Survival",
		"Resource": "UI/Icon/Drill_ABS/Drill_HPMult.png",
		"RoomLevelRequired": 0,
		"ArmyIDRelated": [
			1
		],
		"IsSummon": false,
		"TechType": "TechDisplayType_SoldierTypeLevelUp",
		"TechLevelupInfoList": [
			2190,
			2191,
			2192,
			2193,
			2194,
			2195,
			2196,
			2197,
			2198,
			2199,
			12190,
			12191,
			12192,
			12193,
			12194,
			12195,
			12196,
			12197,
			12198,
			12199
		]
	},
	{
		"ID": 220,
		"Name": "Core DEF",
		"Resource": "UI/Icon/Drill_ABS/Drill_DefMult.png",
		"PreTechIDs": [
			219
		],
		"PreTechLevel": [
			5
		],
		"RoomLevelRequired": 0,
		"ArmyIDRelated": [
			1
		],
		"IsSummon": false,
		"TechType": "TechDisplayType_SoldierTypeLevelUp",
		"TechLevelupInfoList": [
			2200,
			2201,
			2202,
			2203,
			2204,
			2205,
			2206,
			2207,
			2208,
			2209,
			12200,
			12201,
			12202,
			12203,
			12204,
			12205,
			12206,
			12207,
			12208,
			12209
		]
	},
	{
		"ID": 221,
		"Name": "Counterattack Array",
		"Resource": "UI/Icon/Drill_ABS/Drill_Spear2.png",
		"PreTechIDs": [
			220
		],
		"PreTechLevel": [
			5
		],
		"RoomLevelRequired": 10,
		"ArmyIDRelated": [
			1
		],
		"IsSummon": false,
		"TechType": "TechDisplayType_SkillLevelUp",
		"TechLevelupInfoList": [
			2210,
			2211,
			2212,
			2213,
			2214,
			2215,
			2216,
			2217,
			2218,
			2219
		]
	},
	{
		"ID": 222,
		"Name": "Continued Combat",
		"Resource": "UI/Icon/Drill_ABS/Drill_Spear3.png",
		"PreTechIDs": [
			218,
			220
		],
		"PreTechLevel": [
			5,
			5
		],
		"RoomLevelRequired": 10,
		"ArmyIDRelated": [
			1
		],
		"IsSummon": false,
		"TechType": "TechDisplayType_SkillLevelUp",
		"TechLevelupInfoList": [
			2220,
			2221,
			2222,
			2223,
			2224,
			2225,
			2226,
			2227,
			2228,
			2229
		]
	},
	{
		"ID": 223,
		"Name": "Vanguard Lancer",
		"Resource": "",
		"PreTechIDs": [
			222
		],
		"PreTechLevel": [
			5
		],
		"RoomLevelRequired": 10,
		"SoldierIDRelated": [
			115
		],
		"IsSummon": false,
		"TechType": "TechDisplayType_SoldierLevelUp",
		"TechLevelupInfoList": [
			2230,
			2231,
			2232,
			2233,
			2234,
			2235,
			2236,
			2237,
			2238,
			2239
		]
	},
	{
		"ID": 224,
		"Name": "Dark Centurion",
		"Resource": "",
		"PreTechIDs": [
			221
		],
		"PreTechLevel": [
			5
		],
		"RoomLevelRequired": 12,
		"SoldierIDRelated": [
			118
		],
		"IsSummon": false,
		"TechType": "TechDisplayType_SoldierLevelUp",
		"TechLevelupInfoList": [
			2240,
			2241,
			2242,
			2243,
			2244,
			2245,
			2246,
			2247,
			2248,
			2249
		]
	},
	{
		"ID": 301,
		"Name": "Basic ATK",
		"Resource": "UI/Icon/Drill_ABS/Drill_AtkADD.png",
		"RoomLevelRequired": 0,
		"ArmyIDRelated": [
			3
		],
		"IsSummon": false,
		"TechType": "TechDisplayType_SoldierTypeLevelUp",
		"TechLevelupInfoList": [
			3010,
			3011,
			3012,
			3013,
			3014
		]
	},
	{
		"ID": 302,
		"Name": "Basic DEF",
		"Resource": "UI/Icon/Drill_ABS/Drill_DefADD.png",
		"PreTechIDs": [
			301
		],
		"PreTechLevel": [
			5
		],
		"RoomLevelRequired": 0,
		"ArmyIDRelated": [
			3
		],
		"IsSummon": false,
		"TechType": "TechDisplayType_SoldierTypeLevelUp",
		"TechLevelupInfoList": [
			3020,
			3021,
			3022,
			3023,
			3024
		]
	},
	{
		"ID": 303,
		"Name": "Overall Survival",
		"Resource": "UI/Icon/Drill_ABS/Drill_HPMult.png",
		"PreTechIDs": [
			301
		],
		"PreTechLevel": [
			5
		],
		"RoomLevelRequired": 0,
		"ArmyIDRelated": [
			3
		],
		"IsSummon": false,
		"TechType": "TechDisplayType_SoldierTypeLevelUp",
		"TechLevelupInfoList": [
			3030,
			3031,
			3032,
			3033,
			3034,
			3035,
			3036,
			3037,
			3038,
			3039
		]
	},
	{
		"ID": 304,
		"Name": "Overall DEF",
		"Resource": "UI/Icon/Drill_ABS/Drill_DefMult.png",
		"PreTechIDs": [
			303
		],
		"PreTechLevel": [
			5
		],
		"RoomLevelRequired": 0,
		"ArmyIDRelated": [
			3
		],
		"IsSummon": false,
		"TechType": "TechDisplayType_SoldierTypeLevelUp",
		"TechLevelupInfoList": [
			3040,
			3041,
			3042,
			3043,
			3044,
			3045,
			3046,
			3047,
			3048,
			3049
		]
	},
	{
		"ID": 305,
		"Name": "Anti-Infantry Special",
		"Resource": "UI/Icon/Drill_ABS/Drill_Knight1.png",
		"PreTechIDs": [
			303
		],
		"PreTechLevel": [
			5
		],
		"RoomLevelRequired": 0,
		"ArmyIDRelated": [
			3
		],
		"IsSummon": false,
		"TechType": "TechDisplayType_SkillLevelUp",
		"TechLevelupInfoList": [
			3050,
			3051,
			3052,
			3053,
			3054,
			3055,
			3056,
			3057,
			3058,
			3059
		]
	},
	{
		"ID": 306,
		"Name": "Elite Cavalry",
		"Resource": "",
		"PreTechIDs": [
			302
		],
		"PreTechLevel": [
			5
		],
		"RoomLevelRequired": 0,
		"SoldierIDRelated": [
			301
		],
		"IsSummon": false,
		"TechType": "TechDisplayType_SoldierLevelUp",
		"TechLevelupInfoList": [
			3060,
			3061,
			3062,
			3063,
			3064
		]
	},
	{
		"ID": 307,
		"Name": "Heavy Cavalry",
		"Resource": "",
		"PreTechIDs": [
			306
		],
		"PreTechLevel": [
			5
		],
		"RoomLevelRequired": 10,
		"SoldierIDRelated": [
			302
		],
		"IsSummon": false,
		"TechType": "TechDisplayType_SoldierLevelUp",
		"TechLevelupInfoList": [
			3070,
			3071,
			3072,
			3073,
			3074,
			3075,
			3076,
			3077,
			3078,
			3079
		]
	},
	{
		"ID": 308,
		"Name": "Dragoon",
		"Resource": "",
		"PreTechIDs": [
			304,
			305
		],
		"PreTechLevel": [
			5,
			5
		],
		"RoomLevelRequired": 12,
		"SoldierIDRelated": [
			308
		],
		"IsSummon": false,
		"TechType": "TechDisplayType_SoldierLevelUp",
		"TechLevelupInfoList": [
			3080,
			3081,
			3082,
			3083,
			3084,
			3085,
			3086,
			3087,
			3088,
			3089
		]
	},
	{
		"ID": 309,
		"Name": "Overall ATK",
		"Resource": "UI/Icon/Drill_ABS/Drill_AtkMult.png",
		"RoomLevelRequired": 0,
		"ArmyIDRelated": [
			3
		],
		"IsSummon": false,
		"TechType": "TechDisplayType_SoldierTypeLevelUp",
		"TechLevelupInfoList": [
			3090,
			3091,
			3092,
			3093,
			3094,
			3095,
			3096,
			3097,
			3098,
			3099
		]
	},
	{
		"ID": 310,
		"Name": "Advanced Survival",
		"Resource": "UI/Icon/Drill_ABS/Drill_HPAdd.png",
		"PreTechIDs": [
			309
		],
		"PreTechLevel": [
			5
		],
		"RoomLevelRequired": 0,
		"ArmyIDRelated": [
			3
		],
		"IsSummon": false,
		"TechType": "TechDisplayType_SoldierTypeLevelUp",
		"TechLevelupInfoList": [
			3100,
			3101,
			3102,
			3103,
			3104,
			3105,
			3106,
			3107,
			3108,
			3109,
			13100,
			13101,
			13102,
			13103,
			13104
		]
	},
	{
		"ID": 311,
		"Name": "Advanced DEF",
		"Resource": "UI/Icon/Drill_ABS/Drill_DefADD.png",
		"PreTechIDs": [
			309
		],
		"PreTechLevel": [
			5
		],
		"RoomLevelRequired": 0,
		"ArmyIDRelated": [
			3
		],
		"IsSummon": false,
		"TechType": "TechDisplayType_SoldierTypeLevelUp",
		"TechLevelupInfoList": [
			3110,
			3111,
			3112,
			3113,
			3114,
			3115,
			3116,
			3117,
			3118,
			3119,
			13110,
			13111,
			13112,
			13113,
			13114
		]
	},
	{
		"ID": 312,
		"Name": "Horned Dino",
		"Resource": "",
		"PreTechIDs": [
			311
		],
		"PreTechLevel": [
			5
		],
		"RoomLevelRequired": 0,
		"SoldierIDRelated": [
			304
		],
		"IsSummon": false,
		"TechType": "TechDisplayType_SoldierLevelUp",
		"TechLevelupInfoList": [
			3120,
			3121,
			3122,
			3123,
			3124
		]
	},
	{
		"ID": 313,
		"Name": "Paladin",
		"Resource": "",
		"PreTechIDs": [
			310,
			311
		],
		"PreTechLevel": [
			5,
			5
		],
		"RoomLevelRequired": 0,
		"SoldierIDRelated": [
			323
		],
		"IsSummon": false,
		"TechType": "TechDisplayType_SoldierLevelUp",
		"TechLevelupInfoList": [
			3130,
			3131,
			3132,
			3133,
			3134
		]
	},
	{
		"ID": 314,
		"Name": "Bone Dino",
		"Resource": "",
		"PreTechIDs": [
			312
		],
		"PreTechLevel": [
			5
		],
		"RoomLevelRequired": 10,
		"SoldierIDRelated": [
			311
		],
		"IsSummon": false,
		"TechType": "TechDisplayType_SoldierLevelUp",
		"TechLevelupInfoList": [
			3140,
			3141,
			3142,
			3143,
			3144,
			3145,
			3146,
			3147,
			3148,
			3149
		]
	},
	{
		"ID": 315,
		"Name": "Templar Knight",
		"Resource": "",
		"PreTechIDs": [
			313
		],
		"PreTechLevel": [
			5
		],
		"RoomLevelRequired": 12,
		"SoldierIDRelated": [
			326
		],
		"IsSummon": false,
		"TechType": "TechDisplayType_SoldierLevelUp",
		"TechLevelupInfoList": [
			3150,
			3151,
			3152,
			3153,
			3154,
			3155,
			3156,
			3157,
			3158,
			3159
		]
	},
	{
		"ID": 316,
		"Name": "Hell Hound",
		"Resource": "",
		"PreTechIDs": [
			312
		],
		"PreTechLevel": [
			5
		],
		"RoomLevelRequired": 12,
		"SoldierIDRelated": [
			314
		],
		"IsSummon": false,
		"TechType": "TechDisplayType_SoldierLevelUp",
		"TechLevelupInfoList": [
			3160,
			3161,
			3162,
			3163,
			3164,
			3165,
			3166,
			3167,
			3168,
			3169
		]
	},
	{
		"ID": 317,
		"Name": "Advanced ATK",
		"Resource": "UI/Icon/Drill_ABS/Drill_AtkADD.png",
		"RoomLevelRequired": 0,
		"ArmyIDRelated": [
			3
		],
		"IsSummon": false,
		"TechType": "TechDisplayType_SoldierTypeLevelUp",
		"TechLevelupInfoList": [
			3170,
			3171,
			3172,
			3173,
			3174,
			3175,
			3176,
			3177,
			3178,
			3179,
			13170,
			13171,
			13172,
			13173,
			13174
		]
	},
	{
		"ID": 318,
		"Name": "Core ATK",
		"Resource": "UI/Icon/Drill_ABS/Drill_AtkMult.png",
		"PreTechIDs": [
			317
		],
		"PreTechLevel": [
			5
		],
		"RoomLevelRequired": 0,
		"ArmyIDRelated": [
			3
		],
		"IsSummon": false,
		"TechType": "TechDisplayType_SoldierTypeLevelUp",
		"TechLevelupInfoList": [
			3180,
			3181,
			3182,
			3183,
			3184,
			3185,
			3186,
			3187,
			3188,
			3189,
			13180,
			13181,
			13182,
			13183,
			13184,
			13185,
			13186,
			13187,
			13188,
			13189
		]
	},
	{
		"ID": 319,
		"Name": "Core Survival",
		"Resource": "UI/Icon/Drill_ABS/Drill_HPMult.png",
		"PreTechIDs": [
			317
		],
		"PreTechLevel": [
			5
		],
		"RoomLevelRequired": 0,
		"ArmyIDRelated": [
			3
		],
		"IsSummon": false,
		"TechType": "TechDisplayType_SoldierTypeLevelUp",
		"TechLevelupInfoList": [
			3190,
			3191,
			3192,
			3193,
			3194,
			3195,
			3196,
			3197,
			3198,
			3199,
			13190,
			13191,
			13192,
			13193,
			13194,
			13195,
			13196,
			13197,
			13198,
			13199
		]
	},
	{
		"ID": 320,
		"Name": "Core DEF",
		"Resource": "UI/Icon/Drill_ABS/Drill_DefMult.png",
		"PreTechIDs": [
			317
		],
		"PreTechLevel": [
			5
		],
		"RoomLevelRequired": 0,
		"ArmyIDRelated": [
			3
		],
		"IsSummon": false,
		"TechType": "TechDisplayType_SoldierTypeLevelUp",
		"TechLevelupInfoList": [
			3200,
			3201,
			3202,
			3203,
			3204,
			3205,
			3206,
			3207,
			3208,
			3209,
			13200,
			13201,
			13202,
			13203,
			13204,
			13205,
			13206,
			13207,
			13208,
			13209
		]
	},
	{
		"ID": 321,
		"Name": "Group Charge",
		"Resource": "UI/Icon/Drill_ABS/Drill_Knight2.png",
		"PreTechIDs": [
			318
		],
		"PreTechLevel": [
			5
		],
		"RoomLevelRequired": 10,
		"ArmyIDRelated": [
			3
		],
		"IsSummon": false,
		"TechType": "TechDisplayType_SkillLevelUp",
		"TechLevelupInfoList": [
			3210,
			3211,
			3212,
			3213,
			3214,
			3215,
			3216,
			3217,
			3218,
			3219
		]
	},
	{
		"ID": 322,
		"Name": "High Speed",
		"Resource": "UI/Icon/Drill_ABS/Drill_Knight3.png",
		"PreTechIDs": [
			319,
			320
		],
		"PreTechLevel": [
			5,
			5
		],
		"RoomLevelRequired": 10,
		"ArmyIDRelated": [
			3
		],
		"IsSummon": false,
		"TechType": "TechDisplayType_SkillLevelUp",
		"TechLevelupInfoList": [
			3220,
			3221,
			3222,
			3223,
			3224,
			3225,
			3226,
			3227,
			3228,
			3229
		]
	},
	{
		"ID": 323,
		"Name": "Guardian Cavalry",
		"Resource": "",
		"PreTechIDs": [
			321
		],
		"PreTechLevel": [
			5
		],
		"RoomLevelRequired": 10,
		"SoldierIDRelated": [
			317
		],
		"IsSummon": false,
		"TechType": "TechDisplayType_SoldierLevelUp",
		"TechLevelupInfoList": [
			3230,
			3231,
			3232,
			3233,
			3234,
			3235,
			3236,
			3237,
			3238,
			3239
		]
	},
	{
		"ID": 324,
		"Name": "Heavensguard",
		"Resource": "",
		"PreTechIDs": [
			321
		],
		"PreTechLevel": [
			5
		],
		"RoomLevelRequired": 12,
		"SoldierIDRelated": [
			324
		],
		"IsSummon": false,
		"TechType": "TechDisplayType_SoldierLevelUp",
		"TechLevelupInfoList": [
			3240,
			3241,
			3242,
			3243,
			3244,
			3245,
			3246,
			3247,
			3248,
			3249
		]
	},
	{
		"ID": 325,
		"Name": "Royal Cavalry",
		"Resource": "",
		"PreTechIDs": [
			322
		],
		"PreTechLevel": [
			5
		],
		"RoomLevelRequired": 12,
		"SoldierIDRelated": [
			320
		],
		"IsSummon": false,
		"TechType": "TechDisplayType_SoldierLevelUp",
		"TechLevelupInfoList": [
			3250,
			3251,
			3252,
			3253,
			3254,
			3255,
			3256,
			3257,
			3258,
			3259
		]
	},
	{
		"ID": 401,
		"Name": "Basic ATK",
		"Resource": "UI/Icon/Drill_ABS/Drill_AtkADD.png",
		"RoomLevelRequired": 0,
		"ArmyIDRelated": [
			4,
			5
		],
		"IsSummon": false,
		"TechType": "TechDisplayType_SoldierTypeLevelUp",
		"TechLevelupInfoList": [
			4010,
			4011,
			4012,
			4013,
			4014
		]
	},
	{
		"ID": 402,
		"Name": "Basic DEF",
		"Resource": "UI/Icon/Drill_ABS/Drill_DefADD.png",
		"RoomLevelRequired": 0,
		"ArmyIDRelated": [
			4,
			5
		],
		"IsSummon": false,
		"TechType": "TechDisplayType_SoldierTypeLevelUp",
		"TechLevelupInfoList": [
			4020,
			4021,
			4022,
			4023,
			4024
		]
	},
	{
		"ID": 403,
		"Name": "Overall Survival",
		"Resource": "UI/Icon/Drill_ABS/Drill_HPMult.png",
		"PreTechIDs": [
			401
		],
		"PreTechLevel": [
			5
		],
		"RoomLevelRequired": 0,
		"ArmyIDRelated": [
			4,
			5
		],
		"IsSummon": false,
		"TechType": "TechDisplayType_SoldierTypeLevelUp",
		"TechLevelupInfoList": [
			4030,
			4031,
			4032,
			4033,
			4034,
			4035,
			4036,
			4037,
			4038,
			4039
		]
	},
	{
		"ID": 404,
		"Name": "Overall DEF",
		"Resource": "UI/Icon/Drill_ABS/Drill_DefMult.png",
		"PreTechIDs": [
			402
		],
		"PreTechLevel": [
			5
		],
		"RoomLevelRequired": 0,
		"ArmyIDRelated": [
			4,
			5
		],
		"IsSummon": false,
		"TechType": "TechDisplayType_SoldierTypeLevelUp",
		"TechLevelupInfoList": [
			4040,
			4041,
			4042,
			4043,
			4044,
			4045,
			4046,
			4047,
			4048,
			4049
		]
	},
	{
		"ID": 405,
		"Name": "Preemptive Strike",
		"Resource": "UI/Icon/Drill_ABS/Drill_FlyWater1.png",
		"PreTechIDs": [
			401
		],
		"PreTechLevel": [
			5
		],
		"RoomLevelRequired": 0,
		"ArmyIDRelated": [
			4,
			5
		],
		"IsSummon": false,
		"TechType": "TechDisplayType_SkillLevelUp",
		"TechLevelupInfoList": [
			4050,
			4051,
			4052,
			4053,
			4054,
			4055,
			4056,
			4057,
			4058,
			4059
		]
	},
	{
		"ID": 406,
		"Name": "Merman Lord",
		"Resource": "",
		"PreTechIDs": [
			405
		],
		"PreTechLevel": [
			5
		],
		"RoomLevelRequired": 0,
		"SoldierIDRelated": [
			501
		],
		"IsSummon": false,
		"TechType": "TechDisplayType_SoldierLevelUp",
		"TechLevelupInfoList": [
			4060,
			4061,
			4062,
			4063,
			4064
		]
	},
	{
		"ID": 407,
		"Name": "Griffin Rider",
		"Resource": "",
		"PreTechIDs": [
			403,
			404
		],
		"PreTechLevel": [
			5,
			5
		],
		"RoomLevelRequired": 0,
		"SoldierIDRelated": [
			401
		],
		"IsSummon": false,
		"TechType": "TechDisplayType_SoldierLevelUp",
		"TechLevelupInfoList": [
			4070,
			4071,
			4072,
			4073,
			4074
		]
	},
	{
		"ID": 408,
		"Name": "Griffin Knight",
		"Resource": "",
		"PreTechIDs": [
			407
		],
		"PreTechLevel": [
			5
		],
		"RoomLevelRequired": 10,
		"SoldierIDRelated": [
			402
		],
		"IsSummon": false,
		"TechType": "TechDisplayType_SoldierLevelUp",
		"TechLevelupInfoList": [
			4080,
			4081,
			4082,
			4083,
			4084,
			4085,
			4086,
			4087,
			4088,
			4089
		]
	},
	{
		"ID": 409,
		"Name": "Tide Master",
		"Resource": "",
		"PreTechIDs": [
			406
		],
		"PreTechLevel": [
			5
		],
		"RoomLevelRequired": 10,
		"SoldierIDRelated": [
			502
		],
		"IsSummon": false,
		"TechType": "TechDisplayType_SoldierLevelUp",
		"TechLevelupInfoList": [
			4090,
			4091,
			4092,
			4093,
			4094,
			4095,
			4096,
			4097,
			4098,
			4099
		]
	},
	{
		"ID": 410,
		"Name": "Lizardman",
		"Resource": "",
		"PreTechIDs": [
			406
		],
		"PreTechLevel": [
			5
		],
		"RoomLevelRequired": 12,
		"SoldierIDRelated": [
			510
		],
		"IsSummon": false,
		"TechType": "TechDisplayType_SoldierLevelUp",
		"TechLevelupInfoList": [
			4100,
			4101,
			4102,
			4103,
			4104,
			4105,
			4106,
			4107,
			4108,
			4109
		]
	},
	{
		"ID": 411,
		"Name": "Overall ATK",
		"Resource": "UI/Icon/Drill_ABS/Drill_AtkMult.png",
		"RoomLevelRequired": 0,
		"ArmyIDRelated": [
			4,
			5
		],
		"IsSummon": false,
		"TechType": "TechDisplayType_SoldierTypeLevelUp",
		"TechLevelupInfoList": [
			4110,
			4111,
			4112,
			4113,
			4114,
			4115,
			4116,
			4117,
			4118,
			4119
		]
	},
	{
		"ID": 412,
		"Name": "Advanced Survival",
		"Resource": "UI/Icon/Drill_ABS/Drill_HPAdd.png",
		"PreTechIDs": [
			411
		],
		"PreTechLevel": [
			5
		],
		"RoomLevelRequired": 0,
		"ArmyIDRelated": [
			4,
			5
		],
		"IsSummon": false,
		"TechType": "TechDisplayType_SoldierTypeLevelUp",
		"TechLevelupInfoList": [
			4120,
			4121,
			4122,
			4123,
			4124,
			4125,
			4126,
			4127,
			4128,
			4129,
			14120,
			14121,
			14122,
			14123,
			14124
		]
	},
	{
		"ID": 413,
		"Name": "Advanced DEF",
		"Resource": "UI/Icon/Drill_ABS/Drill_DefADD.png",
		"PreTechIDs": [
			411
		],
		"PreTechLevel": [
			5
		],
		"RoomLevelRequired": 0,
		"ArmyIDRelated": [
			4,
			5
		],
		"IsSummon": false,
		"TechType": "TechDisplayType_SoldierTypeLevelUp",
		"TechLevelupInfoList": [
			4130,
			4131,
			4132,
			4133,
			4134,
			4135,
			4136,
			4137,
			4138,
			4139,
			14130,
			14131,
			14132,
			14133,
			14134
		]
	},
	{
		"ID": 414,
		"Name": "Lesser Imp",
		"Resource": "",
		"PreTechIDs": [
			413
		],
		"PreTechLevel": [
			5
		],
		"RoomLevelRequired": 0,
		"SoldierIDRelated": [
			407
		],
		"IsSummon": false,
		"TechType": "TechDisplayType_SoldierLevelUp",
		"TechLevelupInfoList": [
			4140,
			4141,
			4142,
			4143,
			4144
		]
	},
	{
		"ID": 415,
		"Name": "Pegasus Rider",
		"Resource": "",
		"PreTechIDs": [
			412
		],
		"PreTechLevel": [
			5
		],
		"RoomLevelRequired": 0,
		"SoldierIDRelated": [
			416
		],
		"IsSummon": false,
		"TechType": "TechDisplayType_SoldierLevelUp",
		"TechLevelupInfoList": [
			4150,
			4151,
			4152,
			4153,
			4154
		]
	},
	{
		"ID": 416,
		"Name": "Lobster",
		"Resource": "",
		"PreTechIDs": [
			412
		],
		"PreTechLevel": [
			5
		],
		"RoomLevelRequired": 0,
		"SoldierIDRelated": [
			503
		],
		"IsSummon": false,
		"TechType": "TechDisplayType_SoldierLevelUp",
		"TechLevelupInfoList": [
			4160,
			4161,
			4162,
			4163,
			4164
		]
	},
	{
		"ID": 417,
		"Name": "Vampire Bat",
		"Resource": "",
		"PreTechIDs": [
			414
		],
		"PreTechLevel": [
			5
		],
		"RoomLevelRequired": 10,
		"SoldierIDRelated": [
			410
		],
		"IsSummon": false,
		"TechType": "TechDisplayType_SoldierLevelUp",
		"TechLevelupInfoList": [
			4170,
			4171,
			4172,
			4173,
			4174,
			4175,
			4176,
			4177,
			4178,
			4179
		]
	},
	{
		"ID": 418,
		"Name": "Holy Pegasus",
		"Resource": "",
		"PreTechIDs": [
			415
		],
		"PreTechLevel": [
			5
		],
		"RoomLevelRequired": 12,
		"SoldierIDRelated": [
			419
		],
		"IsSummon": false,
		"TechType": "TechDisplayType_SoldierLevelUp",
		"TechLevelupInfoList": [
			4180,
			4181,
			4182,
			4183,
			4184,
			4185,
			4186,
			4187,
			4188,
			4189
		]
	},
	{
		"ID": 419,
		"Name": "Lobster Behemoth",
		"Resource": "",
		"PreTechIDs": [
			416
		],
		"PreTechLevel": [
			5
		],
		"RoomLevelRequired": 10,
		"SoldierIDRelated": [
			504
		],
		"IsSummon": false,
		"TechType": "TechDisplayType_SoldierLevelUp",
		"TechLevelupInfoList": [
			4190,
			4191,
			4192,
			4193,
			4194,
			4195,
			4196,
			4197,
			4198,
			4199
		]
	},
	{
		"ID": 420,
		"Name": "Advanced ATK",
		"Resource": "UI/Icon/Drill_ABS/Drill_AtkADD.png",
		"RoomLevelRequired": 0,
		"ArmyIDRelated": [
			4,
			5
		],
		"IsSummon": false,
		"TechType": "TechDisplayType_SoldierTypeLevelUp",
		"TechLevelupInfoList": [
			4200,
			4201,
			4202,
			4203,
			4204,
			4205,
			4206,
			4207,
			4208,
			4209,
			14200,
			14201,
			14202,
			14203,
			14204
		]
	},
	{
		"ID": 421,
		"Name": "Core ATK",
		"Resource": "UI/Icon/Drill_ABS/Drill_AtkMult.png",
		"PreTechIDs": [
			420
		],
		"PreTechLevel": [
			5
		],
		"RoomLevelRequired": 0,
		"ArmyIDRelated": [
			4,
			5
		],
		"IsSummon": false,
		"TechType": "TechDisplayType_SoldierTypeLevelUp",
		"TechLevelupInfoList": [
			4210,
			4211,
			4212,
			4213,
			4214,
			4215,
			4216,
			4217,
			4218,
			4219,
			14210,
			14211,
			14212,
			14213,
			14214,
			14215,
			14216,
			14217,
			14218,
			14219
		]
	},
	{
		"ID": 422,
		"Name": "Core Survival",
		"Resource": "UI/Icon/Drill_ABS/Drill_HPMult.png",
		"RoomLevelRequired": 0,
		"ArmyIDRelated": [
			4,
			5
		],
		"IsSummon": false,
		"TechType": "TechDisplayType_SoldierTypeLevelUp",
		"TechLevelupInfoList": [
			4220,
			4221,
			4222,
			4223,
			4224,
			4225,
			4226,
			4227,
			4228,
			4229,
			14220,
			14221,
			14222,
			14223,
			14224,
			14225,
			14226,
			14227,
			14228,
			14229
		]
	},
	{
		"ID": 423,
		"Name": "Core DEF",
		"Resource": "UI/Icon/Drill_ABS/Drill_DefMult.png",
		"PreTechIDs": [
			422
		],
		"PreTechLevel": [
			5
		],
		"RoomLevelRequired": 0,
		"ArmyIDRelated": [
			4,
			5
		],
		"IsSummon": false,
		"TechType": "TechDisplayType_SoldierTypeLevelUp",
		"TechLevelupInfoList": [
			4230,
			4231,
			4232,
			4233,
			4234,
			4235,
			4236,
			4237,
			4238,
			4239,
			14230,
			14231,
			14232,
			14233,
			14234,
			14235,
			14236,
			14237,
			14238,
			14239
		]
	},
	{
		"ID": 424,
		"Name": "Amphibious Raid",
		"Resource": "UI/Icon/Drill_ABS/Drill_FlyWater2.png",
		"PreTechIDs": [
			420
		],
		"PreTechLevel": [
			5
		],
		"RoomLevelRequired": 0,
		"ArmyIDRelated": [
			4,
			5
		],
		"IsSummon": false,
		"TechType": "TechDisplayType_SkillLevelUp",
		"TechLevelupInfoList": [
			4240,
			4241,
			4242,
			4243,
			4244,
			4245,
			4246,
			4247,
			4248,
			4249
		]
	},
	{
		"ID": 425,
		"Name": "Aquatic Training",
		"Resource": "UI/Icon/Drill_ABS/Drill_Water1.png",
		"PreTechIDs": [
			421
		],
		"PreTechLevel": [
			5
		],
		"RoomLevelRequired": 10,
		"ArmyIDRelated": [
			5
		],
		"IsSummon": false,
		"TechType": "TechDisplayType_SkillLevelUp",
		"TechLevelupInfoList": [
			4250,
			4251,
			4252,
			4253,
			4254,
			4255,
			4256,
			4257,
			4258,
			4259
		]
	},
	{
		"ID": 426,
		"Name": "Aerobatics",
		"Resource": "UI/Icon/Drill_ABS/Drill_Fly1.png",
		"PreTechIDs": [
			423,
			424
		],
		"PreTechLevel": [
			5,
			5
		],
		"RoomLevelRequired": 10,
		"ArmyIDRelated": [
			4
		],
		"IsSummon": false,
		"TechType": "TechDisplayType_SkillLevelUp",
		"TechLevelupInfoList": [
			4260,
			4261,
			4262,
			4263,
			4264,
			4265,
			4266,
			4267,
			4268,
			4269
		]
	},
	{
		"ID": 427,
		"Name": "Leviathan",
		"Resource": "",
		"PreTechIDs": [
			425
		],
		"PreTechLevel": [
			5
		],
		"RoomLevelRequired": 12,
		"SoldierIDRelated": [
			507
		],
		"IsSummon": false,
		"TechType": "TechDisplayType_SoldierLevelUp",
		"TechLevelupInfoList": [
			4270,
			4271,
			4272,
			4273,
			4274,
			4275,
			4276,
			4277,
			4278,
			4279
		]
	},
	{
		"ID": 428,
		"Name": "Angel",
		"Resource": "",
		"PreTechIDs": [
			426
		],
		"PreTechLevel": [
			5
		],
		"RoomLevelRequired": 12,
		"SoldierIDRelated": [
			403
		],
		"IsSummon": false,
		"TechType": "TechDisplayType_SoldierLevelUp",
		"TechLevelupInfoList": [
			4280,
			4281,
			4282,
			4283,
			4284,
			4285,
			4286,
			4287,
			4288,
			4289
		]
	},
	{
		"ID": 429,
		"Name": "Gargoyle",
		"Resource": "",
		"PreTechIDs": [
			426
		],
		"PreTechLevel": [
			5
		],
		"RoomLevelRequired": 12,
		"SoldierIDRelated": [
			413
		],
		"IsSummon": false,
		"TechType": "TechDisplayType_SoldierLevelUp",
		"TechLevelupInfoList": [
			4290,
			4291,
			4292,
			4293,
			4294,
			4295,
			4296,
			4297,
			4298,
			4299
		]
	},
	{
		"ID": 501,
		"Name": "Basic ATK",
		"Resource": "UI/Icon/Drill_ABS/Drill_AtkADD.png",
		"RoomLevelRequired": 0,
		"ArmyIDRelated": [
			6,
			11
		],
		"IsSummon": false,
		"TechType": "TechDisplayType_SoldierTypeLevelUp",
		"TechLevelupInfoList": [
			5010,
			5011,
			5012,
			5013,
			5014
		]
	},
	{
		"ID": 502,
		"Name": "Basic DEF",
		"Resource": "UI/Icon/Drill_ABS/Drill_DefADD.png",
		"PreTechIDs": [
			501
		],
		"PreTechLevel": [
			5
		],
		"RoomLevelRequired": 0,
		"ArmyIDRelated": [
			6,
			11
		],
		"IsSummon": false,
		"TechType": "TechDisplayType_SoldierTypeLevelUp",
		"TechLevelupInfoList": [
			5020,
			5021,
			5022,
			5023,
			5024
		]
	},
	{
		"ID": 503,
		"Name": "Overall Survival",
		"Resource": "UI/Icon/Drill_ABS/Drill_HPMult.png",
		"PreTechIDs": [
			501
		],
		"PreTechLevel": [
			5
		],
		"RoomLevelRequired": 0,
		"ArmyIDRelated": [
			6,
			11
		],
		"IsSummon": false,
		"TechType": "TechDisplayType_SoldierTypeLevelUp",
		"TechLevelupInfoList": [
			5030,
			5031,
			5032,
			5033,
			5034,
			5035,
			5036,
			5037,
			5038,
			5039
		]
	},
	{
		"ID": 504,
		"Name": "Overall DEF",
		"Resource": "UI/Icon/Drill_ABS/Drill_DefMult.png",
		"PreTechIDs": [
			501
		],
		"PreTechLevel": [
			5
		],
		"RoomLevelRequired": 0,
		"ArmyIDRelated": [
			6,
			11
		],
		"IsSummon": false,
		"TechType": "TechDisplayType_SoldierTypeLevelUp",
		"TechLevelupInfoList": [
			5040,
			5041,
			5042,
			5043,
			5044,
			5045,
			5046,
			5047,
			5048,
			5049
		]
	},
	{
		"ID": 505,
		"Name": "Terrain Master Special",
		"Resource": "UI/Icon/Drill_ABS/Drill_BowAss1.png",
		"PreTechIDs": [
			502
		],
		"PreTechLevel": [
			5
		],
		"RoomLevelRequired": 0,
		"ArmyIDRelated": [
			6,
			11
		],
		"IsSummon": false,
		"TechType": "TechDisplayType_SkillLevelUp",
		"TechLevelupInfoList": [
			5050,
			5051,
			5052,
			5053,
			5054,
			5055,
			5056,
			5057,
			5058,
			5059
		]
	},
	{
		"ID": 506,
		"Name": "Elf",
		"Resource": "",
		"PreTechIDs": [
			503
		],
		"PreTechLevel": [
			5
		],
		"RoomLevelRequired": 0,
		"SoldierIDRelated": [
			601
		],
		"IsSummon": false,
		"TechType": "TechDisplayType_SoldierLevelUp",
		"TechLevelupInfoList": [
			5060,
			5061,
			5062,
			5063,
			5064
		]
	},
	{
		"ID": 507,
		"Name": "Sky Archer",
		"Resource": "",
		"PreTechIDs": [
			504,
			505
		],
		"PreTechLevel": [
			5,
			5
		],
		"RoomLevelRequired": 12,
		"SoldierIDRelated": [
			607
		],
		"IsSummon": false,
		"TechType": "TechDisplayType_SoldierLevelUp",
		"TechLevelupInfoList": [
			5070,
			5071,
			5072,
			5073,
			5074,
			5075,
			5076,
			5077,
			5078,
			5079
		]
	},
	{
		"ID": 508,
		"Name": "High Elf",
		"Resource": "",
		"PreTechIDs": [
			506
		],
		"PreTechLevel": [
			5
		],
		"RoomLevelRequired": 10,
		"SoldierIDRelated": [
			602
		],
		"IsSummon": false,
		"TechType": "TechDisplayType_SoldierLevelUp",
		"TechLevelupInfoList": [
			5080,
			5081,
			5082,
			5083,
			5084,
			5085,
			5086,
			5087,
			5088,
			5089
		]
	},
	{
		"ID": 509,
		"Name": "Overall ATK",
		"Resource": "UI/Icon/Drill_ABS/Drill_AtkMult.png",
		"RoomLevelRequired": 0,
		"ArmyIDRelated": [
			6,
			11
		],
		"IsSummon": false,
		"TechType": "TechDisplayType_SoldierTypeLevelUp",
		"TechLevelupInfoList": [
			5090,
			5091,
			5092,
			5093,
			5094,
			5095,
			5096,
			5097,
			5098,
			5099
		]
	},
	{
		"ID": 510,
		"Name": "Advanced Survival",
		"Resource": "UI/Icon/Drill_ABS/Drill_HPAdd.png",
		"PreTechIDs": [
			509
		],
		"PreTechLevel": [
			5
		],
		"RoomLevelRequired": 0,
		"ArmyIDRelated": [
			6,
			11
		],
		"IsSummon": false,
		"TechType": "TechDisplayType_SoldierTypeLevelUp",
		"TechLevelupInfoList": [
			5100,
			5101,
			5102,
			5103,
			5104,
			5105,
			5106,
			5107,
			5108,
			5109,
			15100,
			15101,
			15102,
			15103,
			15104
		]
	},
	{
		"ID": 511,
		"Name": "Dark Elf",
		"Resource": "",
		"PreTechIDs": [
			509
		],
		"PreTechLevel": [
			5
		],
		"RoomLevelRequired": 0,
		"SoldierIDRelated": [
			604
		],
		"IsSummon": false,
		"TechType": "TechDisplayType_SoldierLevelUp",
		"TechLevelupInfoList": [
			5110,
			5111,
			5112,
			5113,
			5114
		]
	},
	{
		"ID": 512,
		"Name": "Ballista",
		"Resource": "",
		"PreTechIDs": [
			510
		],
		"PreTechLevel": [
			5
		],
		"RoomLevelRequired": 0,
		"SoldierIDRelated": [
			603
		],
		"IsSummon": false,
		"TechType": "TechDisplayType_SoldierLevelUp",
		"TechLevelupInfoList": [
			5120,
			5121,
			5122,
			5123,
			5124
		]
	},
	{
		"ID": 513,
		"Name": "Thief",
		"Resource": "",
		"PreTechIDs": [
			510
		],
		"PreTechLevel": [
			5
		],
		"RoomLevelRequired": 0,
		"SoldierIDRelated": [
			1100
		],
		"IsSummon": false,
		"TechType": "TechDisplayType_SoldierLevelUp",
		"TechLevelupInfoList": [
			5130,
			5131,
			5132,
			5133,
			5134
		]
	},
	{
		"ID": 514,
		"Name": "Dark Elf Sniper",
		"Resource": "",
		"PreTechIDs": [
			511
		],
		"PreTechLevel": [
			5
		],
		"RoomLevelRequired": 10,
		"SoldierIDRelated": [
			610
		],
		"IsSummon": false,
		"TechType": "TechDisplayType_SoldierLevelUp",
		"TechLevelupInfoList": [
			5140,
			5141,
			5142,
			5143,
			5144,
			5145,
			5146,
			5147,
			5148,
			5149
		]
	},
	{
		"ID": 515,
		"Name": "Catapult",
		"Resource": "",
		"PreTechIDs": [
			512,
			514
		],
		"PreTechLevel": [
			5,
			5
		],
		"RoomLevelRequired": 12,
		"SoldierIDRelated": [
			616
		],
		"IsSummon": false,
		"TechType": "TechDisplayType_SoldierLevelUp",
		"TechLevelupInfoList": [
			5150,
			5151,
			5152,
			5153,
			5154,
			5155,
			5156,
			5157,
			5158,
			5159
		]
	},
	{
		"ID": 516,
		"Name": "Bandit",
		"Resource": "",
		"PreTechIDs": [
			513
		],
		"PreTechLevel": [
			5
		],
		"RoomLevelRequired": 10,
		"SoldierIDRelated": [
			1101
		],
		"IsSummon": false,
		"TechType": "TechDisplayType_SoldierLevelUp",
		"TechLevelupInfoList": [
			5160,
			5161,
			5162,
			5163,
			5164,
			5165,
			5166,
			5167,
			5168,
			5169
		]
	},
	{
		"ID": 517,
		"Name": "Advanced ATK",
		"Resource": "UI/Icon/Drill_ABS/Drill_AtkADD.png",
		"RoomLevelRequired": 0,
		"ArmyIDRelated": [
			6,
			11
		],
		"IsSummon": false,
		"TechType": "TechDisplayType_SoldierTypeLevelUp",
		"TechLevelupInfoList": [
			5170,
			5171,
			5172,
			5173,
			5174,
			5175,
			5176,
			5177,
			5178,
			5179,
			15170,
			15171,
			15172,
			15173,
			15174
		]
	},
	{
		"ID": 518,
		"Name": "Advanced DEF",
		"Resource": "UI/Icon/Drill_ABS/Drill_DefADD.png",
		"PreTechIDs": [
			517
		],
		"PreTechLevel": [
			5
		],
		"RoomLevelRequired": 0,
		"ArmyIDRelated": [
			6,
			11
		],
		"IsSummon": false,
		"TechType": "TechDisplayType_SoldierTypeLevelUp",
		"TechLevelupInfoList": [
			5180,
			5181,
			5182,
			5183,
			5184,
			5185,
			5186,
			5187,
			5188,
			5189,
			15180,
			15181,
			15182,
			15183,
			15184
		]
	},
	{
		"ID": 519,
		"Name": "Kunoichi",
		"Resource": "",
		"PreTechIDs": [
			518
		],
		"PreTechLevel": [
			5
		],
		"RoomLevelRequired": 0,
		"SoldierIDRelated": [
			1108
		],
		"IsSummon": false,
		"TechType": "TechDisplayType_SoldierLevelUp",
		"TechLevelupInfoList": [
			5190,
			5191,
			5192,
			5193,
			5194
		]
	},
	{
		"ID": 520,
		"Name": "Sharpshooter",
		"Resource": "",
		"PreTechIDs": [
			522
		],
		"PreTechLevel": [
			5
		],
		"RoomLevelRequired": 0,
		"SoldierIDRelated": [
			628
		],
		"IsSummon": false,
		"TechType": "TechDisplayType_SoldierLevelUp",
		"TechLevelupInfoList": [
			5200,
			5201,
			5202,
			5203,
			5204
		]
	},
	{
		"ID": 521,
		"Name": "Demon Hunter",
		"Resource": "",
		"PreTechIDs": [
			520
		],
		"PreTechLevel": [
			5
		],
		"RoomLevelRequired": 10,
		"SoldierIDRelated": [
			631
		],
		"IsSummon": false,
		"TechType": "TechDisplayType_SoldierLevelUp",
		"TechLevelupInfoList": [
			5210,
			5211,
			5212,
			5213,
			5214,
			5215,
			5216,
			5217,
			5218,
			5219
		]
	},
	{
		"ID": 522,
		"Name": "Shadow Strike",
		"Resource": "UI/Icon/Drill_ABS/Drill_BowAss2.png",
		"PreTechIDs": [
			517
		],
		"PreTechLevel": [
			5
		],
		"RoomLevelRequired": 0,
		"ArmyIDRelated": [
			6,
			11
		],
		"IsSummon": false,
		"TechType": "TechDisplayType_SkillLevelUp",
		"TechLevelupInfoList": [
			5220,
			5221,
			5222,
			5223,
			5224,
			5225,
			5226,
			5227,
			5228,
			5229
		]
	},
	{
		"ID": 523,
		"Name": "Mist Dancer",
		"Resource": "",
		"PreTechIDs": [
			519
		],
		"PreTechLevel": [
			5
		],
		"RoomLevelRequired": 12,
		"SoldierIDRelated": [
			1111
		],
		"IsSummon": false,
		"TechType": "TechDisplayType_SoldierLevelUp",
		"TechLevelupInfoList": [
			5230,
			5231,
			5232,
			5233,
			5234,
			5235,
			5236,
			5237,
			5238,
			5239
		]
	},
	{
		"ID": 524,
		"Name": "Bolt Ranger",
		"Resource": "",
		"PreTechIDs": [
			520
		],
		"PreTechLevel": [
			5
		],
		"RoomLevelRequired": 12,
		"SoldierIDRelated": [
			634
		],
		"IsSummon": false,
		"TechType": "TechDisplayType_SoldierLevelUp",
		"TechLevelupInfoList": [
			5240,
			5241,
			5242,
			5243,
			5244,
			5245,
			5246,
			5247,
			5248,
			5249
		]
	},
	{
		"ID": 525,
		"Name": "Core ATK",
		"Resource": "UI/Icon/Drill_ABS/Drill_AtkMult.png",
		"PreTechIDs": [
			527
		],
		"PreTechLevel": [
			5
		],
		"RoomLevelRequired": 0,
		"ArmyIDRelated": [
			6,
			11
		],
		"IsSummon": false,
		"TechType": "TechDisplayType_SoldierTypeLevelUp",
		"TechLevelupInfoList": [
			5250,
			5251,
			5252,
			5253,
			5254,
			5255,
			5256,
			5257,
			5258,
			5259,
			15250,
			15251,
			15252,
			15253,
			15254,
			15255,
			15256,
			15257,
			15258,
			15259
		]
	},
	{
		"ID": 526,
		"Name": "Core DEF",
		"Resource": "UI/Icon/Drill_ABS/Drill_DefMult.png",
		"PreTechIDs": [
			527
		],
		"PreTechLevel": [
			5
		],
		"RoomLevelRequired": 0,
		"ArmyIDRelated": [
			6,
			11
		],
		"IsSummon": false,
		"TechType": "TechDisplayType_SoldierTypeLevelUp",
		"TechLevelupInfoList": [
			5260,
			5261,
			5262,
			5263,
			5264,
			5265,
			5266,
			5267,
			5268,
			5269,
			15260,
			15261,
			15262,
			15263,
			15264,
			15265,
			15266,
			15267,
			15268,
			15269
		]
	},
	{
		"ID": 527,
		"Name": "Core Survival",
		"Resource": "UI/Icon/Drill_ABS/Drill_HPMult.png",
		"RoomLevelRequired": 0,
		"ArmyIDRelated": [
			6,
			11
		],
		"IsSummon": false,
		"TechType": "TechDisplayType_SoldierTypeLevelUp",
		"TechLevelupInfoList": [
			5270,
			5271,
			5272,
			5273,
			5274,
			5275,
			5276,
			5277,
			5278,
			5279,
			15270,
			15271,
			15272,
			15273,
			15274,
			15275,
			15276,
			15277,
			15278,
			15279
		]
	},
	{
		"ID": 528,
		"Name": "Killing Breath",
		"Resource": "UI/Icon/Drill_ABS/Drill_Ass1.png",
		"RoomLevelRequired": 10,
		"ArmyIDRelated": [
			11
		],
		"IsSummon": false,
		"TechType": "TechDisplayType_SkillLevelUp",
		"TechLevelupInfoList": [
			5280,
			5281,
			5282,
			5283,
			5284,
			5285,
			5286,
			5287,
			5288,
			5289
		]
	},
	{
		"ID": 529,
		"Name": "Jungle Ranger",
		"Resource": "UI/Icon/Drill_ABS/Drill_Bow1.png",
		"PreTechIDs": [
			526
		],
		"PreTechLevel": [
			5
		],
		"RoomLevelRequired": 10,
		"ArmyIDRelated": [
			6
		],
		"IsSummon": false,
		"TechType": "TechDisplayType_SkillLevelUp",
		"TechLevelupInfoList": [
			5290,
			5291,
			5292,
			5293,
			5294,
			5295,
			5296,
			5297,
			5298,
			5299
		]
	},
	{
		"ID": 530,
		"Name": "Samurai",
		"Resource": "",
		"PreTechIDs": [
			529
		],
		"PreTechLevel": [
			5
		],
		"RoomLevelRequired": 12,
		"SoldierIDRelated": [
			1104
		],
		"IsSummon": false,
		"TechType": "TechDisplayType_SoldierLevelUp",
		"TechLevelupInfoList": [
			5300,
			5301,
			5302,
			5303,
			5304,
			5305,
			5306,
			5307,
			5308,
			5309
		]
	},
	{
		"ID": 531,
		"Name": "Firebrand Sniper",
		"Resource": "",
		"PreTechIDs": [
			529
		],
		"PreTechLevel": [
			5
		],
		"RoomLevelRequired": 12,
		"SoldierIDRelated": [
			613
		],
		"IsSummon": false,
		"TechType": "TechDisplayType_SoldierLevelUp",
		"TechLevelupInfoList": [
			5310,
			5311,
			5312,
			5313,
			5314,
			5315,
			5316,
			5317,
			5318,
			5319
		]
	},
	{
		"ID": 532,
		"Name": "Shinobi",
		"Resource": "",
		"PreTechIDs": [
			525,
			528
		],
		"PreTechLevel": [
			5,
			5
		],
		"RoomLevelRequired": 12,
		"SoldierIDRelated": [
			1105
		],
		"IsSummon": false,
		"TechType": "TechDisplayType_SoldierLevelUp",
		"TechLevelupInfoList": [
			5320,
			5321,
			5322,
			5323,
			5324,
			5325,
			5326,
			5327,
			5328,
			5329
		]
	},
	{
		"ID": 601,
		"Name": "Basic ATK",
		"Resource": "UI/Icon/Drill_ABS/Drill_AtkADD.png",
		"RoomLevelRequired": 0,
		"ArmyIDRelated": [
			8,
			9,
			7
		],
		"IsSummon": false,
		"TechType": "TechDisplayType_SoldierTypeLevelUp",
		"TechLevelupInfoList": [
			6010,
			6011,
			6012,
			6013,
			6014
		]
	},
	{
		"ID": 602,
		"Name": "Basic DEF",
		"Resource": "UI/Icon/Drill_ABS/Drill_DefADD.png",
		"PreTechIDs": [
			601
		],
		"PreTechLevel": [
			5
		],
		"RoomLevelRequired": 0,
		"ArmyIDRelated": [
			8,
			9,
			7
		],
		"IsSummon": false,
		"TechType": "TechDisplayType_SoldierTypeLevelUp",
		"TechLevelupInfoList": [
			6020,
			6021,
			6022,
			6023,
			6024
		]
	},
	{
		"ID": 603,
		"Name": "Overall Survival",
		"Resource": "UI/Icon/Drill_ABS/Drill_HPMult.png",
		"PreTechIDs": [
			601
		],
		"PreTechLevel": [
			5
		],
		"RoomLevelRequired": 0,
		"ArmyIDRelated": [
			8,
			9,
			7
		],
		"IsSummon": false,
		"TechType": "TechDisplayType_SoldierTypeLevelUp",
		"TechLevelupInfoList": [
			6030,
			6031,
			6032,
			6033,
			6034,
			6035,
			6036,
			6037,
			6038,
			6039
		]
	},
	{
		"ID": 604,
		"Name": "Overall DEF",
		"Resource": "UI/Icon/Drill_ABS/Drill_DefMult.png",
		"PreTechIDs": [
			602
		],
		"PreTechLevel": [
			5
		],
		"RoomLevelRequired": 0,
		"ArmyIDRelated": [
			8,
			9,
			7
		],
		"IsSummon": false,
		"TechType": "TechDisplayType_SoldierTypeLevelUp",
		"TechLevelupInfoList": [
			6040,
			6041,
			6042,
			6043,
			6044,
			6045,
			6046,
			6047,
			6048,
			6049
		]
	},
	{
		"ID": 605,
		"Name": "Anti-Demon Special",
		"Resource": "UI/Icon/Drill_ABS/Drill_Monk1.png",
		"PreTechIDs": [
			601
		],
		"PreTechLevel": [
			5
		],
		"RoomLevelRequired": 0,
		"ArmyIDRelated": [
			8
		],
		"IsSummon": false,
		"TechType": "TechDisplayType_SkillLevelUp",
		"TechLevelupInfoList": [
			6050,
			6051,
			6052,
			6053,
			6054,
			6055,
			6056,
			6057,
			6058,
			6059
		]
	},
	{
		"ID": 606,
		"Name": "Inquisitor",
		"Resource": "",
		"PreTechIDs": [
			602
		],
		"PreTechLevel": [
			5
		],
		"RoomLevelRequired": 0,
		"SoldierIDRelated": [
			801
		],
		"IsSummon": false,
		"TechType": "TechDisplayType_SoldierLevelUp",
		"TechLevelupInfoList": [
			6060,
			6061,
			6062,
			6063,
			6064
		]
	},
	{
		"ID": 607,
		"Name": "Bishop",
		"Resource": "",
		"PreTechIDs": [
			606
		],
		"PreTechLevel": [
			5
		],
		"RoomLevelRequired": 10,
		"SoldierIDRelated": [
			802
		],
		"IsSummon": false,
		"TechType": "TechDisplayType_SoldierLevelUp",
		"TechLevelupInfoList": [
			6070,
			6071,
			6072,
			6073,
			6074,
			6075,
			6076,
			6077,
			6078,
			6079
		]
	},
	{
		"ID": 608,
		"Name": "Holy Knight",
		"Resource": "",
		"PreTechIDs": [
			603
		],
		"PreTechLevel": [
			5
		],
		"RoomLevelRequired": 12,
		"SoldierIDRelated": [
			805
		],
		"IsSummon": false,
		"TechType": "TechDisplayType_SoldierLevelUp",
		"TechLevelupInfoList": [
			6080,
			6081,
			6082,
			6083,
			6084,
			6085,
			6086,
			6087,
			6088,
			6089
		]
	},
	{
		"ID": 609,
		"Name": "Zealot",
		"Resource": "",
		"PreTechIDs": [
			606
		],
		"PreTechLevel": [
			5
		],
		"RoomLevelRequired": 12,
		"SoldierIDRelated": [
			812
		],
		"IsSummon": false,
		"TechType": "TechDisplayType_SoldierLevelUp",
		"TechLevelupInfoList": [
			6090,
			6091,
			6092,
			6093,
			6094,
			6095,
			6096,
			6097,
			6098,
			6099
		]
	},
	{
		"ID": 610,
		"Name": "Overall ATK",
		"Resource": "UI/Icon/Drill_ABS/Drill_AtkMult.png",
		"RoomLevelRequired": 0,
		"ArmyIDRelated": [
			8,
			9,
			7
		],
		"IsSummon": false,
		"TechType": "TechDisplayType_SoldierTypeLevelUp",
		"TechLevelupInfoList": [
			6100,
			6101,
			6102,
			6103,
			6104,
			6105,
			6106,
			6107,
			6108,
			6109
		]
	},
	{
		"ID": 611,
		"Name": "Advanced Survival",
		"Resource": "UI/Icon/Drill_ABS/Drill_HPAdd.png",
		"PreTechIDs": [
			610
		],
		"PreTechLevel": [
			5
		],
		"RoomLevelRequired": 0,
		"ArmyIDRelated": [
			8,
			9,
			7
		],
		"IsSummon": false,
		"TechType": "TechDisplayType_SoldierTypeLevelUp",
		"TechLevelupInfoList": [
			6110,
			6111,
			6112,
			6113,
			6114,
			6115,
			6116,
			6117,
			6118,
			6119,
			16110,
			16111,
			16112,
			16113,
			16114
		]
	},
	{
		"ID": 612,
		"Name": "Skeleton Archer",
		"Resource": "",
		"PreTechIDs": [
			611
		],
		"PreTechLevel": [
			5
		],
		"RoomLevelRequired": 0,
		"SoldierIDRelated": [
			1012
		],
		"IsSummon": false,
		"TechType": "TechDisplayType_SoldierLevelUp",
		"TechLevelupInfoList": [
			6120,
			6121,
			6122,
			6123,
			6124
		]
	},
	{
		"ID": 613,
		"Name": "Monk",
		"Resource": "",
		"PreTechIDs": [
			611
		],
		"PreTechLevel": [
			5
		],
		"RoomLevelRequired": 0,
		"SoldierIDRelated": [
			808
		],
		"IsSummon": false,
		"TechType": "TechDisplayType_SoldierLevelUp",
		"TechLevelupInfoList": [
			6130,
			6131,
			6132,
			6133,
			6134
		]
	},
	{
		"ID": 614,
		"Name": "Skeleton Warrior",
		"Resource": "",
		"PreTechIDs": [
			610
		],
		"PreTechLevel": [
			5
		],
		"RoomLevelRequired": 0,
		"SoldierIDRelated": [
			1003
		],
		"IsSummon": false,
		"TechType": "TechDisplayType_SoldierLevelUp",
		"TechLevelupInfoList": [
			6140,
			6141,
			6142,
			6143,
			6144
		]
	},
	{
		"ID": 615,
		"Name": "Skeleton Knight",
		"Resource": "",
		"PreTechIDs": [
			614
		],
		"PreTechLevel": [
			5
		],
		"RoomLevelRequired": 10,
		"SoldierIDRelated": [
			1006
		],
		"IsSummon": false,
		"TechType": "TechDisplayType_SoldierLevelUp",
		"TechLevelupInfoList": [
			6150,
			6151,
			6152,
			6153,
			6154,
			6155,
			6156,
			6157,
			6158,
			6159
		]
	},
	{
		"ID": 616,
		"Name": "Exorcist",
		"Resource": "",
		"PreTechIDs": [
			613
		],
		"PreTechLevel": [
			5
		],
		"RoomLevelRequired": 10,
		"SoldierIDRelated": [
			811
		],
		"IsSummon": false,
		"TechType": "TechDisplayType_SoldierLevelUp",
		"TechLevelupInfoList": [
			6160,
			6161,
			6162,
			6163,
			6164,
			6165,
			6166,
			6167,
			6168,
			6169
		]
	},
	{
		"ID": 617,
		"Name": "Hellfire Archer",
		"Resource": "",
		"PreTechIDs": [
			612
		],
		"PreTechLevel": [
			5
		],
		"RoomLevelRequired": 12,
		"SoldierIDRelated": [
			1015
		],
		"IsSummon": false,
		"TechType": "TechDisplayType_SoldierLevelUp",
		"TechLevelupInfoList": [
			6170,
			6171,
			6172,
			6173,
			6174,
			6175,
			6176,
			6177,
			6178,
			6179
		]
	},
	{
		"ID": 618,
		"Name": "Advanced ATK",
		"Resource": "UI/Icon/Drill_ABS/Drill_AtkADD.png",
		"RoomLevelRequired": 0,
		"ArmyIDRelated": [
			8,
			9,
			7
		],
		"IsSummon": false,
		"TechType": "TechDisplayType_SoldierTypeLevelUp",
		"TechLevelupInfoList": [
			6180,
			6181,
			6182,
			6183,
			6184,
			6185,
			6186,
			6187,
			6188,
			6189,
			16180,
			16181,
			16182,
			16183,
			16184
		]
	},
	{
		"ID": 619,
		"Name": "Advanced DEF",
		"Resource": "UI/Icon/Drill_ABS/Drill_DefADD.png",
		"PreTechIDs": [
			618
		],
		"PreTechLevel": [
			5
		],
		"RoomLevelRequired": 0,
		"ArmyIDRelated": [
			8,
			9,
			7
		],
		"IsSummon": false,
		"TechType": "TechDisplayType_SoldierTypeLevelUp",
		"TechLevelupInfoList": [
			6190,
			6191,
			6192,
			6193,
			6194,
			6195,
			6196,
			6197,
			6198,
			6199,
			16190,
			16191,
			16192,
			16193,
			16194
		]
	},
	{
		"ID": 620,
		"Name": "Thaumaturge",
		"Resource": "",
		"PreTechIDs": [
			618
		],
		"PreTechLevel": [
			5
		],
		"RoomLevelRequired": 0,
		"SoldierIDRelated": [
			618
		],
		"IsSummon": false,
		"TechType": "TechDisplayType_SoldierLevelUp",
		"TechLevelupInfoList": [
			6200,
			6201,
			6202,
			6203,
			6204
		]
	},
	{
		"ID": 621,
		"Name": "Witch",
		"Resource": "",
		"PreTechIDs": [
			618
		],
		"PreTechLevel": [
			5
		],
		"RoomLevelRequired": 0,
		"SoldierIDRelated": [
			619
		],
		"IsSummon": false,
		"TechType": "TechDisplayType_SoldierLevelUp",
		"TechLevelupInfoList": [
			6210,
			6211,
			6212,
			6213,
			6214
		]
	},
	{
		"ID": 622,
		"Name": "Magic Void",
		"Resource": "UI/Icon/Drill_ABS/Drill_Monster1.png",
		"PreTechIDs": [
			619
		],
		"PreTechLevel": [
			5
		],
		"RoomLevelRequired": 0,
		"ArmyIDRelated": [
			9,
			7
		],
		"IsSummon": false,
		"TechType": "TechDisplayType_SkillLevelUp",
		"TechLevelupInfoList": [
			6220,
			6221,
			6222,
			6223,
			6224,
			6225,
			6226,
			6227,
			6228,
			6229
		]
	},
	{
		"ID": 623,
		"Name": "Self-Suggestion",
		"Resource": "UI/Icon/Drill_ABS/Drill_Monster2.png",
		"PreTechIDs": [
			620
		],
		"PreTechLevel": [
			5
		],
		"RoomLevelRequired": 0,
		"ArmyIDRelated": [
			9,
			7
		],
		"IsSummon": false,
		"TechType": "TechDisplayType_SkillLevelUp",
		"TechLevelupInfoList": [
			6230,
			6231,
			6232,
			6233,
			6234,
			6235,
			6236,
			6237,
			6238,
			6239
		]
	},
	{
		"ID": 624,
		"Name": "Wizard",
		"Resource": "",
		"PreTechIDs": [
			623
		],
		"PreTechLevel": [
			5
		],
		"RoomLevelRequired": 10,
		"SoldierIDRelated": [
			621
		],
		"IsSummon": false,
		"TechType": "TechDisplayType_SoldierLevelUp",
		"TechLevelupInfoList": [
			6240,
			6241,
			6242,
			6243,
			6244,
			6245,
			6246,
			6247,
			6248,
			6249
		]
	},
	{
		"ID": 625,
		"Name": "Sorceress",
		"Resource": "",
		"PreTechIDs": [
			621,
			622
		],
		"PreTechLevel": [
			5,
			5
		],
		"RoomLevelRequired": 12,
		"SoldierIDRelated": [
			622
		],
		"IsSummon": false,
		"TechType": "TechDisplayType_SoldierLevelUp",
		"TechLevelupInfoList": [
			6250,
			6251,
			6252,
			6253,
			6254,
			6255,
			6256,
			6257,
			6258,
			6259
		]
	},
	{
		"ID": 626,
		"Name": "Core ATK",
		"Resource": "UI/Icon/Drill_ABS/Drill_AtkMult.png",
		"PreTechIDs": [
			627
		],
		"PreTechLevel": [
			5
		],
		"RoomLevelRequired": 0,
		"ArmyIDRelated": [
			8,
			9,
			7
		],
		"IsSummon": false,
		"TechType": "TechDisplayType_SoldierTypeLevelUp",
		"TechLevelupInfoList": [
			6260,
			6261,
			6262,
			6263,
			6264,
			6265,
			6266,
			6267,
			6268,
			6269,
			16260,
			16261,
			16262,
			16263,
			16264,
			16265,
			16266,
			16267,
			16268,
			16269
		]
	},
	{
		"ID": 627,
		"Name": "Core Survival",
		"Resource": "UI/Icon/Drill_ABS/Drill_HPMult.png",
		"RoomLevelRequired": 0,
		"ArmyIDRelated": [
			8,
			9,
			7
		],
		"IsSummon": false,
		"TechType": "TechDisplayType_SoldierTypeLevelUp",
		"TechLevelupInfoList": [
			6270,
			6271,
			6272,
			6273,
			6274,
			6275,
			6276,
			6277,
			6278,
			6279,
			16270,
			16271,
			16272,
			16273,
			16274,
			16275,
			16276,
			16277,
			16278,
			16279
		]
	},
	{
		"ID": 628,
		"Name": "Core DEF",
		"Resource": "UI/Icon/Drill_ABS/Drill_DefMult.png",
		"RoomLevelRequired": 0,
		"ArmyIDRelated": [
			8,
			9,
			7
		],
		"IsSummon": false,
		"TechType": "TechDisplayType_SoldierTypeLevelUp",
		"TechLevelupInfoList": [
			6280,
			6281,
			6282,
			6283,
			6284,
			6285,
			6286,
			6287,
			6288,
			6289,
			16280,
			16281,
			16282,
			16283,
			16284,
			16285,
			16286,
			16287,
			16288,
			16289
		]
	},
	{
		"ID": 629,
		"Name": "Pious Faith",
		"Resource": "UI/Icon/Drill_ABS/Drill_Monk2.png",
		"PreTechIDs": [
			626
		],
		"PreTechLevel": [
			5
		],
		"RoomLevelRequired": 10,
		"ArmyIDRelated": [
			8
		],
		"IsSummon": false,
		"TechType": "TechDisplayType_SkillLevelUp",
		"TechLevelupInfoList": [
			6290,
			6291,
			6292,
			6293,
			6294,
			6295,
			6296,
			6297,
			6298,
			6299
		]
	},
	{
		"ID": 630,
		"Name": "Holy Light Protection",
		"Resource": "UI/Icon/Drill_ABS/Drill_Monk3.png",
		"PreTechIDs": [
			627
		],
		"PreTechLevel": [
			5
		],
		"RoomLevelRequired": 10,
		"ArmyIDRelated": [
			8,
			7
		],
		"IsSummon": false,
		"TechType": "TechDisplayType_SkillLevelUp",
		"TechLevelupInfoList": [
			6300,
			6301,
			6302,
			6303,
			6304,
			6305,
			6306,
			6307,
			6308,
			6309
		]
	},
	{
		"ID": 631,
		"Name": "Armor Contamination",
		"Resource": "UI/Icon/Drill_ABS/Drill_Monster3.png",
		"PreTechIDs": [
			630,
			628
		],
		"PreTechLevel": [
			5,
			5
		],
		"RoomLevelRequired": 10,
		"ArmyIDRelated": [
			9
		],
		"IsSummon": false,
		"TechType": "TechDisplayType_SkillLevelUp",
		"TechLevelupInfoList": [
			6310,
			6311,
			6312,
			6313,
			6314,
			6315,
			6316,
			6317,
			6318,
			6319
		]
	},
	{
		"ID": 632,
		"Name": "Inquisitor",
		"Resource": "",
		"PreTechIDs": [
			629
		],
		"PreTechLevel": [
			5
		],
		"RoomLevelRequired": 12,
		"SoldierIDRelated": [
			804
		],
		"IsSummon": false,
		"TechType": "TechDisplayType_SoldierLevelUp",
		"TechLevelupInfoList": [
			6320,
			6321,
			6322,
			6323,
			6324,
			6325,
			6326,
			6327,
			6328,
			6329
		]
	},
	{
		"ID": 633,
		"Name": "Shrine Maiden",
		"Resource": "",
		"PreTechIDs": [
			629
		],
		"PreTechLevel": [
			5
		],
		"RoomLevelRequired": 12,
		"SoldierIDRelated": [
			806
		],
		"IsSummon": false,
		"TechType": "TechDisplayType_SoldierLevelUp",
		"TechLevelupInfoList": [
			6330,
			6331,
			6332,
			6333,
			6334,
			6335,
			6336,
			6337,
			6338,
			6339
		]
	},
	{
		"ID": 634,
		"Name": "Undead Knight",
		"Resource": "",
		"PreTechIDs": [
			631
		],
		"PreTechLevel": [
			5
		],
		"RoomLevelRequired": 12,
		"SoldierIDRelated": [
			1009
		],
		"IsSummon": false,
		"TechType": "TechDisplayType_SoldierLevelUp",
		"TechLevelupInfoList": [
			6340,
			6341,
			6342,
			6343,
			6344,
			6345,
			6346,
			6347,
			6348,
			6349
		]
	}
]