[
	{
		"ID": 1,
		"Name": "The Gift of the Goddess",
		"StoreId": "StoreId_Privilege",
		"ItemType": "GoodsType_MonthCard",
		"ItemId": 1,
		"Nums": 1,
		"ShowStartTime": "2017/12/14 3:30:30",
		"ShowEndTime": "",
		"IsOperateGoods": false,
		"BuyLimitType": "BuyRuleType_Forever",
		"Param": 0,
		"Count": 0,
		"FirstPrice": 9.99,
		"NormalPrice": 9.99,
		"Lable": "LabelType_None",
		"IsAppleSubscribe": false,
		"FirstBuyCompensation": 300,
		"NormalBuyCompensation": 300,
		"PlayerBuyMinLevel": 0,
		"Sort": 0,
		"IsRecommendDisplay": 0,
		"RecommendDisplayStartTime": "",
		"DiscountText": "",
		"BigAdvertisingImage": "",
		"Desc": "",
		"IsStrongRecommend": 0,
		"SmallAdvertisingImage": "",
		"RecommendDesc": "",
		"PreUnlockGoodsId": 0,
		"DollGroup": 0,
		"NotShowInStore": false,
		"OpenActivityIdAfterPurchase": 0,
		"IsHideItemList": false,
		"GiftType": "GiftType_Normal"
	},
	{
		"ID": 2,
		"Name": "The Flag of Courage",
		"StoreId": "StoreId_Privilege",
		"ItemType": "GoodsType_MonthCard",
		"ItemId": 2,
		"Nums": 1,
		"ShowStartTime": "2017/12/14 3:30:30",
		"ShowEndTime": "",
		"IsOperateGoods": false,
		"BuyLimitType": "BuyRuleType_Forever",
		"Param": 0,
		"Count": 0,
		"FirstPrice": 7.99,
		"NormalPrice": 7.99,
		"Lable": "LabelType_None",
		"IsAppleSubscribe": false,
		"FirstBuyCompensation": 240,
		"NormalBuyCompensation": 240,
		"PlayerBuyMinLevel": 0,
		"Sort": 0,
		"IsRecommendDisplay": 0,
		"RecommendDisplayStartTime": "2017/12/14 3:30:30",
		"DiscountText": "",
		"BigAdvertisingImage": "",
		"Desc": "",
		"IsStrongRecommend": 0,
		"SmallAdvertisingImage": "",
		"RecommendDesc": "",
		"PreUnlockGoodsId": 0,
		"DollGroup": 0,
		"NotShowInStore": false,
		"OpenActivityIdAfterPurchase": 0,
		"IsHideItemList": false,
		"GiftType": "GiftType_Normal"
	},
	{
		"ID": 3,
		"Name": "Clock of Forgiveness",
		"StoreId": "StoreId_Privilege",
		"ItemType": "GoodsType_MonthCard",
		"ItemId": 3,
		"Nums": 1,
		"ShowStartTime": "2017/12/14 3:30:30",
		"ShowEndTime": "",
		"IsOperateGoods": false,
		"BuyLimitType": "BuyRuleType_Forever",
		"Param": 0,
		"Count": 0,
		"FirstPrice": 0.99,
		"NormalPrice": 0.99,
		"Lable": "LabelType_None",
		"IsAppleSubscribe": true,
		"FirstBuyCompensation": 30,
		"NormalBuyCompensation": 30,
		"PlayerBuyMinLevel": 0,
		"Sort": 0,
		"IsRecommendDisplay": 0,
		"RecommendDisplayStartTime": "2017/12/14 3:30:30",
		"DiscountText": "",
		"BigAdvertisingImage": "",
		"Desc": "",
		"IsStrongRecommend": 0,
		"SmallAdvertisingImage": "",
		"RecommendDesc": "",
		"PreUnlockGoodsId": 0,
		"DollGroup": 0,
		"NotShowInStore": false,
		"OpenActivityIdAfterPurchase": 0,
		"IsHideItemList": false,
		"GiftType": "GiftType_Normal"
	},
	{
		"ID": 11,
		"Name": "Rose Gift Pack",
		"StoreId": "StoreId_Gift",
		"ItemType": "GoodsType_Item",
		"ItemId": 5000,
		"Nums": 1,
		"ShowStartTime": "2017/12/14 3:30:30",
		"ShowEndTime": "",
		"IsOperateGoods": false,
		"BuyLimitType": "BuyRuleType_Forever",
		"Param": 0,
		"Count": 1,
		"FirstPrice": 1.99,
		"NormalPrice": 1.99,
		"Lable": "LabelType_None",
		"IsAppleSubscribe": false,
		"FirstBuyCompensation": 60,
		"NormalBuyCompensation": 60,
		"PlayerBuyMinLevel": 0,
		"Sort": 1,
		"IsRecommendDisplay": 1,
		"RecommendDisplayStartTime": "2017/12/14 3:30",
		"DiscountText": "2000%",
		"BigAdvertisingImage": "UI/World_ABS/3/AD_004.png",
		"Desc": "Receive SR Hero <color=#FFFF00FF>Narm</color>\nand various ultra-value gifts! Can only be purchased once!",
		"IsStrongRecommend": 0,
		"SmallAdvertisingImage": "UI/Store_ABS/1/Store_Banner_08.png",
		"RecommendDesc": "Receive SR Hero <color=#FFFF00FF>Narm</color>\nand various ultra-value gifts! Can only be purchased once!",
		"PreUnlockGoodsId": 0,
		"DollGroup": 0,
		"NotShowInStore": false,
		"OpenActivityIdAfterPurchase": 0,
		"IsHideItemList": false,
		"GiftType": "GiftType_Normal"
	},
	{
		"ID": 14,
		"Name": "Daily Discount Gift Pack",
		"StoreId": "StoreId_Gift",
		"ItemType": "GoodsType_Item",
		"ItemId": 5003,
		"Nums": 1,
		"ShowStartTime": "2017/12/14 3:30:30",
		"ShowEndTime": "",
		"IsOperateGoods": false,
		"BuyLimitType": "BuyRuleType_FixedTime",
		"Param": 1,
		"Count": 1,
		"FirstPrice": 1.99,
		"NormalPrice": 1.99,
		"Lable": "LabelType_None",
		"IsAppleSubscribe": false,
		"FirstBuyCompensation": 60,
		"NormalBuyCompensation": 60,
		"PlayerBuyMinLevel": 0,
		"Sort": 14,
		"IsRecommendDisplay": 1,
		"RecommendDisplayStartTime": "2017/12/14 3:30",
		"DiscountText": "300%",
		"BigAdvertisingImage": "UI/World_ABS/3/AD_005.png",
		"Desc": "Receive <color=#FFFF00FF>150 Trinity Crystals</color>!\nCan purchase once per day!",
		"IsStrongRecommend": 0,
		"SmallAdvertisingImage": "UI/Store_ABS/1/Store_Banner_04.png",
		"RecommendDesc": "Receive <color=#FFFF00FF>150 Trinity Crystals</color>!\nCan purchase once per day!",
		"PreUnlockGoodsId": 0,
		"DollGroup": 0,
		"NotShowInStore": false,
		"OpenActivityIdAfterPurchase": 0,
		"IsHideItemList": false,
		"GiftType": "GiftType_Normal"
	},
	{
		"ID": 15,
		"Name": "Daily Summon Gift Pack",
		"StoreId": "StoreId_Gift",
		"ItemType": "GoodsType_Item",
		"ItemId": 5004,
		"Nums": 1,
		"ShowStartTime": "2017/12/14 3:30:30",
		"ShowEndTime": "",
		"IsOperateGoods": false,
		"BuyLimitType": "BuyRuleType_FixedTime",
		"Param": 1,
		"Count": 1,
		"FirstPrice": 3.99,
		"NormalPrice": 3.99,
		"Lable": "LabelType_None",
		"IsAppleSubscribe": false,
		"FirstBuyCompensation": 120,
		"NormalBuyCompensation": 120,
		"PlayerBuyMinLevel": 0,
		"Sort": 15,
		"IsRecommendDisplay": 1,
		"RecommendDisplayStartTime": "2017/12/14 3:30",
		"DiscountText": "240%",
		"BigAdvertisingImage": "UI/World_ABS/3/AD_006.png",
		"Desc": "Receive Trinity Vouchers and upgrade materials worth <color=#FFFF00FF>288</color> Trinity Crystals!\nCan purchase once per day!",
		"IsStrongRecommend": 0,
		"SmallAdvertisingImage": "UI/Store_ABS/1/Store_Banner_05.png",
		"RecommendDesc": "Receive Trinity Vouchers and upgrade materials worth <color=#FFFF00FF>288</color> Trinity Crystals!\nCan purchase once per day!",
		"PreUnlockGoodsId": 0,
		"DollGroup": 0,
		"NotShowInStore": false,
		"OpenActivityIdAfterPurchase": 0,
		"IsHideItemList": false,
		"GiftType": "GiftType_Normal"
	},
	{
		"ID": 29,
		"Name": "Weekend Stamina Gift Pack",
		"StoreId": "StoreId_Gift",
		"ItemType": "GoodsType_Item",
		"ItemId": 7025,
		"Nums": 1,
		"ShowStartTime": "2019/5/18 0:00:00",
		"ShowEndTime": "2019/5/19 23:59:59",
		"IsOperateGoods": false,
		"BuyLimitType": "BuyRuleType_FixedTime",
		"Param": 2,
		"Count": 1,
		"FirstPrice": 68.0,
		"NormalPrice": 68.0,
		"Lable": "LabelType_None",
		"IsAppleSubscribe": false,
		"FirstBuyCompensation": 340,
		"NormalBuyCompensation": 340,
		"PlayerBuyMinLevel": 0,
		"Sort": 0,
		"IsRecommendDisplay": 0,
		"RecommendDisplayStartTime": "2018/12/25 0:00:04",
		"DiscountText": "",
		"BigAdvertisingImage": "UI/CommonBG_ABS/BG_Church.png",
		"Desc": "",
		"IsStrongRecommend": 0,
		"SmallAdvertisingImage": "UI/Store_ABS/1/Store_Banner_02.png",
		"RecommendDesc": "",
		"PreUnlockGoodsId": 0,
		"DollGroup": 0,
		"NotShowInStore": false,
		"OpenActivityIdAfterPurchase": 0,
		"IsHideItemList": false,
		"GiftType": "GiftType_Normal"
	},
	{
		"ID": 30,
		"Name": "Training Master Gift Pack",
		"StoreId": "StoreId_Gift",
		"ItemType": "GoodsType_Item",
		"ItemId": 7026,
		"Nums": 1,
		"ShowStartTime": "2019/5/18 0:00:00",
		"ShowEndTime": "2019/5/19 23:59:59",
		"IsOperateGoods": false,
		"BuyLimitType": "BuyRuleType_FixedTime",
		"Param": 2,
		"Count": 1,
		"FirstPrice": 68.0,
		"NormalPrice": 68.0,
		"Lable": "LabelType_None",
		"IsAppleSubscribe": false,
		"FirstBuyCompensation": 340,
		"NormalBuyCompensation": 340,
		"PlayerBuyMinLevel": 0,
		"Sort": 0,
		"IsRecommendDisplay": 0,
		"RecommendDisplayStartTime": "2018/12/25 0:00:04",
		"DiscountText": "",
		"BigAdvertisingImage": "UI/CommonBG_ABS/BG_Church.png",
		"Desc": "",
		"IsStrongRecommend": 0,
		"SmallAdvertisingImage": "UI/Store_ABS/1/Store_Banner_09.png",
		"RecommendDesc": "",
		"PreUnlockGoodsId": 0,
		"DollGroup": 0,
		"NotShowInStore": false,
		"OpenActivityIdAfterPurchase": 0,
		"IsHideItemList": false,
		"GiftType": "GiftType_Normal"
	},
	{
		"ID": 31,
		"Name": "Model Hero Award Gift Pack",
		"StoreId": "StoreId_Gift",
		"ItemType": "GoodsType_Item",
		"ItemId": 7031,
		"Nums": 1,
		"ShowStartTime": "2019/5/1 0:00:00",
		"ShowEndTime": "2019/5/8 23:59:59",
		"IsOperateGoods": false,
		"BuyLimitType": "BuyRuleType_Forever",
		"Param": 0,
		"Count": 1,
		"FirstPrice": 128.0,
		"NormalPrice": 128.0,
		"Lable": "LabelType_None",
		"IsAppleSubscribe": false,
		"FirstBuyCompensation": 640,
		"NormalBuyCompensation": 640,
		"PlayerBuyMinLevel": 0,
		"Sort": 0,
		"IsRecommendDisplay": 0,
		"RecommendDisplayStartTime": "2018/12/25 0:00:04",
		"DiscountText": "",
		"BigAdvertisingImage": "UI/CommonBG_ABS/BG_Church.png",
		"Desc": "",
		"IsStrongRecommend": 0,
		"SmallAdvertisingImage": "UI/CommonBG_ABS/BG_Church.png",
		"RecommendDesc": "",
		"PreUnlockGoodsId": 0,
		"DollGroup": 0,
		"NotShowInStore": false,
		"OpenActivityIdAfterPurchase": 0,
		"IsHideItemList": false,
		"GiftType": "GiftType_Normal"
	},
	{
		"ID": 13,
		"Name": "Super Skin Gift Pack",
		"StoreId": "StoreId_Gift",
		"ItemType": "GoodsType_Item",
		"ItemId": 5002,
		"Nums": 1,
		"ShowStartTime": "2017/12/14 3:30:30",
		"ShowEndTime": "",
		"IsOperateGoods": false,
		"BuyLimitType": "BuyRuleType_Forever",
		"Param": 0,
		"Count": 1,
		"FirstPrice": 14.99,
		"NormalPrice": 14.99,
		"Lable": "LabelType_None",
		"IsAppleSubscribe": false,
		"FirstBuyCompensation": 450,
		"NormalBuyCompensation": 450,
		"PlayerBuyMinLevel": 0,
		"Sort": 0,
		"IsRecommendDisplay": 0,
		"RecommendDisplayStartTime": "2017/12/14 3:30",
		"DiscountText": "",
		"BigAdvertisingImage": "UI/CommonBG_ABS/BG_Church.png",
		"Desc": "",
		"IsStrongRecommend": 0,
		"SmallAdvertisingImage": "UI/Store_ABS/1/Store_Banner_01.png",
		"RecommendDesc": "",
		"PreUnlockGoodsId": 0,
		"DollGroup": 0,
		"NotShowInStore": false,
		"OpenActivityIdAfterPurchase": 0,
		"IsHideItemList": false,
		"GiftType": "GiftType_Normal"
	},
	{
		"ID": 16,
		"Name": "Skin Voucher Gift Pack",
		"StoreId": "StoreId_Gift",
		"ItemType": "GoodsType_Item",
		"ItemId": 5005,
		"Nums": 1,
		"ShowStartTime": "2017/12/14 3:30:30",
		"ShowEndTime": "",
		"IsOperateGoods": false,
		"BuyLimitType": "BuyRuleType_Forever",
		"Param": 0,
		"Count": 0,
		"FirstPrice": 19.99,
		"NormalPrice": 19.99,
		"Lable": "LabelType_None",
		"IsAppleSubscribe": false,
		"FirstBuyCompensation": 600,
		"NormalBuyCompensation": 600,
		"PlayerBuyMinLevel": 0,
		"Sort": 0,
		"IsRecommendDisplay": 0,
		"RecommendDisplayStartTime": "2017/12/14 3:30",
		"DiscountText": "",
		"BigAdvertisingImage": "UI/CommonBG_ABS/BG_Church.png",
		"Desc": "",
		"IsStrongRecommend": 0,
		"SmallAdvertisingImage": "UI/Store_ABS/1/Store_Banner_07.png",
		"RecommendDesc": "",
		"PreUnlockGoodsId": 0,
		"DollGroup": 0,
		"NotShowInStore": false,
		"OpenActivityIdAfterPurchase": 0,
		"IsHideItemList": false,
		"GiftType": "GiftType_Normal"
	},
	{
		"ID": 12,
		"Name": "Rune Stone Gift Pack",
		"StoreId": "StoreId_Gift",
		"ItemType": "GoodsType_Item",
		"ItemId": 5001,
		"Nums": 1,
		"ShowStartTime": "2017/12/14 3:30:30",
		"ShowEndTime": "",
		"IsOperateGoods": false,
		"BuyLimitType": "BuyRuleType_Forever",
		"Param": 0,
		"Count": 1,
		"FirstPrice": 29.99,
		"NormalPrice": 29.99,
		"Lable": "LabelType_None",
		"IsAppleSubscribe": false,
		"FirstBuyCompensation": 900,
		"NormalBuyCompensation": 900,
		"PlayerBuyMinLevel": 0,
		"Sort": 0,
		"IsRecommendDisplay": 0,
		"RecommendDisplayStartTime": "2017/12/14 3:30",
		"DiscountText": "",
		"BigAdvertisingImage": "UI/CommonBG_ABS/BG_Church.png",
		"Desc": "Receive <color=#FFFF00FF>3 Rune Stones</color>!\nCan only be purchased once!",
		"IsStrongRecommend": 0,
		"SmallAdvertisingImage": "UI/Store_ABS/1/Store_Banner_06.png",
		"RecommendDesc": "Receive <color=#FFFF00FF>3 Rune Stones</color>!\nCan only be purchased once!",
		"PreUnlockGoodsId": 0,
		"DollGroup": 0,
		"NotShowInStore": false,
		"OpenActivityIdAfterPurchase": 0,
		"IsHideItemList": false,
		"GiftType": "GiftType_Normal"
	},
	{
		"ID": 17,
		"Name": "Guild License",
		"StoreId": "StoreId_Gift",
		"ItemType": "GoodsType_Item",
		"ItemId": 3012,
		"Nums": 1,
		"ShowStartTime": "2017/12/14 3:30:30",
		"ShowEndTime": "",
		"IsOperateGoods": false,
		"BuyLimitType": "BuyRuleType_Forever",
		"Param": 0,
		"Count": 0,
		"FirstPrice": 0.99,
		"NormalPrice": 0.99,
		"Lable": "LabelType_None",
		"IsAppleSubscribe": false,
		"FirstBuyCompensation": 30,
		"NormalBuyCompensation": 30,
		"PlayerBuyMinLevel": 0,
		"Sort": 0,
		"IsRecommendDisplay": 0,
		"RecommendDisplayStartTime": "2017/12/14 3:30",
		"DiscountText": "",
		"BigAdvertisingImage": "UI/CommonBG_ABS/BG_Church.png",
		"Desc": "",
		"IsStrongRecommend": 0,
		"SmallAdvertisingImage": "UI/Store_ABS/1/Store_Banner_03.png",
		"RecommendDesc": "",
		"PreUnlockGoodsId": 0,
		"DollGroup": 0,
		"NotShowInStore": false,
		"OpenActivityIdAfterPurchase": 0,
		"IsHideItemList": false,
		"GiftType": "GiftType_Normal"
	},
	{
		"ID": 18,
		"Name": "Commander Growth Gift Pack",
		"StoreId": "StoreId_Gift",
		"ItemType": "GoodsType_Item",
		"ItemId": 7000,
		"Nums": 1,
		"ShowStartTime": "2017/12/14 3:30:30",
		"ShowEndTime": "",
		"IsOperateGoods": false,
		"BuyLimitType": "BuyRuleType_Forever",
		"Param": 0,
		"Count": 1,
		"FirstPrice": 168.0,
		"NormalPrice": 168.0,
		"Lable": "LabelType_None",
		"IsAppleSubscribe": false,
		"FirstBuyCompensation": 5040,
		"NormalBuyCompensation": 5040,
		"PlayerBuyMinLevel": 0,
		"Sort": 0,
		"IsRecommendDisplay": 0,
		"RecommendDisplayStartTime": "2017/12/14 3:30",
		"DiscountText": "",
		"BigAdvertisingImage": "UI/CommonBG_ABS/BG_Church.png",
		"Desc": "",
		"IsStrongRecommend": 0,
		"SmallAdvertisingImage": "UI/Store_ABS/1/Store_Banner_10.png",
		"RecommendDesc": "",
		"PreUnlockGoodsId": 0,
		"DollGroup": 0,
		"NotShowInStore": false,
		"OpenActivityIdAfterPurchase": 0,
		"IsHideItemList": false,
		"GiftType": "GiftType_Normal"
	},
	{
		"ID": 19,
		"Name": "Gym Treasure Chest",
		"StoreId": "StoreId_Gift",
		"ItemType": "GoodsType_Item",
		"ItemId": 7003,
		"Nums": 1,
		"ShowStartTime": "2017/12/14 3:30:30",
		"ShowEndTime": "",
		"IsOperateGoods": false,
		"BuyLimitType": "BuyRuleType_WeekTime",
		"Param": 0,
		"Count": 1,
		"FirstPrice": 128.0,
		"NormalPrice": 128.0,
		"Lable": "LabelType_None",
		"IsAppleSubscribe": false,
		"FirstBuyCompensation": 640,
		"NormalBuyCompensation": 640,
		"PlayerBuyMinLevel": 50,
		"Sort": 0,
		"IsRecommendDisplay": 0,
		"RecommendDisplayStartTime": "2017/12/14 3:30:30",
		"DiscountText": "",
		"BigAdvertisingImage": "UI/CommonBG_ABS/BG_Church.png",
		"Desc": "",
		"IsStrongRecommend": 0,
		"SmallAdvertisingImage": "UI/Store_ABS/1/Store_Banner_09.png",
		"RecommendDesc": "",
		"PreUnlockGoodsId": 0,
		"DollGroup": 0,
		"NotShowInStore": false,
		"OpenActivityIdAfterPurchase": 0,
		"IsHideItemList": false,
		"GiftType": "GiftType_Normal"
	},
	{
		"ID": 20,
		"Name": "Yuletide Blessing Gift Pack",
		"StoreId": "StoreId_Gift",
		"ItemType": "GoodsType_Item",
		"ItemId": 7006,
		"Nums": 1,
		"ShowStartTime": "2018/12/25 0:00:00",
		"ShowEndTime": "2019/1/2 23:59:59",
		"IsOperateGoods": false,
		"BuyLimitType": "BuyRuleType_Forever",
		"Param": 0,
		"Count": 1,
		"FirstPrice": 88.0,
		"NormalPrice": 88.0,
		"Lable": "LabelType_None",
		"IsAppleSubscribe": false,
		"FirstBuyCompensation": 440,
		"NormalBuyCompensation": 440,
		"PlayerBuyMinLevel": 0,
		"Sort": 0,
		"IsRecommendDisplay": 0,
		"RecommendDisplayStartTime": "2018/12/25 0:00:00",
		"DiscountText": "",
		"BigAdvertisingImage": "UI/CommonBG_ABS/BG_Church.png",
		"Desc": "",
		"IsStrongRecommend": 0,
		"SmallAdvertisingImage": "UI/CommonBG_ABS/BG_Church.png",
		"RecommendDesc": "",
		"PreUnlockGoodsId": 0,
		"DollGroup": 0,
		"NotShowInStore": false,
		"OpenActivityIdAfterPurchase": 0,
		"IsHideItemList": false,
		"GiftType": "GiftType_Normal"
	},
	{
		"ID": 21,
		"Name": "Heart of Ice Gift Pack",
		"StoreId": "StoreId_Gift",
		"ItemType": "GoodsType_Item",
		"ItemId": 7007,
		"Nums": 1,
		"ShowStartTime": "2018/12/25 0:00:00",
		"ShowEndTime": "2019/1/2 23:59:59",
		"IsOperateGoods": false,
		"BuyLimitType": "BuyRuleType_Forever",
		"Param": 0,
		"Count": 2,
		"FirstPrice": 328.0,
		"NormalPrice": 328.0,
		"Lable": "LabelType_None",
		"IsAppleSubscribe": false,
		"FirstBuyCompensation": 1640,
		"NormalBuyCompensation": 1640,
		"PlayerBuyMinLevel": 0,
		"Sort": 0,
		"IsRecommendDisplay": 0,
		"RecommendDisplayStartTime": "2018/12/25 0:00:00",
		"DiscountText": "",
		"BigAdvertisingImage": "UI/CommonBG_ABS/BG_Church.png",
		"Desc": "",
		"IsStrongRecommend": 0,
		"SmallAdvertisingImage": "UI/CommonBG_ABS/BG_Church.png",
		"RecommendDesc": "",
		"PreUnlockGoodsId": 0,
		"DollGroup": 0,
		"NotShowInStore": false,
		"OpenActivityIdAfterPurchase": 0,
		"IsHideItemList": false,
		"GiftType": "GiftType_Normal"
	},
	{
		"ID": 22,
		"Name": "Treasure Gift Packs",
		"StoreId": "StoreId_Gift",
		"ItemType": "GoodsType_Item",
		"ItemId": 7009,
		"Nums": 1,
		"ShowStartTime": "2019/2/4 0:00:00",
		"ShowEndTime": "2019/2/13 23:59:59",
		"IsOperateGoods": false,
		"BuyLimitType": "BuyRuleType_Forever",
		"Param": 0,
		"Count": 2,
		"FirstPrice": 328.0,
		"NormalPrice": 328.0,
		"Lable": "LabelType_None",
		"IsAppleSubscribe": false,
		"FirstBuyCompensation": 1640,
		"NormalBuyCompensation": 1640,
		"PlayerBuyMinLevel": 0,
		"Sort": 0,
		"IsRecommendDisplay": 0,
		"RecommendDisplayStartTime": "2018/12/25 0:00:01",
		"DiscountText": "",
		"BigAdvertisingImage": "UI/CommonBG_ABS/BG_Church.png",
		"Desc": "",
		"IsStrongRecommend": 0,
		"SmallAdvertisingImage": "UI/CommonBG_ABS/BG_Church.png",
		"RecommendDesc": "",
		"PreUnlockGoodsId": 0,
		"DollGroup": 0,
		"NotShowInStore": false,
		"OpenActivityIdAfterPurchase": 0,
		"IsHideItemList": false,
		"GiftType": "GiftType_Normal"
	},
	{
		"ID": 23,
		"Name": "Spring Festival Gift Packs",
		"StoreId": "StoreId_Gift",
		"ItemType": "GoodsType_Item",
		"ItemId": 7010,
		"Nums": 1,
		"ShowStartTime": "2019/2/4 0:00:00",
		"ShowEndTime": "2019/2/13 23:59:59",
		"IsOperateGoods": false,
		"BuyLimitType": "BuyRuleType_FixedTime",
		"Param": 1,
		"Count": 1,
		"FirstPrice": 12.0,
		"NormalPrice": 12.0,
		"Lable": "LabelType_None",
		"IsAppleSubscribe": false,
		"FirstBuyCompensation": 60,
		"NormalBuyCompensation": 60,
		"PlayerBuyMinLevel": 0,
		"Sort": 0,
		"IsRecommendDisplay": 0,
		"RecommendDisplayStartTime": "2018/12/25 0:00:02",
		"DiscountText": "",
		"BigAdvertisingImage": "UI/CommonBG_ABS/BG_Church.png",
		"Desc": "",
		"IsStrongRecommend": 0,
		"SmallAdvertisingImage": "UI/CommonBG_ABS/BG_Church.png",
		"RecommendDesc": "",
		"PreUnlockGoodsId": 0,
		"DollGroup": 0,
		"NotShowInStore": false,
		"OpenActivityIdAfterPurchase": 0,
		"IsHideItemList": false,
		"GiftType": "GiftType_Normal"
	},
	{
		"ID": 24,
		"Name": "Festival Fortune Bag",
		"StoreId": "StoreId_Gift",
		"ItemType": "GoodsType_Item",
		"ItemId": 7011,
		"Nums": 1,
		"ShowStartTime": "2019/2/4 0:00:00",
		"ShowEndTime": "2019/2/13 23:59:59",
		"IsOperateGoods": false,
		"BuyLimitType": "BuyRuleType_Forever",
		"Param": 0,
		"Count": 1,
		"FirstPrice": 128.0,
		"NormalPrice": 128.0,
		"Lable": "LabelType_None",
		"IsAppleSubscribe": false,
		"FirstBuyCompensation": 640,
		"NormalBuyCompensation": 640,
		"PlayerBuyMinLevel": 0,
		"Sort": 0,
		"IsRecommendDisplay": 0,
		"RecommendDisplayStartTime": "2018/12/25 0:00:03",
		"DiscountText": "",
		"BigAdvertisingImage": "UI/CommonBG_ABS/BG_Church.png",
		"Desc": "",
		"IsStrongRecommend": 0,
		"SmallAdvertisingImage": "UI/CommonBG_ABS/BG_Church.png",
		"RecommendDesc": "",
		"PreUnlockGoodsId": 0,
		"DollGroup": 0,
		"NotShowInStore": false,
		"OpenActivityIdAfterPurchase": 0,
		"IsHideItemList": false,
		"GiftType": "GiftType_Normal"
	},
	{
		"ID": 25,
		"Name": "Happiness Enchant Gifts",
		"StoreId": "StoreId_Gift",
		"ItemType": "GoodsType_Item",
		"ItemId": 7019,
		"Nums": 1,
		"ShowStartTime": "2019/1/17 0:00:00",
		"ShowEndTime": "2019/1/23 23:59:59",
		"IsOperateGoods": false,
		"BuyLimitType": "BuyRuleType_Forever",
		"Param": 0,
		"Count": 1,
		"FirstPrice": 168.0,
		"NormalPrice": 168.0,
		"Lable": "LabelType_None",
		"IsAppleSubscribe": false,
		"FirstBuyCompensation": 840,
		"NormalBuyCompensation": 840,
		"PlayerBuyMinLevel": 0,
		"Sort": 0,
		"IsRecommendDisplay": 0,
		"RecommendDisplayStartTime": "2018/12/25 0:00:04",
		"DiscountText": "",
		"BigAdvertisingImage": "UI/CommonBG_ABS/BG_Church.png",
		"Desc": "",
		"IsStrongRecommend": 0,
		"SmallAdvertisingImage": "UI/CommonBG_ABS/BG_Church.png",
		"RecommendDesc": "",
		"PreUnlockGoodsId": 0,
		"DollGroup": 0,
		"NotShowInStore": false,
		"OpenActivityIdAfterPurchase": 0,
		"IsHideItemList": false,
		"GiftType": "GiftType_Normal"
	},
	{
		"ID": 26,
		"Name": "Weekend Bond Gift Pack",
		"StoreId": "StoreId_Gift",
		"ItemType": "GoodsType_Item",
		"ItemId": 7023,
		"Nums": 1,
		"ShowStartTime": "2019/3/16 0:00:00",
		"ShowEndTime": "2019/3/17 23:59:59",
		"IsOperateGoods": false,
		"BuyLimitType": "BuyRuleType_WeekTime",
		"Param": 0,
		"Count": 1,
		"FirstPrice": 98.0,
		"NormalPrice": 98.0,
		"Lable": "LabelType_None",
		"IsAppleSubscribe": false,
		"FirstBuyCompensation": 490,
		"NormalBuyCompensation": 490,
		"PlayerBuyMinLevel": 0,
		"Sort": 0,
		"IsRecommendDisplay": 0,
		"RecommendDisplayStartTime": "",
		"DiscountText": "",
		"BigAdvertisingImage": "",
		"Desc": "",
		"IsStrongRecommend": 0,
		"SmallAdvertisingImage": "",
		"RecommendDesc": "",
		"PreUnlockGoodsId": 0,
		"DollGroup": 0,
		"NotShowInStore": false,
		"OpenActivityIdAfterPurchase": 0,
		"IsHideItemList": false,
		"GiftType": "GiftType_Normal"
	},
	{
		"ID": 27,
		"Name": "Elite Enchant Pack",
		"StoreId": "StoreId_Gift",
		"ItemType": "GoodsType_Item",
		"ItemId": 7019,
		"Nums": 1,
		"ShowStartTime": "2019/3/21 0:00:00",
		"ShowEndTime": "2019/3/27 23:59:59",
		"IsOperateGoods": false,
		"BuyLimitType": "BuyRuleType_FixedTime",
		"Param": 7,
		"Count": 1,
		"FirstPrice": 168.0,
		"NormalPrice": 168.0,
		"Lable": "LabelType_None",
		"IsAppleSubscribe": false,
		"FirstBuyCompensation": 840,
		"NormalBuyCompensation": 840,
		"PlayerBuyMinLevel": 0,
		"Sort": 0,
		"IsRecommendDisplay": 0,
		"RecommendDisplayStartTime": "2018/12/25 0:00:04",
		"DiscountText": "",
		"BigAdvertisingImage": "UI/CommonBG_ABS/BG_Church.png",
		"Desc": "",
		"IsStrongRecommend": 0,
		"SmallAdvertisingImage": "UI/Store_ABS/1/Store_Banner_02.png",
		"RecommendDesc": "",
		"PreUnlockGoodsId": 0,
		"DollGroup": 0,
		"NotShowInStore": false,
		"OpenActivityIdAfterPurchase": 0,
		"IsHideItemList": false,
		"GiftType": "GiftType_Normal"
	},
	{
		"ID": 28,
		"Name": "Class Master Gift Pack",
		"StoreId": "StoreId_Gift",
		"ItemType": "GoodsType_Item",
		"ItemId": 7024,
		"Nums": 1,
		"ShowStartTime": "2019/5/16 0:00:00",
		"ShowEndTime": "2019/5/22 23:59:59",
		"IsOperateGoods": false,
		"BuyLimitType": "BuyRuleType_FixedTime",
		"Param": 7,
		"Count": 1,
		"FirstPrice": 328.0,
		"NormalPrice": 328.0,
		"Lable": "LabelType_None",
		"IsAppleSubscribe": false,
		"FirstBuyCompensation": 1640,
		"NormalBuyCompensation": 1640,
		"PlayerBuyMinLevel": 0,
		"Sort": 0,
		"IsRecommendDisplay": 0,
		"RecommendDisplayStartTime": "2018/12/25 0:00:04",
		"DiscountText": "",
		"BigAdvertisingImage": "UI/CommonBG_ABS/BG_Church.png",
		"Desc": "",
		"IsStrongRecommend": 0,
		"SmallAdvertisingImage": "UI/Store_ABS/1/Store_Banner_10.png",
		"RecommendDesc": "",
		"PreUnlockGoodsId": 0,
		"DollGroup": 0,
		"NotShowInStore": false,
		"OpenActivityIdAfterPurchase": 0,
		"IsHideItemList": false,
		"GiftType": "GiftType_Normal"
	},
	{
		"ID": 9,
		"Name": "Springtime Summon Pack",
		"StoreId": "StoreId_Gift",
		"ItemType": "GoodsType_Item",
		"ItemId": 60001,
		"Nums": 1,
		"ShowStartTime": "2019/3/21 2:00:00",
		"ShowEndTime": "2019/3/27 23:59:59",
		"IsOperateGoods": false,
		"BuyLimitType": "BuyRuleType_Forever",
		"Param": 0,
		"Count": 1,
		"FirstPrice": 19.99,
		"NormalPrice": 19.99,
		"Lable": "LabelType_None",
		"IsAppleSubscribe": false,
		"FirstBuyCompensation": 600,
		"NormalBuyCompensation": 600,
		"PlayerBuyMinLevel": 0,
		"Sort": 0,
		"IsRecommendDisplay": 0,
		"RecommendDisplayStartTime": "2017/12/14 3:30",
		"DiscountText": "353%",
		"BigAdvertisingImage": "UI/World_ABS/3/AD_001.png",
		"Desc": "Receive <color=#FFFF00FF>692</color> Trinity Crystals\nand additional Trinity Vouchers worth <color=#FFFF00FF>1,320</color> Trinity Crystals!",
		"IsStrongRecommend": 0,
		"SmallAdvertisingImage": "UI/Store_ABS/1/Store_AD_01.png",
		"RecommendDesc": "Receive <color=#FFFF00FF>692</color> Trinity Crystals\nand additional Trinity Vouchers worth <color=#FFFF00FF>1,320</color> Trinity Crystals!",
		"PreUnlockGoodsId": 0,
		"DollGroup": 0,
		"NotShowInStore": false,
		"OpenActivityIdAfterPurchase": 0,
		"IsHideItemList": false,
		"GiftType": "GiftType_Normal"
	},
	{
		"ID": 10,
		"Name": "Springtime SSR Weapon Pack",
		"StoreId": "StoreId_Gift",
		"ItemType": "GoodsType_Item",
		"ItemId": 60002,
		"Nums": 1,
		"ShowStartTime": "2019/3/21 2:00:00",
		"ShowEndTime": "2019/3/27 23:59:59",
		"IsOperateGoods": false,
		"BuyLimitType": "BuyRuleType_Forever",
		"Param": 0,
		"Count": 1,
		"FirstPrice": 49.99,
		"NormalPrice": 49.99,
		"Lable": "LabelType_None",
		"IsAppleSubscribe": false,
		"FirstBuyCompensation": 1500,
		"NormalBuyCompensation": 1500,
		"PlayerBuyMinLevel": 0,
		"Sort": 0,
		"IsRecommendDisplay": 0,
		"RecommendDisplayStartTime": "2017/12/14 3:30",
		"DiscountText": "341%",
		"BigAdvertisingImage": "UI/World_ABS/3/AD_002.png",
		"Desc": "Receive <color=#FFFF00FF>1,772</color> Trinity Crystals,\nand additional SSR Weapon, and upgrade materials worth <color=#FFFF00FF>3,240</color> Trinity Crystals!",
		"IsStrongRecommend": 0,
		"SmallAdvertisingImage": "UI/Store_ABS/1/Store_AD_02.png",
		"RecommendDesc": "Receive <color=#FFFF00FF>1,772</color> Trinity Crystals,\nand additional SSR Weapon, and upgrade materials worth <color=#FFFF00FF>3,240</color> Trinity Crystals!",
		"PreUnlockGoodsId": 0,
		"DollGroup": 0,
		"NotShowInStore": false,
		"OpenActivityIdAfterPurchase": 0,
		"IsHideItemList": false,
		"GiftType": "GiftType_Normal"
	},
	{
		"ID": 60003,
		"Name": "Springtime Training Pack",
		"StoreId": "StoreId_Gift",
		"ItemType": "GoodsType_Item",
		"ItemId": 60003,
		"Nums": 1,
		"ShowStartTime": "2019/3/21 2:00:00",
		"ShowEndTime": "2019/3/27 23:59:59",
		"IsOperateGoods": false,
		"BuyLimitType": "BuyRuleType_Forever",
		"Param": 0,
		"Count": 1,
		"FirstPrice": 9.99,
		"NormalPrice": 9.99,
		"Lable": "LabelType_None",
		"IsAppleSubscribe": false,
		"FirstBuyCompensation": 300,
		"NormalBuyCompensation": 300,
		"PlayerBuyMinLevel": 0,
		"Sort": 0,
		"IsRecommendDisplay": 0,
		"RecommendDisplayStartTime": "2017/12/14 3:30",
		"DiscountText": "363%",
		"BigAdvertisingImage": "UI/World_ABS/3/AD_003.png",
		"Desc": "Receive <color=#FFFF00FF>342</color> Trinity Crystals\nand additional Soldier Training materials worth <color=#FFFF00FF>638</color> Trinity Crystals!",
		"IsStrongRecommend": 0,
		"SmallAdvertisingImage": "UI/Store_ABS/1/Store_AD_03.png",
		"RecommendDesc": "Receive <color=#FFFF00FF>342</color> Trinity Crystals\nand additional Soldier Training materials worth <color=#FFFF00FF>638</color> Trinity Crystals!",
		"PreUnlockGoodsId": 0,
		"DollGroup": 0,
		"NotShowInStore": false,
		"OpenActivityIdAfterPurchase": 0,
		"IsHideItemList": false,
		"GiftType": "GiftType_Normal"
	},
	{
		"ID": 60008,
		"Name": "Elite Enchant Pack",
		"StoreId": "StoreId_Gift",
		"ItemType": "GoodsType_Item",
		"ItemId": 60008,
		"Nums": 1,
		"ShowStartTime": "2019/4/4 1:00:00",
		"ShowEndTime": "",
		"IsOperateGoods": false,
		"BuyLimitType": "BuyRuleType_WeekTime",
		"Param": 0,
		"Count": 1,
		"FirstPrice": 49.99,
		"NormalPrice": 49.99,
		"Lable": "LabelType_None",
		"IsAppleSubscribe": false,
		"FirstBuyCompensation": 1500,
		"NormalBuyCompensation": 1500,
		"PlayerBuyMinLevel": 0,
		"Sort": 11,
		"IsRecommendDisplay": 1,
		"RecommendDisplayStartTime": "2017/12/14 3:30:30",
		"DiscountText": "338%",
		"BigAdvertisingImage": "UI/World_ABS/3/AD_008.png",
		"Desc": "Receive <color=#FFFF00FF>1,772</color> Trinity Crystals, random SSR Enchant Packs, and various other items worth an additional <color=#FFFF00FF>3,300</color> Trinity Crystals!",
		"IsStrongRecommend": 0,
		"SmallAdvertisingImage": "UI/Store_ABS/1/Store_Banner_02.png",
		"RecommendDesc": "Receive <color=#FFFF00FF>1,772</color> Trinity Crystals, random SSR Enchant Packs, and various other items worth an additional <color=#FFFF00FF>3,300</color> Trinity Crystals!",
		"PreUnlockGoodsId": 0,
		"DollGroup": 0,
		"NotShowInStore": false,
		"OpenActivityIdAfterPurchase": 0,
		"IsHideItemList": false,
		"GiftType": "GiftType_Normal"
	},
	{
		"ID": 60009,
		"Name": "Gym Treasure Chest",
		"StoreId": "StoreId_Gift",
		"ItemType": "GoodsType_Item",
		"ItemId": 60009,
		"Nums": 1,
		"ShowStartTime": "2019/5/2 1:00:00",
		"ShowEndTime": "",
		"IsOperateGoods": false,
		"BuyLimitType": "BuyRuleType_WeekTime",
		"Param": 0,
		"Count": 1,
		"FirstPrice": 19.99,
		"NormalPrice": 19.99,
		"Lable": "LabelType_None",
		"IsAppleSubscribe": false,
		"FirstBuyCompensation": 600,
		"NormalBuyCompensation": 600,
		"PlayerBuyMinLevel": 0,
		"Sort": 9,
		"IsRecommendDisplay": 1,
		"RecommendDisplayStartTime": "2017/12/14 3:30:30",
		"DiscountText": "315%",
		"BigAdvertisingImage": "UI/World_ABS/3/AD_009.png",
		"Desc": "Receive <color=#FFFF00FF>692</color> Trinity Crystals, as well as Rare Soldier Training materials and various other items worth an additional <color=#FFFF00FF>1,200</color> Trinity Crystals!",
		"IsStrongRecommend": 0,
		"SmallAdvertisingImage": "UI/Store_ABS/1/Store_Banner_09.png",
		"RecommendDesc": "Receive <color=#FFFF00FF>692</color> Trinity Crystals, as well as Rare Soldier Training materials and various other items worth an additional <color=#FFFF00FF>1,200</color> Trinity Crystals!",
		"PreUnlockGoodsId": 0,
		"DollGroup": 0,
		"NotShowInStore": false,
		"OpenActivityIdAfterPurchase": 0,
		"IsHideItemList": false,
		"GiftType": "GiftType_Normal"
	},
	{
		"ID": 60010,
		"Name": "Huge Trinity Voucher Giftbox",
		"StoreId": "StoreId_Gift",
		"ItemType": "GoodsType_Item",
		"ItemId": 60010,
		"Nums": 1,
		"ShowStartTime": "2019/4/18 1:00:00",
		"ShowEndTime": "2019/5/1 23:59:59",
		"IsOperateGoods": false,
		"BuyLimitType": "BuyRuleType_Forever",
		"Param": 0,
		"Count": 1,
		"FirstPrice": 19.99,
		"NormalPrice": 19.99,
		"Lable": "LabelType_None",
		"IsAppleSubscribe": false,
		"FirstBuyCompensation": 600,
		"NormalBuyCompensation": 600,
		"PlayerBuyMinLevel": 0,
		"Sort": 0,
		"IsRecommendDisplay": 0,
		"RecommendDisplayStartTime": "2017/12/14 3:30:30",
		"DiscountText": "335%",
		"BigAdvertisingImage": "UI/World_ABS/3/AD_001.png",
		"Desc": "Receive <color=#FFFF00FF>692</color> Trinity Crystals\nand additional Trinity Vouchers worth <color=#FFFF00FF>1,320</color> Trinity Crystals!",
		"IsStrongRecommend": 1,
		"SmallAdvertisingImage": "UI/Store_ABS/1/Store_AD_01.png",
		"RecommendDesc": "Receive <color=#FFFF00FF>692</color> Trinity Crystals\nand additional Trinity Vouchers worth <color=#FFFF00FF>1,320</color> Trinity Crystals!",
		"PreUnlockGoodsId": 0,
		"DollGroup": 0,
		"NotShowInStore": false,
		"OpenActivityIdAfterPurchase": 0,
		"IsHideItemList": false,
		"GiftType": "GiftType_Normal"
	},
	{
		"ID": 60011,
		"Name": "Class Master Supply Box",
		"StoreId": "StoreId_Gift",
		"ItemType": "GoodsType_Item",
		"ItemId": 60011,
		"Nums": 1,
		"ShowStartTime": "2019/4/18 1:00:00",
		"ShowEndTime": "2019/5/1 23:59:59",
		"IsOperateGoods": false,
		"BuyLimitType": "BuyRuleType_Forever",
		"Param": 0,
		"Count": 1,
		"FirstPrice": 99.99,
		"NormalPrice": 99.99,
		"Lable": "LabelType_None",
		"IsAppleSubscribe": false,
		"FirstBuyCompensation": 3000,
		"NormalBuyCompensation": 3000,
		"PlayerBuyMinLevel": 0,
		"Sort": 0,
		"IsRecommendDisplay": 0,
		"RecommendDisplayStartTime": "2017/12/14 3:30:30",
		"DiscountText": "332%",
		"BigAdvertisingImage": "UI/World_ABS/3/AD_011.png",
		"Desc": "Receive <color=#FFFF00FF>3,600</color> Trinity Crystals,\nRune Stone, and other items worth an additional <color=#FFFF00FF>6,350</color> Trinity Crystals!",
		"IsStrongRecommend": 1,
		"SmallAdvertisingImage": "UI/Store_ABS/1/Store_AD_011.png",
		"RecommendDesc": "Receive <color=#FFFF00FF>3,600</color> Trinity Crystals,\nRune Stone, and other items worth an additional <color=#FFFF00FF>6,350</color> Trinity Crystals!",
		"PreUnlockGoodsId": 0,
		"DollGroup": 0,
		"NotShowInStore": false,
		"OpenActivityIdAfterPurchase": 0,
		"IsHideItemList": false,
		"GiftType": "GiftType_Normal"
	},
	{
		"ID": 60012,
		"Name": "Ultra-Value Accessory Pack",
		"StoreId": "StoreId_Gift",
		"ItemType": "GoodsType_Item",
		"ItemId": 60012,
		"Nums": 1,
		"ShowStartTime": "2019/4/18 1:00:00",
		"ShowEndTime": "2019/5/1 23:59:59",
		"IsOperateGoods": false,
		"BuyLimitType": "BuyRuleType_Forever",
		"Param": 0,
		"Count": 1,
		"FirstPrice": 49.99,
		"NormalPrice": 49.99,
		"Lable": "LabelType_None",
		"IsAppleSubscribe": false,
		"FirstBuyCompensation": 1500,
		"NormalBuyCompensation": 1500,
		"PlayerBuyMinLevel": 0,
		"Sort": 0,
		"IsRecommendDisplay": 0,
		"RecommendDisplayStartTime": "2017/12/14 3:30:30",
		"DiscountText": "375%",
		"BigAdvertisingImage": "UI/World_ABS/3/AD_012.png",
		"Desc": "Receive <color=#FFFF00FF>1,772</color> Trinity Crystals, a\nRandom SSR Accessory, and other items worth an additional <color=#FFFF00FF>3,850</color> Trinity Crystals!",
		"IsStrongRecommend": 1,
		"SmallAdvertisingImage": "UI/Store_ABS/1/Store_AD_012.png",
		"RecommendDesc": "Receive <color=#FFFF00FF>1,772</color> Trinity Crystals, a\nRandom SSR Accessory, and other items worth an additional <color=#FFFF00FF>3,850</color> Trinity Crystals!",
		"PreUnlockGoodsId": 0,
		"DollGroup": 0,
		"NotShowInStore": false,
		"OpenActivityIdAfterPurchase": 0,
		"IsHideItemList": false,
		"GiftType": "GiftType_Normal"
	},
	{
		"ID": 60013,
		"Name": "Bond Booster Pack",
		"StoreId": "StoreId_Gift",
		"ItemType": "GoodsType_Item",
		"ItemId": 60013,
		"Nums": 1,
		"ShowStartTime": "2019/4/25 1:00:00",
		"ShowEndTime": "",
		"IsOperateGoods": false,
		"BuyLimitType": "BuyRuleType_WeekTime",
		"Param": 0,
		"Count": 1,
		"FirstPrice": 9.99,
		"NormalPrice": 9.99,
		"Lable": "LabelType_None",
		"IsAppleSubscribe": false,
		"FirstBuyCompensation": 300,
		"NormalBuyCompensation": 300,
		"PlayerBuyMinLevel": 0,
		"Sort": 10,
		"IsRecommendDisplay": 1,
		"RecommendDisplayStartTime": "2017/12/14 3:30:30",
		"DiscountText": "314%",
		"BigAdvertisingImage": "UI/World_ABS/3/AD_013.png",
		"Desc": "Receive <color=#FFFF00FF>342</color> Trinity Crystals, Bursting Heart Keys, and other items worth an additional <color=#FFFF00FF>600</color> Trinity Crystals!",
		"IsStrongRecommend": 0,
		"SmallAdvertisingImage": "UI/Store_ABS/1/Store_AD_013.png",
		"RecommendDesc": "Receive <color=#FFFF00FF>342</color> Trinity Crystals, Bursting Heart Keys, and other items worth an additional <color=#FFFF00FF>600</color> Trinity Crystals!",
		"PreUnlockGoodsId": 0,
		"DollGroup": 0,
		"NotShowInStore": false,
		"OpenActivityIdAfterPurchase": 0,
		"IsHideItemList": false,
		"GiftType": "GiftType_Normal"
	},
	{
		"ID": 60014,
		"Name": "Limited-edition Skin Pack",
		"StoreId": "StoreId_Gift",
		"ItemType": "GoodsType_Item",
		"ItemId": 60014,
		"Nums": 1,
		"ShowStartTime": "2019/4/11 1:00:00",
		"ShowEndTime": "2019/4/17 23:59:59",
		"IsOperateGoods": false,
		"BuyLimitType": "BuyRuleType_Forever",
		"Param": 0,
		"Count": 1,
		"FirstPrice": 19.99,
		"NormalPrice": 19.99,
		"Lable": "LabelType_None",
		"IsAppleSubscribe": false,
		"FirstBuyCompensation": 600,
		"NormalBuyCompensation": 600,
		"PlayerBuyMinLevel": 0,
		"Sort": 0,
		"IsRecommendDisplay": 0,
		"RecommendDisplayStartTime": "2017/12/14 3:30:30",
		"DiscountText": "330%",
		"BigAdvertisingImage": "UI/World_ABS/3/AD_010.png",
		"Desc": "Receive <color=#FFFF00FF>692</color> Trinity Crystals and the Soldier Skins and Skin Vouchers below worth an additional <color=#FFFF00FF>1,290</color> Trinity Crystals!",
		"IsStrongRecommend": 0,
		"SmallAdvertisingImage": "UI/Store_ABS/1/Store_AD_010.png",
		"RecommendDesc": "Receive <color=#FFFF00FF>692</color> Trinity Crystals and the Soldier Skins and Skin Vouchers below worth an additional <color=#FFFF00FF>1,290</color> Trinity Crystals!",
		"PreUnlockGoodsId": 0,
		"DollGroup": 0,
		"NotShowInStore": false,
		"OpenActivityIdAfterPurchase": 0,
		"IsHideItemList": false,
		"GiftType": "GiftType_Normal"
	},
	{
		"ID": 60018,
		"Name": "Gold Pack",
		"StoreId": "StoreId_Gift",
		"ItemType": "GoodsType_Item",
		"ItemId": 60018,
		"Nums": 1,
		"ShowStartTime": "2019/5/2 1:00:00",
		"ShowEndTime": "",
		"IsOperateGoods": false,
		"BuyLimitType": "BuyRuleType_WeekTime",
		"Param": 0,
		"Count": 1,
		"FirstPrice": 9.99,
		"NormalPrice": 9.99,
		"Lable": "LabelType_None",
		"IsAppleSubscribe": false,
		"FirstBuyCompensation": 300,
		"NormalBuyCompensation": 300,
		"PlayerBuyMinLevel": 0,
		"Sort": 12,
		"IsRecommendDisplay": 1,
		"RecommendDisplayStartTime": "2017/12/14 3:30:30",
		"DiscountText": "330%",
		"BigAdvertisingImage": "UI/TextImages/English_PackageBanner_ABS/AD_016.png",
		"Desc": "Receive <color=#FFFF00FF>342</color> Trinity Crystals\nand additional Gold worth <color=#FFFF00FF>400</color> Trinity Crystals!",
		"IsStrongRecommend": 0,
		"SmallAdvertisingImage": "UI/Store_ABS/1/Store_AD_016.png",
		"RecommendDesc": "Receive <color=#FFFF00FF>342</color> Trinity Crystals\nand additional Gold worth <color=#FFFF00FF>400</color> Trinity Crystals!",
		"PreUnlockGoodsId": 0,
		"DollGroup": 0,
		"NotShowInStore": false,
		"OpenActivityIdAfterPurchase": 0,
		"IsHideItemList": false,
		"GiftType": "GiftType_Normal"
	},
	{
		"ID": 60019,
		"Name": "Big Burger Pack",
		"StoreId": "StoreId_Gift",
		"ItemType": "GoodsType_Item",
		"ItemId": 60019,
		"Nums": 1,
		"ShowStartTime": "2019/5/2 1:00:00",
		"ShowEndTime": "",
		"IsOperateGoods": false,
		"BuyLimitType": "BuyRuleType_WeekTime",
		"Param": 0,
		"Count": 1,
		"FirstPrice": 4.99,
		"NormalPrice": 4.99,
		"Lable": "LabelType_None",
		"IsAppleSubscribe": false,
		"FirstBuyCompensation": 150,
		"NormalBuyCompensation": 150,
		"PlayerBuyMinLevel": 0,
		"Sort": 13,
		"IsRecommendDisplay": 1,
		"RecommendDisplayStartTime": "2017/12/14 3:30:30",
		"DiscountText": "330%",
		"BigAdvertisingImage": "UI/TextImages/English_PackageBanner_ABS/AD_015.png",
		"Desc": "Receive <color=#FFFF00FF>168</color> Trinity Crystals\nand additional Bro's Big Burgers worth <color=#FFFF00FF>120</color> Trinity Crystals!",
		"IsStrongRecommend": 0,
		"SmallAdvertisingImage": "UI/Store_ABS/1/Store_AD_015.png",
		"RecommendDesc": "Receive <color=#FFFF00FF>168</color> Trinity Crystals\nand additional Bro's Big Burgers worth <color=#FFFF00FF>120</color> Trinity Crystals!",
		"PreUnlockGoodsId": 0,
		"DollGroup": 0,
		"NotShowInStore": false,
		"OpenActivityIdAfterPurchase": 0,
		"IsHideItemList": false,
		"GiftType": "GiftType_Normal"
	},
	{
		"ID": 60020,
		"Name": "Ultra-Value Weapon Pack",
		"StoreId": "StoreId_Gift",
		"ItemType": "GoodsType_Item",
		"ItemId": 60002,
		"Nums": 1,
		"ShowStartTime": "2019/5/2 1:00:00",
		"ShowEndTime": "2019/5/15 23:59:59",
		"IsOperateGoods": false,
		"BuyLimitType": "BuyRuleType_Forever",
		"Param": 0,
		"Count": 1,
		"FirstPrice": 49.99,
		"NormalPrice": 49.99,
		"Lable": "LabelType_None",
		"IsAppleSubscribe": false,
		"FirstBuyCompensation": 1500,
		"NormalBuyCompensation": 1500,
		"PlayerBuyMinLevel": 0,
		"Sort": 0,
		"IsRecommendDisplay": 0,
		"RecommendDisplayStartTime": "2017/12/14 3:30",
		"DiscountText": "341%",
		"BigAdvertisingImage": "UI/World_ABS/3/AD_002.png",
		"Desc": "Receive <color=#FFFF00FF>1,772</color> Trinity Crystals,\nand additional SSR Weapon, and upgrade materials worth <color=#FFFF00FF>3,240</color> Trinity Crystals!",
		"IsStrongRecommend": 0,
		"SmallAdvertisingImage": "UI/Store_ABS/1/Store_AD_02.png",
		"RecommendDesc": "Receive <color=#FFFF00FF>1,772</color> Trinity Crystals,\nand additional SSR Weapon, and upgrade materials worth <color=#FFFF00FF>3,240</color> Trinity Crystals!",
		"PreUnlockGoodsId": 0,
		"DollGroup": 0,
		"NotShowInStore": false,
		"OpenActivityIdAfterPurchase": 0,
		"IsHideItemList": false,
		"GiftType": "GiftType_Normal"
	},
	{
		"ID": 60021,
		"Name": "Skin Voucher Pack",
		"StoreId": "StoreId_Gift",
		"ItemType": "GoodsType_Item",
		"ItemId": 60021,
		"Nums": 1,
		"ShowStartTime": "2019/5/16 1:00:00",
		"ShowEndTime": "2019/5/29 23:59:59",
		"IsOperateGoods": false,
		"BuyLimitType": "BuyRuleType_Forever",
		"Param": 0,
		"Count": 1,
		"FirstPrice": 19.99,
		"NormalPrice": 19.99,
		"Lable": "LabelType_None",
		"IsAppleSubscribe": false,
		"FirstBuyCompensation": 600,
		"NormalBuyCompensation": 600,
		"PlayerBuyMinLevel": 0,
		"Sort": 6,
		"IsRecommendDisplay": 1,
		"RecommendDisplayStartTime": "2017/12/14 3:30",
		"DiscountText": "197%",
		"BigAdvertisingImage": "UI/TextImages/English_PackageBanner_ABS/AD_007.png",
		"Desc": "Receive <color=#FFFF00FF>692</color> Trinity Crystals\nand additional Skin Vouchers worth <color=#FFFF00FF>490</color> Trinity Crystals!",
		"IsStrongRecommend": 1,
		"SmallAdvertisingImage": "UI/Store_ABS/1/Store_Banner_07.png",
		"RecommendDesc": "Receive <color=#FFFF00FF>692</color> Trinity Crystals\nand additional Skin Vouchers worth <color=#FFFF00FF>490</color> Trinity Crystals!",
		"PreUnlockGoodsId": 0,
		"DollGroup": 0,
		"NotShowInStore": false,
		"OpenActivityIdAfterPurchase": 0,
		"IsHideItemList": false,
		"GiftType": "GiftType_Normal"
	},
	{
		"ID": 60022,
		"Name": "Class Master Supply Box",
		"StoreId": "StoreId_Gift",
		"ItemType": "GoodsType_Item",
		"ItemId": 60011,
		"Nums": 1,
		"ShowStartTime": "2019/5/16 1:00:00",
		"ShowEndTime": "2019/5/29 23:59:59",
		"IsOperateGoods": false,
		"BuyLimitType": "BuyRuleType_Forever",
		"Param": 0,
		"Count": 1,
		"FirstPrice": 99.99,
		"NormalPrice": 99.99,
		"Lable": "LabelType_None",
		"IsAppleSubscribe": false,
		"FirstBuyCompensation": 3000,
		"NormalBuyCompensation": 3000,
		"PlayerBuyMinLevel": 0,
		"Sort": 5,
		"IsRecommendDisplay": 1,
		"RecommendDisplayStartTime": "2017/12/14 3:30:30",
		"DiscountText": "332%",
		"BigAdvertisingImage": "UI/World_ABS/3/AD_011.png",
		"Desc": "Receive <color=#FFFF00FF>3,600</color> Trinity Crystals,\nRune Stone, and other items worth an additional <color=#FFFF00FF>6,350</color> Trinity Crystals!",
		"IsStrongRecommend": 1,
		"SmallAdvertisingImage": "UI/Store_ABS/1/Store_AD_011.png",
		"RecommendDesc": "Receive <color=#FFFF00FF>3,600</color> Trinity Crystals,\nRune Stone, and other items worth an additional <color=#FFFF00FF>6,350</color> Trinity Crystals!",
		"PreUnlockGoodsId": 0,
		"DollGroup": 0,
		"NotShowInStore": false,
		"OpenActivityIdAfterPurchase": 0,
		"IsHideItemList": false,
		"GiftType": "GiftType_Normal"
	},
	{
		"ID": 60023,
		"Name": "Ultra-Value Accessory Pack",
		"StoreId": "StoreId_Gift",
		"ItemType": "GoodsType_Item",
		"ItemId": 60012,
		"Nums": 1,
		"ShowStartTime": "2019/5/16 1:00:00",
		"ShowEndTime": "2019/5/29 23:59:59",
		"IsOperateGoods": false,
		"BuyLimitType": "BuyRuleType_Forever",
		"Param": 0,
		"Count": 1,
		"FirstPrice": 49.99,
		"NormalPrice": 49.99,
		"Lable": "LabelType_None",
		"IsAppleSubscribe": false,
		"FirstBuyCompensation": 1500,
		"NormalBuyCompensation": 1500,
		"PlayerBuyMinLevel": 0,
		"Sort": 3,
		"IsRecommendDisplay": 1,
		"RecommendDisplayStartTime": "2017/12/14 3:30:30",
		"DiscountText": "375%",
		"BigAdvertisingImage": "UI/World_ABS/3/AD_012.png",
		"Desc": "Receive <color=#FFFF00FF>1,772</color> Trinity Crystals, a\nRandom SSR Accessory, and other items worth an additional <color=#FFFF00FF>3,850</color> Trinity Crystals!",
		"IsStrongRecommend": 1,
		"SmallAdvertisingImage": "UI/Store_ABS/1/Store_AD_012.png",
		"RecommendDesc": "Receive <color=#FFFF00FF>1,772</color> Trinity Crystals, a\nRandom SSR Accessory, and other items worth an additional <color=#FFFF00FF>3,850</color> Trinity Crystals!",
		"PreUnlockGoodsId": 0,
		"DollGroup": 0,
		"NotShowInStore": false,
		"OpenActivityIdAfterPurchase": 0,
		"IsHideItemList": false,
		"GiftType": "GiftType_Normal"
	},
	{
		"ID": 60024,
		"Name": "Huge Trinity Voucher Giftbox",
		"StoreId": "StoreId_Gift",
		"ItemType": "GoodsType_Item",
		"ItemId": 60010,
		"Nums": 1,
		"ShowStartTime": "2019/5/16 1:00:00",
		"ShowEndTime": "2019/5/29 23:59:59",
		"IsOperateGoods": false,
		"BuyLimitType": "BuyRuleType_Forever",
		"Param": 0,
		"Count": 1,
		"FirstPrice": 19.99,
		"NormalPrice": 19.99,
		"Lable": "LabelType_None",
		"IsAppleSubscribe": false,
		"FirstBuyCompensation": 600,
		"NormalBuyCompensation": 600,
		"PlayerBuyMinLevel": 0,
		"Sort": 4,
		"IsRecommendDisplay": 1,
		"RecommendDisplayStartTime": "2017/12/14 3:30:30",
		"DiscountText": "335%",
		"BigAdvertisingImage": "UI/World_ABS/3/AD_001.png",
		"Desc": "Receive <color=#FFFF00FF>692</color> Trinity Crystals\nand additional Trinity Vouchers worth <color=#FFFF00FF>1,320</color> Trinity Crystals!",
		"IsStrongRecommend": 1,
		"SmallAdvertisingImage": "UI/Store_ABS/1/Store_AD_01.png",
		"RecommendDesc": "Receive <color=#FFFF00FF>692</color> Trinity Crystals\nand additional Trinity Vouchers worth <color=#FFFF00FF>1,320</color> Trinity Crystals!",
		"PreUnlockGoodsId": 0,
		"DollGroup": 0,
		"NotShowInStore": false,
		"OpenActivityIdAfterPurchase": 0,
		"IsHideItemList": false,
		"GiftType": "GiftType_Normal"
	},
	{
		"ID": 60025,
		"Name": "Trinity Voucher Pack",
		"StoreId": "StoreId_Gift",
		"ItemType": "GoodsType_Item",
		"ItemId": 60025,
		"Nums": 1,
		"ShowStartTime": "2019/5/16 1:00:00",
		"ShowEndTime": "",
		"IsOperateGoods": false,
		"BuyLimitType": "BuyRuleType_WeekTime",
		"Param": 0,
		"Count": 1,
		"FirstPrice": 9.99,
		"NormalPrice": 9.99,
		"Lable": "LabelType_None",
		"IsAppleSubscribe": false,
		"FirstBuyCompensation": 300,
		"NormalBuyCompensation": 300,
		"PlayerBuyMinLevel": 0,
		"Sort": 8,
		"IsRecommendDisplay": 1,
		"RecommendDisplayStartTime": "2017/12/14 3:30:30",
		"DiscountText": "173%",
		"BigAdvertisingImage": "UI/TextImages/English_PackageBanner_ABS/AD_018.png",
		"Desc": "Receive <color=#FFFF00FF>342</color> Trinity Crystals\nand additional Trinity Vouchers worth <color=#FFFF00FF>176</color> Trinity Crystals!",
		"IsStrongRecommend": 0,
		"SmallAdvertisingImage": "UI/Store_ABS/1/Store_AD_018.png",
		"RecommendDesc": "Receive <color=#FFFF00FF>342</color> Trinity Crystals\nand additional Trinity Vouchers worth <color=#FFFF00FF>176</color> Trinity Crystals!",
		"PreUnlockGoodsId": 0,
		"DollGroup": 1,
		"NotShowInStore": true,
		"OpenActivityIdAfterPurchase": 0,
		"IsHideItemList": false,
		"GiftType": "GiftType_Normal"
	},
	{
		"ID": 60026,
		"Name": "Trinity Voucher Pack",
		"StoreId": "StoreId_Gift",
		"ItemType": "GoodsType_Item",
		"ItemId": 60026,
		"Nums": 1,
		"ShowStartTime": "2019/5/16 1:00:00",
		"ShowEndTime": "",
		"IsOperateGoods": false,
		"BuyLimitType": "BuyRuleType_WeekTime",
		"Param": 0,
		"Count": 1,
		"FirstPrice": 19.99,
		"NormalPrice": 19.99,
		"Lable": "LabelType_None",
		"IsAppleSubscribe": false,
		"FirstBuyCompensation": 600,
		"NormalBuyCompensation": 600,
		"PlayerBuyMinLevel": 0,
		"Sort": 8,
		"IsRecommendDisplay": 1,
		"RecommendDisplayStartTime": "2017/12/14 3:30:30",
		"DiscountText": "174%",
		"BigAdvertisingImage": "UI/TextImages/English_PackageBanner_ABS/AD_018.png",
		"Desc": "Receive <color=#FFFF00FF>692</color> Trinity Crystals\nand additional Trinity Vouchers worth <color=#FFFF00FF>352</color> Trinity Crystals!",
		"IsStrongRecommend": 0,
		"SmallAdvertisingImage": "UI/Store_ABS/1/Store_AD_018.png",
		"RecommendDesc": "Receive <color=#FFFF00FF>692</color> Trinity Crystals\nand additional Trinity Vouchers worth <color=#FFFF00FF>352</color> Trinity Crystals!",
		"PreUnlockGoodsId": 60025,
		"DollGroup": 1,
		"NotShowInStore": true,
		"OpenActivityIdAfterPurchase": 0,
		"IsHideItemList": false,
		"GiftType": "GiftType_Normal"
	},
	{
		"ID": 60027,
		"Name": "Trinity Voucher Pack",
		"StoreId": "StoreId_Gift",
		"ItemType": "GoodsType_Item",
		"ItemId": 60027,
		"Nums": 1,
		"ShowStartTime": "2019/5/16 1:00:00",
		"ShowEndTime": "",
		"IsOperateGoods": false,
		"BuyLimitType": "BuyRuleType_WeekTime",
		"Param": 0,
		"Count": 1,
		"FirstPrice": 49.99,
		"NormalPrice": 49.99,
		"Lable": "LabelType_None",
		"IsAppleSubscribe": false,
		"FirstBuyCompensation": 1500,
		"NormalBuyCompensation": 1500,
		"PlayerBuyMinLevel": 0,
		"Sort": 8,
		"IsRecommendDisplay": 1,
		"RecommendDisplayStartTime": "2017/12/14 3:30:30",
		"DiscountText": "177%",
		"BigAdvertisingImage": "UI/TextImages/English_PackageBanner_ABS/AD_018.png",
		"Desc": "Receive <color=#FFFF00FF>1772</color> Trinity Crystals\nand additional Trinity Vouchers worth <color=#FFFF00FF>880</color> Trinity Crystals!",
		"IsStrongRecommend": 0,
		"SmallAdvertisingImage": "UI/Store_ABS/1/Store_AD_018.png",
		"RecommendDesc": "Receive <color=#FFFF00FF>1772</color> Trinity Crystals\nand additional Trinity Vouchers worth <color=#FFFF00FF>880</color> Trinity Crystals!",
		"PreUnlockGoodsId": 60026,
		"DollGroup": 1,
		"NotShowInStore": true,
		"OpenActivityIdAfterPurchase": 0,
		"IsHideItemList": false,
		"GiftType": "GiftType_Normal"
	},
	{
		"ID": 60028,
		"Name": "Trinity Voucher Pack",
		"StoreId": "StoreId_Gift",
		"ItemType": "GoodsType_Item",
		"ItemId": 60028,
		"Nums": 1,
		"ShowStartTime": "2019/5/16 1:00:00",
		"ShowEndTime": "",
		"IsOperateGoods": false,
		"BuyLimitType": "BuyRuleType_WeekTime",
		"Param": 0,
		"Count": 3,
		"FirstPrice": 99.99,
		"NormalPrice": 99.99,
		"Lable": "LabelType_None",
		"IsAppleSubscribe": false,
		"FirstBuyCompensation": 3000,
		"NormalBuyCompensation": 3000,
		"PlayerBuyMinLevel": 0,
		"Sort": 8,
		"IsRecommendDisplay": 1,
		"RecommendDisplayStartTime": "2017/12/14 3:30:30",
		"DiscountText": "179%",
		"BigAdvertisingImage": "UI/TextImages/English_PackageBanner_ABS/AD_018.png",
		"Desc": "Receive <color=#FFFF00FF>3600</color> Trinity Crystals\nand additional Trinity Vouchers worth <color=#FFFF00FF>1760</color> Trinity Crystals!",
		"IsStrongRecommend": 0,
		"SmallAdvertisingImage": "UI/Store_ABS/1/Store_AD_018.png",
		"RecommendDesc": "Receive <color=#FFFF00FF>3600</color> Trinity Crystals\nand additional Trinity Vouchers worth <color=#FFFF00FF>1760</color> Trinity Crystals!",
		"PreUnlockGoodsId": 60027,
		"DollGroup": 1,
		"NotShowInStore": true,
		"OpenActivityIdAfterPurchase": 0,
		"IsHideItemList": false,
		"GiftType": "GiftType_Normal"
	},
	{
		"ID": 60029,
		"Name": "Enchanted Selection Pack",
		"StoreId": "StoreId_Gift",
		"ItemType": "GoodsType_Item",
		"ItemId": 60029,
		"Nums": 1,
		"ShowStartTime": "2019/5/16 1:00:00",
		"ShowEndTime": "",
		"IsOperateGoods": false,
		"BuyLimitType": "BuyRuleType_WeekTime",
		"Param": 0,
		"Count": 1,
		"FirstPrice": 9.99,
		"NormalPrice": 9.99,
		"Lable": "LabelType_None",
		"IsAppleSubscribe": false,
		"FirstBuyCompensation": 300,
		"NormalBuyCompensation": 300,
		"PlayerBuyMinLevel": 0,
		"Sort": 9,
		"IsRecommendDisplay": 1,
		"RecommendDisplayStartTime": "2017/12/14 3:30:30",
		"DiscountText": "214%",
		"BigAdvertisingImage": "UI/TextImages/English_PackageBanner_ABS/AD_017.png",
		"Desc": "Receive <color=#FFFF00FF>342</color> Trinity Crystals\nand additional Rare Enchant Gift Packs worth <color=#FFFF00FF>300</color> Trinity Crystals!",
		"IsStrongRecommend": 0,
		"SmallAdvertisingImage": "UI/Store_ABS/1/Store_AD_017.png",
		"RecommendDesc": "Receive <color=#FFFF00FF>342</color> Trinity Crystals\nand additional Rare Enchant Gift Packs worth <color=#FFFF00FF>300</color> Trinity Crystals!",
		"PreUnlockGoodsId": 0,
		"DollGroup": 2,
		"NotShowInStore": true,
		"OpenActivityIdAfterPurchase": 0,
		"IsHideItemList": false,
		"GiftType": "GiftType_Normal"
	},
	{
		"ID": 60030,
		"Name": "Enchanted Selection Pack",
		"StoreId": "StoreId_Gift",
		"ItemType": "GoodsType_Item",
		"ItemId": 60030,
		"Nums": 1,
		"ShowStartTime": "2019/5/16 1:00:00",
		"ShowEndTime": "",
		"IsOperateGoods": false,
		"BuyLimitType": "BuyRuleType_WeekTime",
		"Param": 0,
		"Count": 1,
		"FirstPrice": 19.99,
		"NormalPrice": 19.99,
		"Lable": "LabelType_None",
		"IsAppleSubscribe": false,
		"FirstBuyCompensation": 600,
		"NormalBuyCompensation": 600,
		"PlayerBuyMinLevel": 0,
		"Sort": 9,
		"IsRecommendDisplay": 1,
		"RecommendDisplayStartTime": "2017/12/14 3:30:30",
		"DiscountText": "215%",
		"BigAdvertisingImage": "UI/TextImages/English_PackageBanner_ABS/AD_017.png",
		"Desc": "Receive <color=#FFFF00FF>692</color> Trinity Crystals\nand additional Rare Enchant Gift Packs worth <color=#FFFF00FF>600</color> Trinity Crystals!",
		"IsStrongRecommend": 0,
		"SmallAdvertisingImage": "UI/Store_ABS/1/Store_AD_017.png",
		"RecommendDesc": "Receive <color=#FFFF00FF>692</color> Trinity Crystals\nand additional Rare Enchant Gift Packs worth <color=#FFFF00FF>600</color> Trinity Crystals!",
		"PreUnlockGoodsId": 60029,
		"DollGroup": 2,
		"NotShowInStore": true,
		"OpenActivityIdAfterPurchase": 0,
		"IsHideItemList": false,
		"GiftType": "GiftType_Normal"
	},
	{
		"ID": 60031,
		"Name": "Enchanted Selection Pack",
		"StoreId": "StoreId_Gift",
		"ItemType": "GoodsType_Item",
		"ItemId": 60031,
		"Nums": 1,
		"ShowStartTime": "2019/5/16 1:00:00",
		"ShowEndTime": "",
		"IsOperateGoods": false,
		"BuyLimitType": "BuyRuleType_WeekTime",
		"Param": 0,
		"Count": 1,
		"FirstPrice": 49.99,
		"NormalPrice": 49.99,
		"Lable": "LabelType_None",
		"IsAppleSubscribe": false,
		"FirstBuyCompensation": 1500,
		"NormalBuyCompensation": 1500,
		"PlayerBuyMinLevel": 0,
		"Sort": 9,
		"IsRecommendDisplay": 1,
		"RecommendDisplayStartTime": "2017/12/14 3:30:30",
		"DiscountText": "218%",
		"BigAdvertisingImage": "UI/TextImages/English_PackageBanner_ABS/AD_017.png",
		"Desc": "Receive <color=#FFFF00FF>1772</color> Trinity Crystals\nand additional Rare Enchant Gift Packs worth <color=#FFFF00FF>1500</color> Trinity Crystals!",
		"IsStrongRecommend": 0,
		"SmallAdvertisingImage": "UI/Store_ABS/1/Store_AD_017.png",
		"RecommendDesc": "Receive <color=#FFFF00FF>1772</color> Trinity Crystals\nand additional Rare Enchant Gift Packs worth <color=#FFFF00FF>1500</color> Trinity Crystals!",
		"PreUnlockGoodsId": 60030,
		"DollGroup": 2,
		"NotShowInStore": true,
		"OpenActivityIdAfterPurchase": 0,
		"IsHideItemList": false,
		"GiftType": "GiftType_Normal"
	},
	{
		"ID": 60032,
		"Name": "Enchanted Selection Pack",
		"StoreId": "StoreId_Gift",
		"ItemType": "GoodsType_Item",
		"ItemId": 60032,
		"Nums": 1,
		"ShowStartTime": "2019/5/16 1:00:00",
		"ShowEndTime": "",
		"IsOperateGoods": false,
		"BuyLimitType": "BuyRuleType_WeekTime",
		"Param": 0,
		"Count": 3,
		"FirstPrice": 99.99,
		"NormalPrice": 99.99,
		"Lable": "LabelType_None",
		"IsAppleSubscribe": false,
		"FirstBuyCompensation": 3000,
		"NormalBuyCompensation": 3000,
		"PlayerBuyMinLevel": 0,
		"Sort": 9,
		"IsRecommendDisplay": 1,
		"RecommendDisplayStartTime": "2017/12/14 3:30:30",
		"DiscountText": "220%",
		"BigAdvertisingImage": "UI/TextImages/English_PackageBanner_ABS/AD_017.png",
		"Desc": "Receive <color=#FFFF00FF>3600</color> Trinity Crystals\nand additional Rare Enchant Gift Packs worth <color=#FFFF00FF>3000</color> Trinity Crystals!",
		"IsStrongRecommend": 0,
		"SmallAdvertisingImage": "UI/Store_ABS/1/Store_AD_017.png",
		"RecommendDesc": "Receive <color=#FFFF00FF>3600</color> Trinity Crystals\nand additional Rare Enchant Gift Packs worth <color=#FFFF00FF>3000</color> Trinity Crystals!",
		"PreUnlockGoodsId": 60031,
		"DollGroup": 2,
		"NotShowInStore": true,
		"OpenActivityIdAfterPurchase": 0,
		"IsHideItemList": false,
		"GiftType": "GiftType_Normal"
	},
	{
		"ID": 60033,
		"Name": "Ultra-Value Weapon Pack",
		"StoreId": "StoreId_Gift",
		"ItemType": "GoodsType_Item",
		"ItemId": 60002,
		"Nums": 1,
		"ShowStartTime": "2019/6/6 1:00:00",
		"ShowEndTime": "2019/6/19 23:59:59",
		"IsOperateGoods": false,
		"BuyLimitType": "BuyRuleType_Forever",
		"Param": 0,
		"Count": 1,
		"FirstPrice": 49.99,
		"NormalPrice": 49.99,
		"Lable": "LabelType_None",
		"IsAppleSubscribe": false,
		"FirstBuyCompensation": 1500,
		"NormalBuyCompensation": 1500,
		"PlayerBuyMinLevel": 0,
		"Sort": 3,
		"IsRecommendDisplay": 1,
		"RecommendDisplayStartTime": "2017/12/14 3:30",
		"DiscountText": "375%",
		"BigAdvertisingImage": "UI/World_ABS/3/AD_002.png",
		"Desc": "Receive <color=#FFFF00FF>1,772</color> Trinity Crystals,\nand additional SSR Weapon, and upgrade materials worth <color=#FFFF00FF>3,240</color> Trinity Crystals!",
		"IsStrongRecommend": 1,
		"SmallAdvertisingImage": "UI/Store_ABS/1/Store_AD_02.png",
		"RecommendDesc": "Receive <color=#FFFF00FF>1,772</color> Trinity Crystals,\nand additional SSR Weapon, and upgrade materials worth <color=#FFFF00FF>3,240</color> Trinity Crystals!",
		"PreUnlockGoodsId": 0,
		"DollGroup": 0,
		"NotShowInStore": false,
		"OpenActivityIdAfterPurchase": 0,
		"IsHideItemList": false,
		"GiftType": "GiftType_Normal"
	},
	{
		"ID": 60034,
		"Name": "Skin Voucher Pack",
		"StoreId": "StoreId_Gift",
		"ItemType": "GoodsType_Item",
		"ItemId": 60021,
		"Nums": 1,
		"ShowStartTime": "2019/10/3 1:00:00",
		"ShowEndTime": "2019/10/16 23:59:59",
		"IsOperateGoods": false,
		"BuyLimitType": "BuyRuleType_FixedTime",
		"Param": 14,
		"Count": 2,
		"FirstPrice": 19.99,
		"NormalPrice": 19.99,
		"Lable": "LabelType_None",
		"IsAppleSubscribe": false,
		"FirstBuyCompensation": 600,
		"NormalBuyCompensation": 600,
		"PlayerBuyMinLevel": 0,
		"Sort": 7,
		"IsRecommendDisplay": 1,
		"RecommendDisplayStartTime": "2017/12/14 3:30",
		"DiscountText": "197%",
		"BigAdvertisingImage": "UI/TextImages/English_PackageBanner_ABS/AD_007.png",
		"Desc": "Receive <color=#FFFF00FF>692</color> Trinity Crystals\nand additional Skin Vouchers worth <color=#FFFF00FF>490</color> Trinity Crystals!",
		"IsStrongRecommend": 1,
		"SmallAdvertisingImage": "UI/Store_ABS/1/Store_Banner_07.png",
		"RecommendDesc": "Receive <color=#FFFF00FF>692</color> Trinity Crystals\nand additional Skin Vouchers worth <color=#FFFF00FF>490</color> Trinity Crystals!",
		"PreUnlockGoodsId": 0,
		"DollGroup": 0,
		"NotShowInStore": false,
		"OpenActivityIdAfterPurchase": 0,
		"IsHideItemList": false,
		"GiftType": "GiftType_Normal"
	},
	{
		"ID": 60035,
		"Name": "Huge Trinity Voucher Giftbox",
		"StoreId": "StoreId_Gift",
		"ItemType": "GoodsType_Item",
		"ItemId": 60010,
		"Nums": 1,
		"ShowStartTime": "2019/9/26 1:00:00",
		"ShowEndTime": "2019/10/9 23:59:59",
		"IsOperateGoods": false,
		"BuyLimitType": "BuyRuleType_FixedTime",
		"Param": 14,
		"Count": 1,
		"FirstPrice": 19.99,
		"NormalPrice": 19.99,
		"Lable": "LabelType_None",
		"IsAppleSubscribe": false,
		"FirstBuyCompensation": 600,
		"NormalBuyCompensation": 600,
		"PlayerBuyMinLevel": 0,
		"Sort": 5,
		"IsRecommendDisplay": 1,
		"RecommendDisplayStartTime": "2017/12/14 3:30:30",
		"DiscountText": "335%",
		"BigAdvertisingImage": "UI/World_ABS/3/AD_001.png",
		"Desc": "Receive <color=#FFFF00FF>692</color> Trinity Crystals\nand additional Trinity Vouchers worth <color=#FFFF00FF>1,320</color> Trinity Crystals!",
		"IsStrongRecommend": 1,
		"SmallAdvertisingImage": "UI/Store_ABS/1/Store_AD_01.png",
		"RecommendDesc": "Receive <color=#FFFF00FF>692</color> Trinity Crystals\nand additional Trinity Vouchers worth <color=#FFFF00FF>1,320</color> Trinity Crystals!",
		"PreUnlockGoodsId": 0,
		"DollGroup": 0,
		"NotShowInStore": false,
		"OpenActivityIdAfterPurchase": 0,
		"IsHideItemList": false,
		"GiftType": "GiftType_Normal"
	},
	{
		"ID": 60036,
		"Name": "Class Master Supply Box",
		"StoreId": "StoreId_Gift",
		"ItemType": "GoodsType_Item",
		"ItemId": 60011,
		"Nums": 1,
		"ShowStartTime": "2019/9/26 1:00:00",
		"ShowEndTime": "2019/10/9 23:59:59",
		"IsOperateGoods": false,
		"BuyLimitType": "BuyRuleType_FixedTime",
		"Param": 14,
		"Count": 1,
		"FirstPrice": 99.99,
		"NormalPrice": 99.99,
		"Lable": "LabelType_None",
		"IsAppleSubscribe": false,
		"FirstBuyCompensation": 3000,
		"NormalBuyCompensation": 3000,
		"PlayerBuyMinLevel": 0,
		"Sort": 6,
		"IsRecommendDisplay": 1,
		"RecommendDisplayStartTime": "2017/12/14 3:30:30",
		"DiscountText": "332%",
		"BigAdvertisingImage": "UI/World_ABS/3/AD_011.png",
		"Desc": "Receive <color=#FFFF00FF>3,600</color> Trinity Crystals,\nRune Stone, and other items worth an additional <color=#FFFF00FF>6,350</color> Trinity Crystals!",
		"IsStrongRecommend": 1,
		"SmallAdvertisingImage": "UI/Store_ABS/1/Store_AD_011.png",
		"RecommendDesc": "Receive <color=#FFFF00FF>3,600</color> Trinity Crystals,\nRune Stone, and other items worth an additional <color=#FFFF00FF>6,350</color> Trinity Crystals!",
		"PreUnlockGoodsId": 0,
		"DollGroup": 0,
		"NotShowInStore": false,
		"OpenActivityIdAfterPurchase": 0,
		"IsHideItemList": false,
		"GiftType": "GiftType_Normal"
	},
	{
		"ID": 60037,
		"Name": "Ultra-Value Accessory Pack",
		"StoreId": "StoreId_Gift",
		"ItemType": "GoodsType_Item",
		"ItemId": 60012,
		"Nums": 1,
		"ShowStartTime": "2019/9/26 1:00:00",
		"ShowEndTime": "2019/10/9 23:59:59",
		"IsOperateGoods": false,
		"BuyLimitType": "BuyRuleType_FixedTime",
		"Param": 14,
		"Count": 1,
		"FirstPrice": 49.99,
		"NormalPrice": 49.99,
		"Lable": "LabelType_None",
		"IsAppleSubscribe": false,
		"FirstBuyCompensation": 1500,
		"NormalBuyCompensation": 1500,
		"PlayerBuyMinLevel": 0,
		"Sort": 4,
		"IsRecommendDisplay": 1,
		"RecommendDisplayStartTime": "2017/12/14 3:30:30",
		"DiscountText": "375%",
		"BigAdvertisingImage": "UI/World_ABS/3/AD_012.png",
		"Desc": "Receive <color=#FFFF00FF>1,772</color> Trinity Crystals, a\nRandom SSR Accessory, and other items worth an additional <color=#FFFF00FF>3,850</color> Trinity Crystals!",
		"IsStrongRecommend": 1,
		"SmallAdvertisingImage": "UI/Store_ABS/1/Store_AD_012.png",
		"RecommendDesc": "Receive <color=#FFFF00FF>1,772</color> Trinity Crystals, a\nRandom SSR Accessory, and other items worth an additional <color=#FFFF00FF>3,850</color> Trinity Crystals!",
		"PreUnlockGoodsId": 0,
		"DollGroup": 0,
		"NotShowInStore": false,
		"OpenActivityIdAfterPurchase": 0,
		"IsHideItemList": false,
		"GiftType": "GiftType_Normal"
	},
	{
		"ID": 60038,
		"Name": "Ultra-Value Weapon Pack",
		"StoreId": "StoreId_Gift",
		"ItemType": "GoodsType_Item",
		"ItemId": 60002,
		"Nums": 1,
		"ShowStartTime": "2019/10/10 1:00:00",
		"ShowEndTime": "2019/10/23 23:59:59",
		"IsOperateGoods": false,
		"BuyLimitType": "BuyRuleType_FixedTime",
		"Param": 14,
		"Count": 1,
		"FirstPrice": 49.99,
		"NormalPrice": 49.99,
		"Lable": "LabelType_None",
		"IsAppleSubscribe": false,
		"FirstBuyCompensation": 1500,
		"NormalBuyCompensation": 1500,
		"PlayerBuyMinLevel": 0,
		"Sort": 3,
		"IsRecommendDisplay": 1,
		"RecommendDisplayStartTime": "2017/12/14 3:30",
		"DiscountText": "375%",
		"BigAdvertisingImage": "UI/World_ABS/3/AD_002.png",
		"Desc": "Receive <color=#FFFF00FF>1,772</color> Trinity Crystals,\nand additional SSR Weapon, and upgrade materials worth <color=#FFFF00FF>3,240</color> Trinity Crystals!",
		"IsStrongRecommend": 1,
		"SmallAdvertisingImage": "UI/Store_ABS/1/Store_AD_02.png",
		"RecommendDesc": "Receive <color=#FFFF00FF>1,772</color> Trinity Crystals,\nand additional SSR Weapon, and upgrade materials worth <color=#FFFF00FF>3,240</color> Trinity Crystals!",
		"PreUnlockGoodsId": 0,
		"DollGroup": 0,
		"NotShowInStore": false,
		"OpenActivityIdAfterPurchase": 0,
		"IsHideItemList": false,
		"GiftType": "GiftType_Normal"
	},
	{
		"ID": 60039,
		"Name": "Summer Memories Lucky Bag",
		"StoreId": "StoreId_Gift",
		"ItemType": "GoodsType_Item",
		"ItemId": 7011,
		"Nums": 1,
		"ShowStartTime": "2019/7/18 1:00:00",
		"ShowEndTime": "2019/7/31 23:59:59",
		"IsOperateGoods": false,
		"BuyLimitType": "BuyRuleType_Forever",
		"Param": 0,
		"Count": 1,
		"FirstPrice": 19.99,
		"NormalPrice": 19.99,
		"Lable": "LabelType_None",
		"IsAppleSubscribe": false,
		"FirstBuyCompensation": 600,
		"NormalBuyCompensation": 600,
		"PlayerBuyMinLevel": 0,
		"Sort": 0,
		"IsRecommendDisplay": 0,
		"RecommendDisplayStartTime": "",
		"DiscountText": "",
		"BigAdvertisingImage": "",
		"Desc": "",
		"IsStrongRecommend": 0,
		"SmallAdvertisingImage": "",
		"RecommendDesc": "",
		"PreUnlockGoodsId": 0,
		"DollGroup": 0,
		"NotShowInStore": false,
		"OpenActivityIdAfterPurchase": 0,
		"IsHideItemList": false,
		"GiftType": "GiftType_Normal"
	},
	{
		"ID": 69003,
		"Name": "Glorious Gift",
		"StoreId": "StoreId_Gift",
		"ItemType": "GoodsType_Item",
		"ItemId": 69003,
		"Nums": 1,
		"ShowStartTime": "2017/12/14 3:30:30",
		"ShowEndTime": "",
		"IsOperateGoods": false,
		"BuyLimitType": "BuyRuleType_Forever",
		"Param": 0,
		"Count": 1,
		"FirstPrice": 9.99,
		"NormalPrice": 9.99,
		"Lable": "LabelType_None",
		"IsAppleSubscribe": false,
		"FirstBuyCompensation": 300,
		"NormalBuyCompensation": 300,
		"PlayerBuyMinLevel": 0,
		"Sort": 0,
		"IsRecommendDisplay": 0,
		"RecommendDisplayStartTime": "2017/12/14 3:30:30",
		"DiscountText": "458%",
		"BigAdvertisingImage": "UI/TextImages/English_PackageBanner_ABS/AD_021.png",
		"Desc": "Choose Trinity Vouchers or class upgrade materials worth <color=#FFFF00FF>528</color> Trinity Crystals, and receive Orichalcum Ore worth an additional <color=#FFFF00FF>750</color> Trinity Crystals!",
		"IsStrongRecommend": 0,
		"SmallAdvertisingImage": "",
		"RecommendDesc": "Choose Trinity Vouchers or class upgrade materials worth <color=#FFFF00FF>528</color> Trinity Crystals, and receive Orichalcum Ore worth an additional <color=#FFFF00FF>750</color> Trinity Crystals!",
		"PreUnlockGoodsId": 0,
		"DollGroup": 0,
		"NotShowInStore": true,
		"OpenActivityIdAfterPurchase": 0,
		"IsHideItemList": false,
		"GiftType": "GiftType_Event"
	},
	{
		"ID": 69004,
		"Name": "Hero's Choice",
		"StoreId": "StoreId_Gift",
		"ItemType": "GoodsType_Item",
		"ItemId": 69004,
		"Nums": 1,
		"ShowStartTime": "2017/12/14 3:30:30",
		"ShowEndTime": "",
		"IsOperateGoods": false,
		"BuyLimitType": "BuyRuleType_Forever",
		"Param": 0,
		"Count": 1,
		"FirstPrice": 19.99,
		"NormalPrice": 19.99,
		"Lable": "LabelType_None",
		"IsAppleSubscribe": false,
		"FirstBuyCompensation": 600,
		"NormalBuyCompensation": 600,
		"PlayerBuyMinLevel": 0,
		"Sort": 0,
		"IsRecommendDisplay": 0,
		"RecommendDisplayStartTime": "2017/12/14 3:30:30",
		"DiscountText": "473%",
		"BigAdvertisingImage": "UI/TextImages/English_PackageBanner_ABS/AD_022.png",
		"Desc": "Choose Trinity Vouchers or class upgrade materials worth <color=#FFFF00FF>880</color> Trinity Crystals, and receive various other materials worth an additional <color=#FFFF00FF>1,750</color> Trinity Crystals!",
		"IsStrongRecommend": 0,
		"SmallAdvertisingImage": "",
		"RecommendDesc": "Choose Trinity Vouchers or class upgrade materials worth <color=#FFFF00FF>880</color> Trinity Crystals, and receive various other materials worth an additional <color=#FFFF00FF>1,750</color> Trinity Crystals!",
		"PreUnlockGoodsId": 0,
		"DollGroup": 0,
		"NotShowInStore": true,
		"OpenActivityIdAfterPurchase": 0,
		"IsHideItemList": false,
		"GiftType": "GiftType_Event"
	},
	{
		"ID": 69005,
		"Name": "Shining Star Pack",
		"StoreId": "StoreId_Gift",
		"ItemType": "GoodsType_Item",
		"ItemId": 69005,
		"Nums": 1,
		"ShowStartTime": "2017/12/14 3:30:30",
		"ShowEndTime": "",
		"IsOperateGoods": false,
		"BuyLimitType": "BuyRuleType_Forever",
		"Param": 0,
		"Count": 1,
		"FirstPrice": 9.99,
		"NormalPrice": 9.99,
		"Lable": "LabelType_None",
		"IsAppleSubscribe": false,
		"FirstBuyCompensation": 300,
		"NormalBuyCompensation": 300,
		"PlayerBuyMinLevel": 0,
		"Sort": 0,
		"IsRecommendDisplay": 0,
		"RecommendDisplayStartTime": "2017/12/14 3:30:30",
		"DiscountText": "368%",
		"BigAdvertisingImage": "UI/TextImages/English_PackageBanner_ABS/AD_024.png",
		"Desc": "Choose class upgrade materials or Crafter's Hammers worth <color=#FFFF00FF>600</color> Trinity Crystals, and receive EXP Potions worth an additional <color=#FFFF00FF>562</color> Trinity Crystals!",
		"IsStrongRecommend": 0,
		"SmallAdvertisingImage": "",
		"RecommendDesc": "Choose class upgrade materials or Crafter's Hammers worth <color=#FFFF00FF>600</color> Trinity Crystals, and receive EXP Potions worth an additional <color=#FFFF00FF>562</color> Trinity Crystals!",
		"PreUnlockGoodsId": 0,
		"DollGroup": 0,
		"NotShowInStore": true,
		"OpenActivityIdAfterPurchase": 0,
		"IsHideItemList": false,
		"GiftType": "GiftType_Event"
	},
	{
		"ID": 69006,
		"Name": "Riftwalker Pack",
		"StoreId": "StoreId_Gift",
		"ItemType": "GoodsType_Item",
		"ItemId": 69006,
		"Nums": 1,
		"ShowStartTime": "2017/12/14 3:30:30",
		"ShowEndTime": "",
		"IsOperateGoods": false,
		"BuyLimitType": "BuyRuleType_Forever",
		"Param": 0,
		"Count": 1,
		"FirstPrice": 9.99,
		"NormalPrice": 9.99,
		"Lable": "LabelType_None",
		"IsAppleSubscribe": false,
		"FirstBuyCompensation": 300,
		"NormalBuyCompensation": 300,
		"PlayerBuyMinLevel": 0,
		"Sort": 0,
		"IsRecommendDisplay": 0,
		"RecommendDisplayStartTime": "2017/12/14 3:30:30",
		"DiscountText": "340%",
		"BigAdvertisingImage": "UI/TextImages/English_PackageBanner_ABS/AD_025.png",
		"Desc": "Choose an SSR Enchant Pack or Trinity Vouchers worth <color=#FFFF00FF>440</color> Trinity Crystals, and receive various other materials worth an additional <color=#FFFF00FF>400</color> Trinity Crystals!",
		"IsStrongRecommend": 0,
		"SmallAdvertisingImage": "",
		"RecommendDesc": "Choose an SSR Enchant Pack or Trinity Vouchers worth <color=#FFFF00FF>440</color> Trinity Crystals, and receive various other materials worth an additional <color=#FFFF00FF>400</color> Trinity Crystals!",
		"PreUnlockGoodsId": 0,
		"DollGroup": 0,
		"NotShowInStore": true,
		"OpenActivityIdAfterPurchase": 0,
		"IsHideItemList": false,
		"GiftType": "GiftType_Event"
	},
	{
		"ID": 69007,
		"Name": "Mega Rift Pack",
		"StoreId": "StoreId_Gift",
		"ItemType": "GoodsType_Item",
		"ItemId": 69007,
		"Nums": 1,
		"ShowStartTime": "2017/12/14 3:30:30",
		"ShowEndTime": "",
		"IsOperateGoods": false,
		"BuyLimitType": "BuyRuleType_Forever",
		"Param": 0,
		"Count": 1,
		"FirstPrice": 19.99,
		"NormalPrice": 19.99,
		"Lable": "LabelType_None",
		"IsAppleSubscribe": false,
		"FirstBuyCompensation": 600,
		"NormalBuyCompensation": 600,
		"PlayerBuyMinLevel": 0,
		"Sort": 0,
		"IsRecommendDisplay": 0,
		"RecommendDisplayStartTime": "2017/12/14 3:30:30",
		"DiscountText": "365%",
		"BigAdvertisingImage": "UI/PackageBanner_ABS/AD_027.png",
		"Desc": "Choose an SSR Enchant Pack or Trinity Vouchers worth <color=#FFFF00FF>880</color> Trinity Crystals, and receive various other materials worth an additional <color=#FFFF00FF>1,000</color> Trinity Crystals!",
		"IsStrongRecommend": 0,
		"SmallAdvertisingImage": "",
		"RecommendDesc": "Choose an SSR Enchant Pack or Trinity Vouchers worth <color=#FFFF00FF>880</color> Trinity Crystals, and receive various other materials worth an additional <color=#FFFF00FF>1,000</color> Trinity Crystals!",
		"PreUnlockGoodsId": 0,
		"DollGroup": 0,
		"NotShowInStore": true,
		"OpenActivityIdAfterPurchase": 0,
		"IsHideItemList": false,
		"GiftType": "GiftType_Event"
	},
	{
		"ID": 69008,
		"Name": "Soldier Booster Pack",
		"StoreId": "StoreId_Gift",
		"ItemType": "GoodsType_Item",
		"ItemId": 69008,
		"Nums": 1,
		"ShowStartTime": "2017/12/14 3:30:30",
		"ShowEndTime": "",
		"IsOperateGoods": false,
		"BuyLimitType": "BuyRuleType_Forever",
		"Param": 0,
		"Count": 1,
		"FirstPrice": 9.99,
		"NormalPrice": 9.99,
		"Lable": "LabelType_None",
		"IsAppleSubscribe": false,
		"FirstBuyCompensation": 300,
		"NormalBuyCompensation": 300,
		"PlayerBuyMinLevel": 0,
		"Sort": 0,
		"IsRecommendDisplay": 0,
		"RecommendDisplayStartTime": "2017/12/14 3:30:30",
		"DiscountText": "488%",
		"BigAdvertisingImage": "UI/TextImages/English_PackageBanner_ABS/AD_023.png",
		"Desc": "Choose Rare Training Materials or Rare Training Manuals worth <color=#FFFF00FF>360</color> Trinity Crystals, and receive various other materials worth an additional <color=#FFFF00FF>1,100</color> Trinity Crystals!",
		"IsStrongRecommend": 0,
		"SmallAdvertisingImage": "",
		"RecommendDesc": "Choose Rare Training Materials or Rare Training Manuals worth <color=#FFFF00FF>360</color> Trinity Crystals, and receive various other materials worth an additional <color=#FFFF00FF>1,100</color> Trinity Crystals!",
		"PreUnlockGoodsId": 0,
		"DollGroup": 0,
		"NotShowInStore": true,
		"OpenActivityIdAfterPurchase": 0,
		"IsHideItemList": false,
		"GiftType": "GiftType_Event"
	},
	{
		"ID": 69009,
		"Name": "Fighting Spirit",
		"StoreId": "StoreId_Gift",
		"ItemType": "GoodsType_Item",
		"ItemId": 69009,
		"Nums": 1,
		"ShowStartTime": "2017/12/14 3:30:30",
		"ShowEndTime": "",
		"IsOperateGoods": false,
		"BuyLimitType": "BuyRuleType_Forever",
		"Param": 0,
		"Count": 1,
		"FirstPrice": 19.99,
		"NormalPrice": 19.99,
		"Lable": "LabelType_None",
		"IsAppleSubscribe": false,
		"FirstBuyCompensation": 600,
		"NormalBuyCompensation": 600,
		"PlayerBuyMinLevel": 0,
		"Sort": 0,
		"IsRecommendDisplay": 0,
		"RecommendDisplayStartTime": "2017/12/14 3:30:30",
		"DiscountText": "474%",
		"BigAdvertisingImage": "UI/PackageBanner_ABS/AD_026.png",
		"Desc": "Choose Aniki Treasures or SSR Training Manuals worth <color=#FFFF00FF>1,000</color> Trinity Crystals, and receive various other materials worth an additional <color=#FFFF00FF>2,040</color> Trinity Crystals.",
		"IsStrongRecommend": 0,
		"SmallAdvertisingImage": "",
		"RecommendDesc": "Choose Aniki Treasures or SSR Training Manuals worth <color=#FFFF00FF>1,000</color> Trinity Crystals, and receive various other materials worth an additional <color=#FFFF00FF>2,040</color> Trinity Crystals.",
		"PreUnlockGoodsId": 0,
		"DollGroup": 0,
		"NotShowInStore": true,
		"OpenActivityIdAfterPurchase": 0,
		"IsHideItemList": false,
		"GiftType": "GiftType_Event"
	},
	{
		"ID": 69999,
		"Name": "Growth Invest",
		"StoreId": "StoreId_Gift",
		"ItemType": "GoodsType_Item",
		"ItemId": 69999,
		"Nums": 1,
		"ShowStartTime": "2019/5/16 1:00:00",
		"ShowEndTime": "",
		"IsOperateGoods": false,
		"BuyLimitType": "BuyRuleType_Forever",
		"Param": 0,
		"Count": 1,
		"FirstPrice": 19.99,
		"NormalPrice": 19.99,
		"Lable": "LabelType_None",
		"IsAppleSubscribe": false,
		"FirstBuyCompensation": 600,
		"NormalBuyCompensation": 600,
		"PlayerBuyMinLevel": 10,
		"Sort": 2,
		"IsRecommendDisplay": 1,
		"RecommendDisplayStartTime": "2017/12/14 3:30:30",
		"DiscountText": "699%",
		"BigAdvertisingImage": "UI/TextImages/English_PackageBanner_ABS/AD_020.png",
		"Desc": "Instantly receive <color=#FFFF00FF>692</color> Trinity Crystals.\nReach the required team level to get a total of <color=#FFFF00FF>3,500</color> Trinity Crystals! Unbeatable value! All growth rewards are retroactive!",
		"IsStrongRecommend": 0,
		"SmallAdvertisingImage": "",
		"RecommendDesc": "Instantly receive <color=#FFFF00FF>692</color> Trinity Crystals.\nReach the required team level to get a total of <color=#FFFF00FF>3,500</color> Trinity Crystals! Unbeatable value! All growth rewards are retroactive!",
		"PreUnlockGoodsId": 0,
		"DollGroup": 0,
		"NotShowInStore": true,
		"OpenActivityIdAfterPurchase": 899,
		"IsHideItemList": true,
		"GiftType": "GiftType_Normal"
	}
]