[
	{
		"ID": 1,
		"Name": "Demon Servant 35",
		"TeamName": "Lv.35",
		"PlayerLevelMin": 30,
		"UnlockDaysDelayGroup": [
			0,
			3,
			6,
			9,
			12,
			15,
			18,
			21,
			24,
			27,
			30
		],
		"EnergySuccess": 10,
		"EnergyFail": 2,
		"EnergyTeam": 8,
		"MonsterLevel": 35,
		"BattleID": 6025,
		"PlayerExp": 10,
		"HeroExp": 55,
		"GoldReward": 638,
		"ScoreBase": 100,
		"DropID": 0,
		"ItemDropCountDisplay": 1,
		"TeamDropID": 0,
		"DayBonusDropID": 0,
		"Strategy": ""
	},
	{
		"ID": 2,
		"Name": "Demon Servant 35",
		"TeamName": "Lv.35",
		"PlayerLevelMin": 30,
		"UnlockDaysDelayGroup": [
			1,
			4,
			7,
			10,
			13,
			16,
			19,
			22,
			25,
			28
		],
		"EnergySuccess": 10,
		"EnergyFail": 2,
		"EnergyTeam": 8,
		"MonsterLevel": 35,
		"BattleID": 6026,
		"PlayerExp": 10,
		"HeroExp": 55,
		"GoldReward": 638,
		"ScoreBase": 100,
		"DropID": 0,
		"ItemDropCountDisplay": 1,
		"TeamDropID": 0,
		"DayBonusDropID": 0,
		"Strategy": ""
	},
	{
		"ID": 3,
		"Name": "Demon Servant 35",
		"TeamName": "Lv.35",
		"PlayerLevelMin": 30,
		"UnlockDaysDelayGroup": [
			2,
			5,
			8,
			11,
			14,
			17,
			20,
			23,
			26,
			29
		],
		"EnergySuccess": 10,
		"EnergyFail": 2,
		"EnergyTeam": 8,
		"MonsterLevel": 35,
		"BattleID": 6027,
		"PlayerExp": 10,
		"HeroExp": 55,
		"GoldReward": 638,
		"ScoreBase": 100,
		"DropID": 0,
		"ItemDropCountDisplay": 1,
		"TeamDropID": 0,
		"DayBonusDropID": 0,
		"Strategy": ""
	},
	{
		"ID": 4,
		"Name": "Demon Servant 45",
		"TeamName": "Lv.45",
		"PlayerLevelMin": 40,
		"UnlockDaysDelayGroup": [
			0,
			3,
			6,
			9,
			12,
			15,
			18,
			21,
			24,
			27,
			30
		],
		"EnergySuccess": 10,
		"EnergyFail": 2,
		"EnergyTeam": 8,
		"MonsterLevel": 45,
		"BattleID": 6028,
		"PlayerExp": 10,
		"HeroExp": 65,
		"GoldReward": 875,
		"ScoreBase": 200,
		"DropID": 0,
		"ItemDropCountDisplay": 1,
		"TeamDropID": 0,
		"DayBonusDropID": 0,
		"Strategy": ""
	},
	{
		"ID": 5,
		"Name": "Demon Servant 45",
		"TeamName": "Lv.45",
		"PlayerLevelMin": 40,
		"UnlockDaysDelayGroup": [
			1,
			4,
			7,
			10,
			13,
			16,
			19,
			22,
			25,
			28
		],
		"EnergySuccess": 10,
		"EnergyFail": 2,
		"EnergyTeam": 8,
		"MonsterLevel": 45,
		"BattleID": 6029,
		"PlayerExp": 10,
		"HeroExp": 65,
		"GoldReward": 875,
		"ScoreBase": 200,
		"DropID": 0,
		"ItemDropCountDisplay": 1,
		"TeamDropID": 0,
		"DayBonusDropID": 0,
		"Strategy": ""
	},
	{
		"ID": 6,
		"Name": "Demon Servant 45",
		"TeamName": "Lv.45",
		"PlayerLevelMin": 40,
		"UnlockDaysDelayGroup": [
			2,
			5,
			8,
			11,
			14,
			17,
			20,
			23,
			26,
			29
		],
		"EnergySuccess": 10,
		"EnergyFail": 2,
		"EnergyTeam": 8,
		"MonsterLevel": 45,
		"BattleID": 6030,
		"PlayerExp": 10,
		"HeroExp": 65,
		"GoldReward": 875,
		"ScoreBase": 200,
		"DropID": 0,
		"ItemDropCountDisplay": 1,
		"TeamDropID": 0,
		"DayBonusDropID": 0,
		"Strategy": ""
	},
	{
		"ID": 7,
		"Name": "Demon Servant 55",
		"TeamName": "Lv.55",
		"PlayerLevelMin": 50,
		"UnlockDaysDelayGroup": [
			0,
			3,
			6,
			9,
			12,
			15,
			18,
			21,
			24,
			27,
			30
		],
		"EnergySuccess": 10,
		"EnergyFail": 2,
		"EnergyTeam": 8,
		"MonsterLevel": 55,
		"BattleID": 6031,
		"PlayerExp": 10,
		"HeroExp": 75,
		"GoldReward": 1140,
		"ScoreBase": 300,
		"DropID": 0,
		"ItemDropCountDisplay": 1,
		"TeamDropID": 0,
		"DayBonusDropID": 0,
		"Strategy": ""
	},
	{
		"ID": 8,
		"Name": "Demon Servant 55",
		"TeamName": "Lv.55",
		"PlayerLevelMin": 50,
		"UnlockDaysDelayGroup": [
			1,
			4,
			7,
			10,
			13,
			16,
			19,
			22,
			25,
			28
		],
		"EnergySuccess": 10,
		"EnergyFail": 2,
		"EnergyTeam": 8,
		"MonsterLevel": 55,
		"BattleID": 6032,
		"PlayerExp": 10,
		"HeroExp": 75,
		"GoldReward": 1140,
		"ScoreBase": 300,
		"DropID": 0,
		"ItemDropCountDisplay": 1,
		"TeamDropID": 0,
		"DayBonusDropID": 0,
		"Strategy": ""
	},
	{
		"ID": 9,
		"Name": "Demon Servant 55",
		"TeamName": "Lv.55",
		"PlayerLevelMin": 50,
		"UnlockDaysDelayGroup": [
			2,
			5,
			8,
			11,
			14,
			17,
			20,
			23,
			26,
			29
		],
		"EnergySuccess": 10,
		"EnergyFail": 2,
		"EnergyTeam": 8,
		"MonsterLevel": 55,
		"BattleID": 6033,
		"PlayerExp": 10,
		"HeroExp": 75,
		"GoldReward": 1140,
		"ScoreBase": 300,
		"DropID": 0,
		"ItemDropCountDisplay": 1,
		"TeamDropID": 0,
		"DayBonusDropID": 0,
		"Strategy": ""
	},
	{
		"ID": 11,
		"Name": "Summer Party: 1-35",
		"TeamName": "Lv.35",
		"PlayerLevelMin": 30,
		"UnlockDaysDelayGroup": [
			0,
			7,
			14
		],
		"EnergySuccess": 10,
		"EnergyFail": 2,
		"EnergyTeam": 8,
		"MonsterLevel": 35,
		"BattleID": 6060,
		"PlayerExp": 10,
		"HeroExp": 55,
		"GoldReward": 638,
		"ScoreBase": 100,
		"DropID": 0,
		"ItemDropCountDisplay": 1,
		"TeamDropID": 0,
		"DayBonusDropID": 0,
		"Strategy": ""
	},
	{
		"ID": 12,
		"Name": "Summer Party: 1-45",
		"TeamName": "Lv.45",
		"PlayerLevelMin": 40,
		"UnlockDaysDelayGroup": [
			0,
			7,
			14
		],
		"EnergySuccess": 10,
		"EnergyFail": 2,
		"EnergyTeam": 8,
		"MonsterLevel": 45,
		"BattleID": 6061,
		"PlayerExp": 10,
		"HeroExp": 65,
		"GoldReward": 875,
		"ScoreBase": 200,
		"DropID": 0,
		"ItemDropCountDisplay": 1,
		"TeamDropID": 0,
		"DayBonusDropID": 0,
		"Strategy": ""
	},
	{
		"ID": 13,
		"Name": "Summer Party: 1-55",
		"TeamName": "Lv.55",
		"PlayerLevelMin": 50,
		"UnlockDaysDelayGroup": [
			0,
			7,
			14
		],
		"EnergySuccess": 10,
		"EnergyFail": 2,
		"EnergyTeam": 8,
		"MonsterLevel": 55,
		"BattleID": 6062,
		"PlayerExp": 10,
		"HeroExp": 75,
		"GoldReward": 1140,
		"ScoreBase": 300,
		"DropID": 0,
		"ItemDropCountDisplay": 1,
		"TeamDropID": 0,
		"DayBonusDropID": 0,
		"Strategy": ""
	},
	{
		"ID": 14,
		"Name": "Summer Party: 2-35",
		"TeamName": "Lv.35",
		"PlayerLevelMin": 30,
		"UnlockDaysDelayGroup": [
			1,
			8,
			15
		],
		"EnergySuccess": 10,
		"EnergyFail": 2,
		"EnergyTeam": 8,
		"MonsterLevel": 35,
		"BattleID": 6063,
		"PlayerExp": 10,
		"HeroExp": 55,
		"GoldReward": 638,
		"ScoreBase": 100,
		"DropID": 0,
		"ItemDropCountDisplay": 1,
		"TeamDropID": 0,
		"DayBonusDropID": 0,
		"Strategy": ""
	},
	{
		"ID": 15,
		"Name": "Summer Party: 2-45",
		"TeamName": "Lv.45",
		"PlayerLevelMin": 40,
		"UnlockDaysDelayGroup": [
			1,
			8,
			15
		],
		"EnergySuccess": 10,
		"EnergyFail": 2,
		"EnergyTeam": 8,
		"MonsterLevel": 45,
		"BattleID": 6064,
		"PlayerExp": 10,
		"HeroExp": 65,
		"GoldReward": 875,
		"ScoreBase": 200,
		"DropID": 0,
		"ItemDropCountDisplay": 1,
		"TeamDropID": 0,
		"DayBonusDropID": 0,
		"Strategy": ""
	},
	{
		"ID": 16,
		"Name": "Summer Party: 2-55",
		"TeamName": "Lv.55",
		"PlayerLevelMin": 50,
		"UnlockDaysDelayGroup": [
			1,
			8,
			15
		],
		"EnergySuccess": 10,
		"EnergyFail": 2,
		"EnergyTeam": 8,
		"MonsterLevel": 55,
		"BattleID": 6065,
		"PlayerExp": 10,
		"HeroExp": 75,
		"GoldReward": 1140,
		"ScoreBase": 300,
		"DropID": 0,
		"ItemDropCountDisplay": 1,
		"TeamDropID": 0,
		"DayBonusDropID": 0,
		"Strategy": ""
	},
	{
		"ID": 17,
		"Name": "Summer Party: 3-35",
		"TeamName": "Lv.35",
		"PlayerLevelMin": 30,
		"UnlockDaysDelayGroup": [
			2,
			9,
			16
		],
		"EnergySuccess": 10,
		"EnergyFail": 2,
		"EnergyTeam": 8,
		"MonsterLevel": 35,
		"BattleID": 6066,
		"PlayerExp": 10,
		"HeroExp": 55,
		"GoldReward": 638,
		"ScoreBase": 100,
		"DropID": 0,
		"ItemDropCountDisplay": 1,
		"TeamDropID": 0,
		"DayBonusDropID": 0,
		"Strategy": ""
	},
	{
		"ID": 18,
		"Name": "Summer Party: 3-45",
		"TeamName": "Lv.45",
		"PlayerLevelMin": 40,
		"UnlockDaysDelayGroup": [
			2,
			9,
			16
		],
		"EnergySuccess": 10,
		"EnergyFail": 2,
		"EnergyTeam": 8,
		"MonsterLevel": 45,
		"BattleID": 6067,
		"PlayerExp": 10,
		"HeroExp": 65,
		"GoldReward": 875,
		"ScoreBase": 200,
		"DropID": 0,
		"ItemDropCountDisplay": 1,
		"TeamDropID": 0,
		"DayBonusDropID": 0,
		"Strategy": ""
	},
	{
		"ID": 19,
		"Name": "Summer Party: 3-55",
		"TeamName": "Lv.55",
		"PlayerLevelMin": 50,
		"UnlockDaysDelayGroup": [
			2,
			9,
			16
		],
		"EnergySuccess": 10,
		"EnergyFail": 2,
		"EnergyTeam": 8,
		"MonsterLevel": 55,
		"BattleID": 6068,
		"PlayerExp": 10,
		"HeroExp": 75,
		"GoldReward": 1140,
		"ScoreBase": 300,
		"DropID": 0,
		"ItemDropCountDisplay": 1,
		"TeamDropID": 0,
		"DayBonusDropID": 0,
		"Strategy": ""
	},
	{
		"ID": 20,
		"Name": "Summer Party: 4-35",
		"TeamName": "Lv.35",
		"PlayerLevelMin": 30,
		"UnlockDaysDelayGroup": [
			3,
			10,
			17
		],
		"EnergySuccess": 10,
		"EnergyFail": 2,
		"EnergyTeam": 8,
		"MonsterLevel": 35,
		"BattleID": 6069,
		"PlayerExp": 10,
		"HeroExp": 55,
		"GoldReward": 638,
		"ScoreBase": 100,
		"DropID": 0,
		"ItemDropCountDisplay": 1,
		"TeamDropID": 0,
		"DayBonusDropID": 0,
		"Strategy": ""
	},
	{
		"ID": 21,
		"Name": "Summer Party: 4-45",
		"TeamName": "Lv.45",
		"PlayerLevelMin": 40,
		"UnlockDaysDelayGroup": [
			3,
			10,
			17
		],
		"EnergySuccess": 10,
		"EnergyFail": 2,
		"EnergyTeam": 8,
		"MonsterLevel": 45,
		"BattleID": 6070,
		"PlayerExp": 10,
		"HeroExp": 65,
		"GoldReward": 875,
		"ScoreBase": 200,
		"DropID": 0,
		"ItemDropCountDisplay": 1,
		"TeamDropID": 0,
		"DayBonusDropID": 0,
		"Strategy": ""
	},
	{
		"ID": 22,
		"Name": "Summer Party: 4-55",
		"TeamName": "Lv.55",
		"PlayerLevelMin": 50,
		"UnlockDaysDelayGroup": [
			3,
			10,
			17
		],
		"EnergySuccess": 10,
		"EnergyFail": 2,
		"EnergyTeam": 8,
		"MonsterLevel": 55,
		"BattleID": 6071,
		"PlayerExp": 10,
		"HeroExp": 75,
		"GoldReward": 1140,
		"ScoreBase": 300,
		"DropID": 0,
		"ItemDropCountDisplay": 1,
		"TeamDropID": 0,
		"DayBonusDropID": 0,
		"Strategy": ""
	},
	{
		"ID": 23,
		"Name": "Summer Party: 5-35",
		"TeamName": "Lv.35",
		"PlayerLevelMin": 30,
		"UnlockDaysDelayGroup": [
			4,
			11,
			18
		],
		"EnergySuccess": 10,
		"EnergyFail": 2,
		"EnergyTeam": 8,
		"MonsterLevel": 35,
		"BattleID": 6072,
		"PlayerExp": 10,
		"HeroExp": 55,
		"GoldReward": 638,
		"ScoreBase": 100,
		"DropID": 0,
		"ItemDropCountDisplay": 1,
		"TeamDropID": 0,
		"DayBonusDropID": 0,
		"Strategy": ""
	},
	{
		"ID": 24,
		"Name": "Summer Party: 5-45",
		"TeamName": "Lv.45",
		"PlayerLevelMin": 40,
		"UnlockDaysDelayGroup": [
			4,
			11,
			18
		],
		"EnergySuccess": 10,
		"EnergyFail": 2,
		"EnergyTeam": 8,
		"MonsterLevel": 45,
		"BattleID": 6073,
		"PlayerExp": 10,
		"HeroExp": 65,
		"GoldReward": 875,
		"ScoreBase": 200,
		"DropID": 0,
		"ItemDropCountDisplay": 1,
		"TeamDropID": 0,
		"DayBonusDropID": 0,
		"Strategy": ""
	},
	{
		"ID": 25,
		"Name": "Summer Party: 5-55",
		"TeamName": "Lv.55",
		"PlayerLevelMin": 50,
		"UnlockDaysDelayGroup": [
			4,
			11,
			18
		],
		"EnergySuccess": 10,
		"EnergyFail": 2,
		"EnergyTeam": 8,
		"MonsterLevel": 55,
		"BattleID": 6074,
		"PlayerExp": 10,
		"HeroExp": 75,
		"GoldReward": 1140,
		"ScoreBase": 300,
		"DropID": 0,
		"ItemDropCountDisplay": 1,
		"TeamDropID": 0,
		"DayBonusDropID": 0,
		"Strategy": ""
	},
	{
		"ID": 26,
		"Name": "Summer Party: 6-35",
		"TeamName": "Lv.35",
		"PlayerLevelMin": 30,
		"UnlockDaysDelayGroup": [
			5,
			12,
			19
		],
		"EnergySuccess": 10,
		"EnergyFail": 2,
		"EnergyTeam": 8,
		"MonsterLevel": 35,
		"BattleID": 6075,
		"PlayerExp": 10,
		"HeroExp": 55,
		"GoldReward": 638,
		"ScoreBase": 100,
		"DropID": 0,
		"ItemDropCountDisplay": 1,
		"TeamDropID": 0,
		"DayBonusDropID": 0,
		"Strategy": ""
	},
	{
		"ID": 27,
		"Name": "Summer Party: 6-45",
		"TeamName": "Lv.45",
		"PlayerLevelMin": 40,
		"UnlockDaysDelayGroup": [
			5,
			12,
			19
		],
		"EnergySuccess": 10,
		"EnergyFail": 2,
		"EnergyTeam": 8,
		"MonsterLevel": 45,
		"BattleID": 6076,
		"PlayerExp": 10,
		"HeroExp": 65,
		"GoldReward": 875,
		"ScoreBase": 200,
		"DropID": 0,
		"ItemDropCountDisplay": 1,
		"TeamDropID": 0,
		"DayBonusDropID": 0,
		"Strategy": ""
	},
	{
		"ID": 28,
		"Name": "Summer Party: 6-55",
		"TeamName": "Lv.55",
		"PlayerLevelMin": 50,
		"UnlockDaysDelayGroup": [
			5,
			12,
			19
		],
		"EnergySuccess": 10,
		"EnergyFail": 2,
		"EnergyTeam": 8,
		"MonsterLevel": 55,
		"BattleID": 6077,
		"PlayerExp": 10,
		"HeroExp": 75,
		"GoldReward": 1140,
		"ScoreBase": 300,
		"DropID": 0,
		"ItemDropCountDisplay": 1,
		"TeamDropID": 0,
		"DayBonusDropID": 0,
		"Strategy": ""
	},
	{
		"ID": 29,
		"Name": "Summer Party: 7-35",
		"TeamName": "Lv.35",
		"PlayerLevelMin": 30,
		"UnlockDaysDelayGroup": [
			6,
			13,
			20
		],
		"EnergySuccess": 10,
		"EnergyFail": 2,
		"EnergyTeam": 8,
		"MonsterLevel": 35,
		"BattleID": 6078,
		"PlayerExp": 10,
		"HeroExp": 55,
		"GoldReward": 638,
		"ScoreBase": 100,
		"DropID": 0,
		"ItemDropCountDisplay": 1,
		"TeamDropID": 0,
		"DayBonusDropID": 0,
		"Strategy": ""
	},
	{
		"ID": 30,
		"Name": "Summer Party: 7-45",
		"TeamName": "Lv.45",
		"PlayerLevelMin": 40,
		"UnlockDaysDelayGroup": [
			6,
			13,
			20
		],
		"EnergySuccess": 10,
		"EnergyFail": 2,
		"EnergyTeam": 8,
		"MonsterLevel": 45,
		"BattleID": 6079,
		"PlayerExp": 10,
		"HeroExp": 65,
		"GoldReward": 875,
		"ScoreBase": 200,
		"DropID": 0,
		"ItemDropCountDisplay": 1,
		"TeamDropID": 0,
		"DayBonusDropID": 0,
		"Strategy": ""
	},
	{
		"ID": 31,
		"Name": "Summer Party: 7-55",
		"TeamName": "Lv.55",
		"PlayerLevelMin": 50,
		"UnlockDaysDelayGroup": [
			6,
			13,
			20
		],
		"EnergySuccess": 10,
		"EnergyFail": 2,
		"EnergyTeam": 8,
		"MonsterLevel": 55,
		"BattleID": 6080,
		"PlayerExp": 10,
		"HeroExp": 75,
		"GoldReward": 1140,
		"ScoreBase": 300,
		"DropID": 0,
		"ItemDropCountDisplay": 1,
		"TeamDropID": 0,
		"DayBonusDropID": 0,
		"Strategy": ""
	},
	{
		"ID": 32,
		"Name": "Great Campaign 35",
		"TeamName": "Lv.35",
		"PlayerLevelMin": 30,
		"UnlockDaysDelayGroup": [
			0,
			3,
			6,
			9,
			12,
			15,
			18,
			21,
			24,
			27,
			30
		],
		"EnergySuccess": 10,
		"EnergyFail": 2,
		"EnergyTeam": 8,
		"MonsterLevel": 35,
		"BattleID": 6500,
		"PlayerExp": 10,
		"HeroExp": 55,
		"GoldReward": 638,
		"ScoreBase": 450,
		"DropID": 0,
		"ItemDropCountDisplay": 1,
		"TeamDropID": 0,
		"DayBonusDropID": 0,
		"Strategy": ""
	},
	{
		"ID": 33,
		"Name": "Great Campaign 35",
		"TeamName": "Lv.35",
		"PlayerLevelMin": 30,
		"UnlockDaysDelayGroup": [
			1,
			4,
			7,
			10,
			13,
			16,
			19,
			22,
			25,
			28
		],
		"EnergySuccess": 10,
		"EnergyFail": 2,
		"EnergyTeam": 8,
		"MonsterLevel": 35,
		"BattleID": 6503,
		"PlayerExp": 10,
		"HeroExp": 55,
		"GoldReward": 638,
		"ScoreBase": 450,
		"DropID": 0,
		"ItemDropCountDisplay": 1,
		"TeamDropID": 0,
		"DayBonusDropID": 0,
		"Strategy": ""
	},
	{
		"ID": 34,
		"Name": "Great Campaign 35",
		"TeamName": "Lv.35",
		"PlayerLevelMin": 30,
		"UnlockDaysDelayGroup": [
			2,
			5,
			8,
			11,
			14,
			17,
			20,
			23,
			26,
			29
		],
		"EnergySuccess": 10,
		"EnergyFail": 2,
		"EnergyTeam": 8,
		"MonsterLevel": 35,
		"BattleID": 6506,
		"PlayerExp": 10,
		"HeroExp": 55,
		"GoldReward": 638,
		"ScoreBase": 450,
		"DropID": 0,
		"ItemDropCountDisplay": 1,
		"TeamDropID": 0,
		"DayBonusDropID": 0,
		"Strategy": ""
	},
	{
		"ID": 35,
		"Name": "Great Campaign 45",
		"TeamName": "Lv.45",
		"PlayerLevelMin": 40,
		"UnlockDaysDelayGroup": [
			0,
			3,
			6,
			9,
			12,
			15,
			18,
			21,
			24,
			27,
			30
		],
		"EnergySuccess": 10,
		"EnergyFail": 2,
		"EnergyTeam": 8,
		"MonsterLevel": 45,
		"BattleID": 6120,
		"PlayerExp": 10,
		"HeroExp": 65,
		"GoldReward": 875,
		"ScoreBase": 600,
		"DropID": 0,
		"ItemDropCountDisplay": 1,
		"TeamDropID": 0,
		"DayBonusDropID": 0,
		"Strategy": ""
	},
	{
		"ID": 36,
		"Name": "Great Campaign 45",
		"TeamName": "Lv.45",
		"PlayerLevelMin": 40,
		"UnlockDaysDelayGroup": [
			1,
			4,
			7,
			10,
			13,
			16,
			19,
			22,
			25,
			28
		],
		"EnergySuccess": 10,
		"EnergyFail": 2,
		"EnergyTeam": 8,
		"MonsterLevel": 45,
		"BattleID": 6121,
		"PlayerExp": 10,
		"HeroExp": 65,
		"GoldReward": 875,
		"ScoreBase": 600,
		"DropID": 0,
		"ItemDropCountDisplay": 1,
		"TeamDropID": 0,
		"DayBonusDropID": 0,
		"Strategy": ""
	},
	{
		"ID": 37,
		"Name": "Great Campaign 45",
		"TeamName": "Lv.45",
		"PlayerLevelMin": 40,
		"UnlockDaysDelayGroup": [
			2,
			5,
			8,
			11,
			14,
			17,
			20,
			23,
			26,
			29
		],
		"EnergySuccess": 10,
		"EnergyFail": 2,
		"EnergyTeam": 8,
		"MonsterLevel": 45,
		"BattleID": 6122,
		"PlayerExp": 10,
		"HeroExp": 65,
		"GoldReward": 875,
		"ScoreBase": 600,
		"DropID": 0,
		"ItemDropCountDisplay": 1,
		"TeamDropID": 0,
		"DayBonusDropID": 0,
		"Strategy": ""
	},
	{
		"ID": 38,
		"Name": "Great Campaign 55",
		"TeamName": "Lv.55",
		"PlayerLevelMin": 50,
		"UnlockDaysDelayGroup": [
			0,
			3,
			6,
			9,
			12,
			15,
			18,
			21,
			24,
			27,
			30
		],
		"EnergySuccess": 10,
		"EnergyFail": 2,
		"EnergyTeam": 8,
		"MonsterLevel": 55,
		"BattleID": 6117,
		"PlayerExp": 10,
		"HeroExp": 75,
		"GoldReward": 1140,
		"ScoreBase": 750,
		"DropID": 0,
		"ItemDropCountDisplay": 1,
		"TeamDropID": 0,
		"DayBonusDropID": 0,
		"Strategy": ""
	},
	{
		"ID": 39,
		"Name": "Great Campaign 55",
		"TeamName": "Lv.55",
		"PlayerLevelMin": 50,
		"UnlockDaysDelayGroup": [
			1,
			4,
			7,
			10,
			13,
			16,
			19,
			22,
			25,
			28
		],
		"EnergySuccess": 10,
		"EnergyFail": 2,
		"EnergyTeam": 8,
		"MonsterLevel": 55,
		"BattleID": 6118,
		"PlayerExp": 10,
		"HeroExp": 75,
		"GoldReward": 1140,
		"ScoreBase": 750,
		"DropID": 0,
		"ItemDropCountDisplay": 1,
		"TeamDropID": 0,
		"DayBonusDropID": 0,
		"Strategy": ""
	},
	{
		"ID": 40,
		"Name": "Great Campaign 55",
		"TeamName": "Lv.55",
		"PlayerLevelMin": 50,
		"UnlockDaysDelayGroup": [
			2,
			5,
			8,
			11,
			14,
			17,
			20,
			23,
			26,
			29
		],
		"EnergySuccess": 10,
		"EnergyFail": 2,
		"EnergyTeam": 8,
		"MonsterLevel": 55,
		"BattleID": 6119,
		"PlayerExp": 10,
		"HeroExp": 75,
		"GoldReward": 1140,
		"ScoreBase": 750,
		"DropID": 0,
		"ItemDropCountDisplay": 1,
		"TeamDropID": 0,
		"DayBonusDropID": 0,
		"Strategy": ""
	},
	{
		"ID": 41,
		"Name": "Demon Servant 35",
		"TeamName": "Lv.35",
		"PlayerLevelMin": 30,
		"UnlockDaysDelayGroup": [
			0,
			3,
			6,
			9,
			12,
			15,
			18,
			21,
			24,
			27,
			30
		],
		"EnergySuccess": 10,
		"EnergyFail": 2,
		"EnergyTeam": 8,
		"MonsterLevel": 35,
		"BattleID": 6025,
		"PlayerExp": 10,
		"HeroExp": 55,
		"GoldReward": 638,
		"ScoreBase": 100,
		"DropID": 0,
		"ItemDropCountDisplay": 1,
		"TeamDropID": 0,
		"DayBonusDropID": 0,
		"Strategy": ""
	},
	{
		"ID": 42,
		"Name": "Demon Servant 35",
		"TeamName": "Lv.35",
		"PlayerLevelMin": 30,
		"UnlockDaysDelayGroup": [
			1,
			4,
			7,
			10,
			13,
			16,
			19,
			22,
			25,
			28
		],
		"EnergySuccess": 10,
		"EnergyFail": 2,
		"EnergyTeam": 8,
		"MonsterLevel": 35,
		"BattleID": 6026,
		"PlayerExp": 10,
		"HeroExp": 55,
		"GoldReward": 638,
		"ScoreBase": 100,
		"DropID": 0,
		"ItemDropCountDisplay": 1,
		"TeamDropID": 0,
		"DayBonusDropID": 0,
		"Strategy": ""
	},
	{
		"ID": 43,
		"Name": "Demon Servant 35",
		"TeamName": "Lv.35",
		"PlayerLevelMin": 30,
		"UnlockDaysDelayGroup": [
			2,
			5,
			8,
			11,
			14,
			17,
			20,
			23,
			26,
			29
		],
		"EnergySuccess": 10,
		"EnergyFail": 2,
		"EnergyTeam": 8,
		"MonsterLevel": 35,
		"BattleID": 6027,
		"PlayerExp": 10,
		"HeroExp": 55,
		"GoldReward": 638,
		"ScoreBase": 100,
		"DropID": 0,
		"ItemDropCountDisplay": 1,
		"TeamDropID": 0,
		"DayBonusDropID": 0,
		"Strategy": ""
	},
	{
		"ID": 44,
		"Name": "Demon Servant 45",
		"TeamName": "Lv.45",
		"PlayerLevelMin": 40,
		"UnlockDaysDelayGroup": [
			0,
			3,
			6,
			9,
			12,
			15,
			18,
			21,
			24,
			27,
			30
		],
		"EnergySuccess": 10,
		"EnergyFail": 2,
		"EnergyTeam": 8,
		"MonsterLevel": 45,
		"BattleID": 6028,
		"PlayerExp": 10,
		"HeroExp": 65,
		"GoldReward": 875,
		"ScoreBase": 200,
		"DropID": 0,
		"ItemDropCountDisplay": 1,
		"TeamDropID": 0,
		"DayBonusDropID": 0,
		"Strategy": ""
	},
	{
		"ID": 45,
		"Name": "Demon Servant 45",
		"TeamName": "Lv.45",
		"PlayerLevelMin": 40,
		"UnlockDaysDelayGroup": [
			1,
			4,
			7,
			10,
			13,
			16,
			19,
			22,
			25,
			28
		],
		"EnergySuccess": 10,
		"EnergyFail": 2,
		"EnergyTeam": 8,
		"MonsterLevel": 45,
		"BattleID": 6029,
		"PlayerExp": 10,
		"HeroExp": 65,
		"GoldReward": 875,
		"ScoreBase": 200,
		"DropID": 0,
		"ItemDropCountDisplay": 1,
		"TeamDropID": 0,
		"DayBonusDropID": 0,
		"Strategy": ""
	},
	{
		"ID": 46,
		"Name": "Demon Servant 45",
		"TeamName": "Lv.45",
		"PlayerLevelMin": 40,
		"UnlockDaysDelayGroup": [
			2,
			5,
			8,
			11,
			14,
			17,
			20,
			23,
			26,
			29
		],
		"EnergySuccess": 10,
		"EnergyFail": 2,
		"EnergyTeam": 8,
		"MonsterLevel": 45,
		"BattleID": 6030,
		"PlayerExp": 10,
		"HeroExp": 65,
		"GoldReward": 875,
		"ScoreBase": 200,
		"DropID": 0,
		"ItemDropCountDisplay": 1,
		"TeamDropID": 0,
		"DayBonusDropID": 0,
		"Strategy": ""
	},
	{
		"ID": 47,
		"Name": "Demon Servant 55",
		"TeamName": "Lv.55",
		"PlayerLevelMin": 50,
		"UnlockDaysDelayGroup": [
			0,
			3,
			6,
			9,
			12,
			15,
			18,
			21,
			24,
			27,
			30
		],
		"EnergySuccess": 10,
		"EnergyFail": 2,
		"EnergyTeam": 8,
		"MonsterLevel": 55,
		"BattleID": 6031,
		"PlayerExp": 10,
		"HeroExp": 75,
		"GoldReward": 1140,
		"ScoreBase": 300,
		"DropID": 0,
		"ItemDropCountDisplay": 1,
		"TeamDropID": 0,
		"DayBonusDropID": 0,
		"Strategy": ""
	},
	{
		"ID": 48,
		"Name": "Demon Servant 55",
		"TeamName": "Lv.55",
		"PlayerLevelMin": 50,
		"UnlockDaysDelayGroup": [
			1,
			4,
			7,
			10,
			13,
			16,
			19,
			22,
			25,
			28
		],
		"EnergySuccess": 10,
		"EnergyFail": 2,
		"EnergyTeam": 8,
		"MonsterLevel": 55,
		"BattleID": 6032,
		"PlayerExp": 10,
		"HeroExp": 75,
		"GoldReward": 1140,
		"ScoreBase": 300,
		"DropID": 0,
		"ItemDropCountDisplay": 1,
		"TeamDropID": 0,
		"DayBonusDropID": 0,
		"Strategy": ""
	},
	{
		"ID": 49,
		"Name": "Demon Servant 55",
		"TeamName": "Lv.55",
		"PlayerLevelMin": 50,
		"UnlockDaysDelayGroup": [
			2,
			5,
			8,
			11,
			14,
			17,
			20,
			23,
			26,
			29
		],
		"EnergySuccess": 10,
		"EnergyFail": 2,
		"EnergyTeam": 8,
		"MonsterLevel": 55,
		"BattleID": 6033,
		"PlayerExp": 10,
		"HeroExp": 75,
		"GoldReward": 1140,
		"ScoreBase": 300,
		"DropID": 0,
		"ItemDropCountDisplay": 1,
		"TeamDropID": 0,
		"DayBonusDropID": 0,
		"Strategy": ""
	}
]