[
	{
		"ID": 1
	},
	{
		"ID": 2
	},
	{
		"ID": 3
	},
	{
		"ID": 4
	},
	{
		"ID": 5
	},
	{
		"ID": 6
	},
	{
		"ID": 7
	},
	{
		"ID": 8
	},
	{
		"ID": 9
	},
	{
		"ID": 10
	},
	{
		"ID": 11
	},
	{
		"ID": 12
	},
	{
		"ID": 13
	},
	{
		"ID": 14
	},
	{
		"ID": 15
	},
	{
		"ID": 16
	},
	{
		"ID": 17
	},
	{
		"ID": 18
	},
	{
		"ID": 19
	},
	{
		"ID": 20
	},
	{
		"ID": 21
	},
	{
		"ID": 22
	},
	{
		"ID": 23
	},
	{
		"ID": 24
	},
	{
		"ID": 25
	},
	{
		"ID": 26
	},
	{
		"ID": 27
	},
	{
		"ID": 28
	},
	{
		"ID": 29
	},
	{
		"ID": 30
	},
	{
		"ID": 31
	},
	{
		"ID": 32
	},
	{
		"ID": 33
	},
	{
		"ID": 34
	},
	{
		"ID": 35
	},
	{
		"ID": 36
	},
	{
		"ID": 37
	},
	{
		"ID": 38
	},
	{
		"ID": 39
	},
	{
		"ID": 40
	},
	{
		"ID": 41
	},
	{
		"ID": 42
	},
	{
		"ID": 43
	},
	{
		"ID": 44
	},
	{
		"ID": 45
	},
	{
		"ID": 46
	},
	{
		"ID": 47
	},
	{
		"ID": 48
	},
	{
		"ID": 49
	},
	{
		"ID": 50
	},
	{
		"ID": 51
	},
	{
		"ID": 52
	},
	{
		"ID": 53
	},
	{
		"ID": 54
	},
	{
		"ID": 55
	},
	{
		"ID": 56
	},
	{
		"ID": 57
	},
	{
		"ID": 58
	},
	{
		"ID": 59
	},
	{
		"ID": 60
	},
	{
		"ID": 61
	},
	{
		"ID": 62
	},
	{
		"ID": 63
	},
	{
		"ID": 64
	},
	{
		"ID": 65
	},
	{
		"ID": 66
	},
	{
		"ID": 67
	},
	{
		"ID": 68
	},
	{
		"ID": 69
	},
	{
		"ID": 70
	},
	{
		"ID": 71
	},
	{
		"ID": 72
	},
	{
		"ID": 73
	},
	{
		"ID": 74
	},
	{
		"ID": 75
	},
	{
		"ID": 76
	},
	{
		"ID": 77
	},
	{
		"ID": 78
	},
	{
		"ID": 79
	},
	{
		"ID": 80
	},
	{
		"ID": 81
	},
	{
		"ID": 82
	},
	{
		"ID": 83
	},
	{
		"ID": 84
	},
	{
		"ID": 85
	},
	{
		"ID": 86
	},
	{
		"ID": 87
	},
	{
		"ID": 88
	},
	{
		"ID": 89
	},
	{
		"ID": 90
	},
	{
		"ID": 91
	},
	{
		"ID": 92
	},
	{
		"ID": 93
	},
	{
		"ID": 94
	},
	{
		"ID": 95
	},
	{
		"ID": 96
	},
	{
		"ID": 97
	},
	{
		"ID": 98
	},
	{
		"ID": 99
	},
	{
		"ID": 100
	},
	{
		"ID": 101
	},
	{
		"ID": 102
	},
	{
		"ID": 103
	},
	{
		"ID": 104
	},
	{
		"ID": 105
	},
	{
		"ID": 106
	},
	{
		"ID": 107
	},
	{
		"ID": 108
	},
	{
		"ID": 109
	},
	{
		"ID": 110
	},
	{
		"ID": 111
	},
	{
		"ID": 112
	},
	{
		"ID": 113
	},
	{
		"ID": 114
	},
	{
		"ID": 115
	},
	{
		"ID": 116
	},
	{
		"ID": 117
	},
	{
		"ID": 118
	},
	{
		"ID": 119
	},
	{
		"ID": 120
	},
	{
		"ID": 121
	},
	{
		"ID": 122
	},
	{
		"ID": 123
	},
	{
		"ID": 124
	},
	{
		"ID": 125
	},
	{
		"ID": 126
	},
	{
		"ID": 127
	},
	{
		"ID": 128
	}
]