[
	{
		"ID": 1,
		"SkillID": 71000,
		"Target": 3,
		"Desc": "<color=#E1E100>[All]</color>\nInfantry ATK & DEF increased by <color=red>20%</color>."
	},
	{
		"ID": 2,
		"SkillID": 71001,
		"Target": 3,
		"Desc": "<color=#E1E100>[All]</color>\nLancer ATK & DEF increased by <color=red>20%</color>."
	},
	{
		"ID": 3,
		"SkillID": 71002,
		"Target": 3,
		"Desc": "<color=#E1E100>[All]</color>\nCavalry ATK & DEF increased by <color=red>20%</color>."
	},
	{
		"ID": 4,
		"SkillID": 71003,
		"Target": 3,
		"Desc": "<color=#E1E100>[All]</color>\nArcher and Assassin ATK & DEF increased by <color=red>20%</color>."
	},
	{
		"ID": 5,
		"SkillID": 71004,
		"Target": 3,
		"Desc": "<color=#E1E100>[All]</color>\nFlier and Aquatic ATK & DEF increased by <color=red>20%</color>."
	},
	{
		"ID": 6,
		"SkillID": 71005,
		"Target": 3,
		"Desc": "<color=#E1E100>[All]</color>\nMage, Demon, and Holy ATK & DEF increased by <color=red>20%</color>."
	},
	{
		"ID": 7,
		"SkillID": 71007,
		"Target": 2,
		"Desc": "<color=green>[You]</color>\nRanged Attack Damage <color=red>-50%</color>."
	},
	{
		"ID": 8,
		"SkillID": 71008,
		"Target": 2,
		"Desc": "<color=green>[You]</color>\nMelee Attack Damage <color=red>-50%</color>."
	},
	{
		"ID": 9,
		"SkillID": 71009,
		"Target": 2,
		"Desc": "<color=green>[You]</color>\nPhysical Attack Damage <color=red>-50%</color>."
	},
	{
		"ID": 10,
		"SkillID": 71010,
		"Target": 2,
		"Desc": "<color=green>[You]</color>\nMDamage<color=red>-50%</color>."
	},
	{
		"ID": 11,
		"SkillID": 71011,
		"Target": 3,
		"Desc": "<color=#E1E100>[All]</color>\nWhen the battle takes place in Woods or on Mountain or Ramparts, DEF +<color=red>30%</color>."
	},
	{
		"ID": 12,
		"SkillID": 71012,
		"Target": 3,
		"Desc": "<color=#E1E100>[All]</color>\nWhile being suppressed, ATK <color=red>30%</color>, DEF +<color=red>30%</color>."
	},
	{
		"ID": 13,
		"SkillID": 71013,
		"Target": 3,
		"Desc": "<color=#E1E100>[All]</color>\nDamage decreases by<color=red>20%</color> for each block moved before attacking. Up to <color=red>100%</color>"
	},
	{
		"ID": 14,
		"SkillID": 71014,
		"Target": 3,
		"Desc": "<color=#E1E100>[All]</color>\nRestoration <color=red>80%</color>."
	},
	{
		"ID": 15,
		"SkillID": 71015,
		"Target": 1,
		"Desc": "<color=#DC143C>[Enemy]</color>\nRestores <color=red>20%</color> HP after each round."
	},
	{
		"ID": 16,
		"SkillID": 71016,
		"Target": 3,
		"Desc": "<color=#E1E100>[All]</color>\nAfter the end of battle, restores HP equal to <color=red>30%</color> damage dealt."
	},
	{
		"ID": 17,
		"SkillID": 71017,
		"Target": 1,
		"Desc": "<color=#DC143C>[Enemy]</color> When suffering a melee attack, deals damage (50% of max HP) to the attacker after the end of battle."
	},
	{
		"ID": 18,
		"SkillID": 71018,
		"Target": 1,
		"Desc": "<color=#DC143C>[Enemy]</color> When suffering a ranged attack, deals damage (50% of max HP) to the attacker after the end of battle."
	},
	{
		"ID": 19,
		"SkillID": 71021,
		"Target": 2,
		"Desc": "<color=green>[You]</color>\nWhen attacking, deals damage (<color=red>2x</color> ATK value) to all targets in a <color=red>2</color>-block range (ignores defense)."
	},
	{
		"ID": 20,
		"SkillID": 71023,
		"Target": 2,
		"Desc": "<color=green>[You]</color>\nWhen you attack a target with lower HP than yours, damage will decrease by <color=red>50%</color>."
	},
	{
		"ID": 21,
		"SkillID": 71024,
		"Target": 2,
		"Desc": "<color=green>[You]</color>\nWhen you attack a target with higher HP than yours, damage will decrease by <color=red>80%</color>."
	},
	{
		"ID": 22,
		"SkillID": 71026,
		"Target": 2,
		"Desc": "<color=green>[You]</color>\nAfter attacking, damage is reduced by <color=red>20%</color>. (Cannot be dispelled.)"
	},
	{
		"ID": 23,
		"SkillID": 71027,
		"Target": 3,
		"Desc": "<color=#E1E100>[All]</color>\nAfter an enemy is killed, damage is reduced by <color=red>50%</color>. (Cannot be dispelled.)"
	},
	{
		"ID": 24,
		"SkillID": 71028,
		"Target": 3,
		"Desc": "<color=#E1E100>[All]</color>\nDisables passive skills."
	},
	{
		"ID": 25,
		"SkillID": 71029,
		"Target": 3,
		"Desc": "<color=#E1E100>[All]</color>\nWhen hero is ranged class, unit's normal attack range increases by <color=red>2</color>."
	},
	{
		"ID": 26,
		"SkillID": 71030,
		"Target": 3,
		"Desc": "<color=#E1E100>[All]</color>\nCannot use Guard."
	},
	{
		"ID": 27,
		"SkillID": 72010,
		"Target": 1,
		"Desc": "<color=#DC143C>[Enemy]</color>\nWhen HP is 100%, damage dealt increases by <color=red>100%</color>, and the damage you take decreases by <color=red>50%</color>."
	},
	{
		"ID": 28,
		"SkillID": 72011,
		"Target": 1,
		"Desc": "<color=#DC143C>[Enemy]</color>\nWhen attacked, damage dealt increases by <color=red>100%</color>, and the damage you take decreases by <color=red>50%</color>."
	},
	{
		"ID": 29,
		"SkillID": 72012,
		"Target": 1,
		"Desc": "<color=#DC143C>[Enemy]</color>\nAfter being attacked, the attacker's INT and ATK both decrease by <color=red>60%</color>. Lasts <color=red>3</color> turns. Can be dispelled."
	},
	{
		"ID": 30,
		"SkillID": 72013,
		"Target": 1,
		"Desc": "<color=#DC143C>[Enemy]</color>\nAfter taking action, you gain a shield. Damage dealt increases by <color=red>20%</color>, and the damage you take decreases by <color=red>50%</color>. Lasts <color=red>2</color> turns. Can be dispelled."
	},
	{
		"ID": 31,
		"SkillID": 72014,
		"Target": 1,
		"Desc": "<color=#DC143C>[Enemy]</color>\nDamage taken by enemy heroes increases by <color=red>30%</color>, damage taken by soldiers decreases by <color=red>50%</color>. All soldier HP is restored after battle."
	},
	{
		"ID": 32,
		"SkillID": 72015,
		"Target": 1,
		"Desc": "<color=#DC143C>[Enemy]</color>\nHP reduced by <color=red>50%</color>. Will only take fixed damage."
	},
	{
		"ID": 33,
		"SkillID": 72021,
		"Target": 1,
		"Desc": "<color=#DC143C>[Enemy]</color>\nDamage dealt by AoE skills increased by <color=red>100%</color>, other damages reduced by <color=red>50%</color>."
	},
	{
		"ID": 34,
		"SkillID": 72022,
		"Target": 1,
		"Desc": "<color=#DC143C>[Enemy]</color>\nWhen HP value is above <color=red>50%</color>, the physical damage taken is decreased by half. When below <color=red>50%</color>, the magical damage taken is decreased by half."
	},
	{
		"ID": 35,
		"SkillID": 72023,
		"Target": 1,
		"Desc": "<color=#DC143C>[Enemy]</color>\nWhen battling against Lancer, Infantry, and Aquatic units, all stats increase by <color=red>50%</color>."
	},
	{
		"ID": 36,
		"SkillID": 72024,
		"Target": 1,
		"Desc": "<color=#DC143C>[Enemy]</color>\nWhen battling against Cavalry and [Fliers], all stats increase by <color=red>50%</color>."
	},
	{
		"ID": 37,
		"SkillID": 72025,
		"Target": 1,
		"Desc": "<color=#DC143C>[Enemy]</color>\nWhen battling against Archers and Assassins, all stats increase by <color=red>50%</color>."
	},
	{
		"ID": 38,
		"SkillID": 72026,
		"Target": 1,
		"Desc": "<color=#DC143C>[Enemy]</color>\nWhen battling against Mages, Holy units, and Demons, all stats increase by <color=red>50%</color>."
	},
	{
		"ID": 39,
		"SkillID": 71031,
		"Target": 3,
		"Desc": "<color=#E1E100>[All]</color>\nAfter taking action, all units have a <color=red>30%</color> chance of acting again. (Unable to stack with similar skills.)"
	},
	{
		"ID": 40,
		"SkillID": 71032,
		"Target": 3,
		"Desc": "<color=#E1E100>[All]</color>\nAfter taking action, enemy units within <color=red>2</color> blocks will be subjected to <color=red>1</color>random debuff."
	},
	{
		"ID": 41,
		"SkillID": 72027,
		"Target": 1,
		"Desc": "<color=#DC143C>[Enemy]</color>\nImmune to fixed damage."
	},
	{
		"ID": 42,
		"SkillID": 72028,
		"Target": 1,
		"Desc": "<color=#DC143C>[Enemy]</color>\nImmune to all debuffs."
	},
	{
		"ID": 43,
		"SkillID": 72029,
		"Target": 3,
		"Desc": "<color=#E1E100>[All]</color>\nAfter taking action, receive a <color=red>30%</color> chance to gain Mobility <color=red>+2</color> for <color=red>1</color> turn."
	},
	{
		"ID": 44,
		"SkillID": 72033,
		"Target": 3,
		"Desc": "<color=#E1E100>[All]</color>\nWhenever a unit receives fatal damage for the first time, restores <color=red>30%</color> of Max HP. This effect can only be triggered <color=red>once</color> per unit."
	},
	{
		"ID": 45,
		"SkillID": 72035,
		"Target": 3,
		"Desc": "<color=#E1E100>[All]</color>\nMobility <color=red>+2</color>. Immune to Mobility reduction effects."
	},
	{
		"ID": 46,
		"SkillID": 72031,
		"Target": 1,
		"Desc": "<color=#DC143C>[Affects Enemies]</color>\nWhen there are allies within 2 blocks, increases all ATK and DEF stats by <color=red>20%</color>."
	},
	{
		"ID": 47,
		"SkillID": 72032,
		"Target": 1,
		"Desc": "<color=#DC143C>[Affects Enemies]</color>\nWhen there are no allies within 2 blocks, increases all ATK and DEF stats by <color=red>20%</color>."
	},
	{
		"ID": 48,
		"SkillID": 72034,
		"Target": 1,
		"Desc": "<color=#DC143C>[Effective on Enemies]</color>\nAfter taking action, if outside the <color=red>[Danger Zone]</color>, damage dealt will be increased by <color=red>30%</color> and damage taken will be decreased by <color=red>30%</color>. Lasts 1 turn."
	},
	{
		"ID": 49,
		"SkillID": 71026,
		"Target": 3,
		"Desc": "<color=#E1E100>[Affects All]</color>\nAfter attacking, reduces damage dealt by <color=red>20%</color>. (Cannot be dispelled.)"
	},
	{
		"ID": 50,
		"SkillID": 72012,
		"Target": 3,
		"Desc": "<color=#E1E100>[Affects All]</color>\nAfter being attacked, the attacker's INT and ATK both decrease by <color=red>60%</color>. Lasts <color=red>3</color> turns. (Can be dispelled.)"
	},
	{
		"ID": 51,
		"SkillID": 72013,
		"Target": 3,
		"Desc": "<color=#E1E100>[Affects All]</color>\nAfter taking action, you gain a buff. Increases damage dealt by <color=red>20%</color> and reduces damage taken by <color=red>50%</color>. Lasts <color=red>2</color> turns. (Can be dispelled.)"
	},
	{
		"ID": 52,
		"SkillID": 72031,
		"Target": 3,
		"Desc": "<color=#E1E100>[Affects All]</color>\nWhen you have an ally within 2 blocks, increases all ATK and DEF stats by <color=red>20%</color>."
	},
	{
		"ID": 53,
		"SkillID": 72032,
		"Target": 3,
		"Desc": "<color=#E1E100>[Affects All]</color>\nWhen you have no allies within 2 blocks, increases all ATK and DEF stats by <color=red>20%</color>."
	}
]