[
	{
		"ID": 1,
		"Name": "PVP1",
		"Desc": "PVP1",
		"WinDesc": "Eliminated the enemy!",
		"LoseDesc": "Your team is eliminated!",
		"BattlefieldID": 401,
		"MapImage": "Plains of Strife",
		"CameraY": 4,
		"DefendCameraX": 3,
		"DefendCameraY": 13,
		"BattleMusic": "BattleMusic_Prepare",
		"DefendBattleMusic": "BattleMusic_Knights_Errant",
		"WinConditionsID": [
			12
		],
		"LoseConditionsID": [
			999
		],
		"EventTriggersID": [
			999
		],
		"AttackNumber": 120617,
		"AttackDirs": [
			8,
			1,
			16,
			2,
			8,
			2,
			16,
			2,
			8,
			3,
			16,
			2,
			8,
			3,
			16,
			3,
			8,
			3,
			16,
			4,
			8,
			2,
			16,
			4,
			8,
			2,
			16,
			3,
			8,
			1,
			16,
			3,
			8,
			1,
			16,
			4
		],
		"DefendDirs": [
			8,
			14,
			16,
			2,
			8,
			15,
			16,
			2,
			8,
			16,
			16,
			2,
			8,
			16,
			16,
			3,
			8,
			16,
			16,
			4,
			8,
			15,
			16,
			4,
			8,
			15,
			16,
			3,
			8,
			14,
			16,
			3,
			8,
			14,
			16,
			4
		]
	},
	{
		"ID": 2,
		"Name": "PVP2",
		"Desc": "PVP2",
		"WinDesc": "Eliminated the enemy!",
		"LoseDesc": "Your team is eliminated!",
		"BattlefieldID": 402,
		"MapImage": "Windy Outpost",
		"CameraY": 4,
		"DefendCameraX": 3,
		"DefendCameraY": 13,
		"BattleMusic": "BattleMusic_Prepare",
		"DefendBattleMusic": "BattleMusic_07_No_Surrender_Remake_loop",
		"WinConditionsID": [
			12
		],
		"LoseConditionsID": [
			999
		],
		"EventTriggersID": [
			999
		],
		"AttackNumber": 120617,
		"AttackDirs": [
			8,
			1,
			16,
			2,
			8,
			2,
			16,
			2,
			8,
			3,
			16,
			2,
			8,
			3,
			16,
			3,
			8,
			3,
			16,
			4,
			8,
			2,
			16,
			4,
			8,
			2,
			16,
			3,
			8,
			1,
			16,
			3,
			8,
			1,
			16,
			4
		],
		"DefendDirs": [
			8,
			14,
			16,
			2,
			8,
			15,
			16,
			2,
			8,
			16,
			16,
			2,
			8,
			16,
			16,
			3,
			8,
			16,
			16,
			4,
			8,
			15,
			16,
			4,
			8,
			15,
			16,
			3,
			8,
			14,
			16,
			3,
			8,
			14,
			16,
			4
		]
	},
	{
		"ID": 3,
		"Name": "PVP3",
		"Desc": "PVP3",
		"WinDesc": "Eliminated the enemy!",
		"LoseDesc": "Your team is eliminated!",
		"BattlefieldID": 403,
		"MapImage": "The Cape of Sorrow",
		"CameraY": 4,
		"DefendCameraX": 3,
		"DefendCameraY": 13,
		"BattleMusic": "BattleMusic_Prepare",
		"DefendBattleMusic": "BattleMusic_NormalBattle",
		"WinConditionsID": [
			12
		],
		"LoseConditionsID": [
			999
		],
		"EventTriggersID": [
			999
		],
		"AttackNumber": 120617,
		"AttackDirs": [
			8,
			1,
			16,
			2,
			8,
			2,
			16,
			2,
			8,
			3,
			16,
			2,
			8,
			3,
			16,
			3,
			8,
			3,
			16,
			4,
			8,
			2,
			16,
			4,
			8,
			2,
			16,
			3,
			8,
			1,
			16,
			3,
			8,
			1,
			16,
			4
		],
		"DefendDirs": [
			8,
			14,
			16,
			2,
			8,
			15,
			16,
			2,
			8,
			16,
			16,
			2,
			8,
			16,
			16,
			3,
			8,
			16,
			16,
			4,
			8,
			15,
			16,
			4,
			8,
			15,
			16,
			3,
			8,
			14,
			16,
			3,
			8,
			14,
			16,
			4
		]
	},
	{
		"ID": 4,
		"Name": "PVP4",
		"Desc": "PVP4",
		"WinDesc": "Eliminated the enemy!",
		"LoseDesc": "Your team is eliminated!",
		"BattlefieldID": 404,
		"MapImage": "Eye of the Desert",
		"CameraY": 4,
		"DefendCameraX": 3,
		"DefendCameraY": 13,
		"BattleMusic": "BattleMusic_Prepare",
		"DefendBattleMusic": "BattleMusic_Neo_HolyWar",
		"WinConditionsID": [
			12
		],
		"LoseConditionsID": [
			999
		],
		"EventTriggersID": [
			999
		],
		"AttackNumber": 120617,
		"AttackDirs": [
			8,
			1,
			16,
			2,
			8,
			2,
			16,
			2,
			8,
			3,
			16,
			2,
			8,
			3,
			16,
			3,
			8,
			3,
			16,
			4,
			8,
			2,
			16,
			4,
			8,
			2,
			16,
			3,
			8,
			1,
			16,
			3,
			8,
			1,
			16,
			4
		],
		"DefendDirs": [
			8,
			14,
			16,
			2,
			8,
			15,
			16,
			2,
			8,
			16,
			16,
			2,
			8,
			16,
			16,
			3,
			8,
			16,
			16,
			4,
			8,
			15,
			16,
			4,
			8,
			15,
			16,
			3,
			8,
			14,
			16,
			3,
			8,
			14,
			16,
			4
		]
	},
	{
		"ID": 5,
		"Name": "PVP5",
		"Desc": "PVP5",
		"WinDesc": "Eliminated the enemy!",
		"LoseDesc": "Your team is eliminated!",
		"BattlefieldID": 405,
		"MapImage": "Floating Courtyard",
		"CameraY": 4,
		"DefendCameraX": 3,
		"DefendCameraY": 13,
		"BattleMusic": "BattleMusic_Prepare",
		"DefendBattleMusic": "BattleMusic_A_Story_Forever",
		"WinConditionsID": [
			12
		],
		"LoseConditionsID": [
			999
		],
		"EventTriggersID": [
			999
		],
		"AttackNumber": 120617,
		"AttackDirs": [
			8,
			1,
			16,
			2,
			8,
			2,
			16,
			2,
			8,
			3,
			16,
			2,
			8,
			3,
			16,
			3,
			8,
			3,
			16,
			4,
			8,
			2,
			16,
			4,
			8,
			2,
			16,
			3,
			8,
			1,
			16,
			3,
			8,
			1,
			16,
			4
		],
		"DefendDirs": [
			8,
			14,
			16,
			2,
			8,
			15,
			16,
			2,
			8,
			16,
			16,
			2,
			8,
			16,
			16,
			3,
			8,
			16,
			16,
			4,
			8,
			15,
			16,
			4,
			8,
			15,
			16,
			3,
			8,
			14,
			16,
			3,
			8,
			14,
			16,
			4
		]
	}
]