[
	{
		"ID": 1,
		"Name": "Village",
		"Desc": "Village",
		"FuncType": "CollectionActivityWaypointFuncType_Default",
		"WaypointsID": [
			6,
			11
		],
		"Model": "CollectionActivityMap/Waypoint1_ABS/Icon_Christmas3_Prefab.prefab",
		"InitState": "CollectionActivityWaypointStateType_Unlocked",
		"ScenarioLevelIdList": [
			4,
			6,
			12,
			15,
			23
		],
		"ChallengeLevelIdList": [
			1
		],
		"LootLevelIdList": [
			4,
			15,
			16
		]
	},
	{
		"ID": 2,
		"Name": "Camp",
		"Desc": "Camp",
		"FuncType": "CollectionActivityWaypointFuncType_Default",
		"WaypointsID": [
			9,
			12
		],
		"Model": "CollectionActivityMap/Waypoint1_ABS/Icon_Christmas1_Prefab.prefab",
		"InitState": "CollectionActivityWaypointStateType_Unlocked",
		"ScenarioLevelIdList": [
			1,
			8,
			9,
			16,
			19,
			22,
			26
		],
		"ChallengeLevelIdList": [
			4
		],
		"LootLevelIdList": [
			1,
			5,
			9,
			13
		]
	},
	{
		"ID": 3,
		"Name": "集市",
		"Desc": "集市",
		"FuncType": "CollectionActivityWaypointFuncType_Default",
		"WaypointsID": [
			8
		],
		"Model": "CollectionActivityMap/Waypoint1_ABS/Icon_Christmas4_Prefab.prefab",
		"InitState": "CollectionActivityWaypointStateType_Unlocked",
		"ScenarioLevelIdList": [
			3,
			7,
			11,
			17,
			20,
			25,
			28
		],
		"ChallengeLevelIdList": [
			3
		],
		"LootLevelIdList": [
			8,
			12
		]
	},
	{
		"ID": 4,
		"Name": "Eatery",
		"Desc": "Eatery",
		"FuncType": "CollectionActivityWaypointFuncType_Default",
		"WaypointsID": [
			13,
			14
		],
		"Model": "CollectionActivityMap/Waypoint1_ABS/Icon_Christmas5_Prefab.prefab",
		"InitState": "CollectionActivityWaypointStateType_Unlocked",
		"ScenarioLevelIdList": [
			2,
			10,
			14,
			18,
			24,
			27
		],
		"ChallengeLevelIdList": [
			5
		],
		"LootLevelIdList": [
			3,
			7,
			11
		]
	},
	{
		"ID": 5,
		"Name": "Mountain Valley",
		"Desc": "Mountain Valley",
		"FuncType": "CollectionActivityWaypointFuncType_Default",
		"WaypointsID": [
			16
		],
		"Model": "CollectionActivityMap/Waypoint1_ABS/Icon_Christmas2_Prefab.prefab",
		"InitState": "CollectionActivityWaypointStateType_Unlocked",
		"ScenarioLevelIdList": [
			5,
			13,
			21
		],
		"ChallengeLevelIdList": [
			2
		],
		"LootLevelIdList": [
			2,
			6,
			10,
			14
		]
	},
	{
		"ID": 6,
		"Name": "Waypoint 6",
		"Desc": "Waypoint 6",
		"FuncType": "CollectionActivityWaypointFuncType_Empty",
		"WaypointsID": [
			1,
			7
		],
		"Model": "CollectionActivityMap/Waypoint1_ABS/Icon-ThePlace_Prefab.prefab",
		"InitState": "CollectionActivityWaypointStateType_Unlocked"
	},
	{
		"ID": 7,
		"Name": "Waypoint 7",
		"Desc": "Waypoint 7",
		"FuncType": "CollectionActivityWaypointFuncType_Empty",
		"WaypointsID": [
			6,
			8
		],
		"Model": "CollectionActivityMap/Waypoint1_ABS/Icon-ThePlace_Prefab.prefab",
		"InitState": "CollectionActivityWaypointStateType_Unlocked"
	},
	{
		"ID": 8,
		"Name": "Waypoint 8",
		"Desc": "Waypoint 8",
		"FuncType": "CollectionActivityWaypointFuncType_Empty",
		"WaypointsID": [
			7,
			3
		],
		"Model": "CollectionActivityMap/Waypoint1_ABS/Icon-ThePlace_Prefab.prefab",
		"InitState": "CollectionActivityWaypointStateType_Unlocked"
	},
	{
		"ID": 9,
		"Name": "路点9",
		"Desc": "路点9",
		"FuncType": "CollectionActivityWaypointFuncType_Empty",
		"WaypointsID": [
			2,
			10
		],
		"Model": "CollectionActivityMap/Waypoint1_ABS/Icon-ThePlace_Prefab.prefab",
		"InitState": "CollectionActivityWaypointStateType_Unlocked"
	},
	{
		"ID": 10,
		"Name": "路点10",
		"Desc": "路点10",
		"FuncType": "CollectionActivityWaypointFuncType_Empty",
		"WaypointsID": [
			9,
			11
		],
		"Model": "CollectionActivityMap/Waypoint1_ABS/Icon-ThePlace_Prefab.prefab",
		"InitState": "CollectionActivityWaypointStateType_Unlocked"
	},
	{
		"ID": 11,
		"Name": "Waypoint 11",
		"Desc": "Waypoint 11",
		"FuncType": "CollectionActivityWaypointFuncType_Empty",
		"WaypointsID": [
			10,
			1
		],
		"Model": "CollectionActivityMap/Waypoint1_ABS/Icon-ThePlace_Prefab.prefab",
		"InitState": "CollectionActivityWaypointStateType_Unlocked"
	},
	{
		"ID": 12,
		"Name": "Waypoint 12",
		"Desc": "Waypoint 12",
		"FuncType": "CollectionActivityWaypointFuncType_Empty",
		"WaypointsID": [
			2,
			13
		],
		"Model": "CollectionActivityMap/Waypoint1_ABS/Icon-ThePlace_Prefab.prefab",
		"InitState": "CollectionActivityWaypointStateType_Unlocked"
	},
	{
		"ID": 13,
		"Name": "Waypoint 13",
		"Desc": "Waypoint 13",
		"FuncType": "CollectionActivityWaypointFuncType_Empty",
		"WaypointsID": [
			12,
			4
		],
		"Model": "CollectionActivityMap/Waypoint1_ABS/Icon-ThePlace_Prefab.prefab",
		"InitState": "CollectionActivityWaypointStateType_Unlocked"
	},
	{
		"ID": 14,
		"Name": "Waypoint 14",
		"Desc": "Waypoint 14",
		"FuncType": "CollectionActivityWaypointFuncType_Empty",
		"WaypointsID": [
			4,
			15
		],
		"Model": "CollectionActivityMap/Waypoint1_ABS/Icon-ThePlace_Prefab.prefab",
		"InitState": "CollectionActivityWaypointStateType_Unlocked"
	},
	{
		"ID": 15,
		"Name": "Waypoint 15",
		"Desc": "Waypoint 15",
		"FuncType": "CollectionActivityWaypointFuncType_Empty",
		"WaypointsID": [
			14,
			16
		],
		"Model": "CollectionActivityMap/Waypoint1_ABS/Icon-ThePlace_Prefab.prefab",
		"InitState": "CollectionActivityWaypointStateType_Unlocked"
	},
	{
		"ID": 16,
		"Name": "Waypoint 16",
		"Desc": "Waypoint 16",
		"FuncType": "CollectionActivityWaypointFuncType_Empty",
		"WaypointsID": [
			15,
			5
		],
		"Model": "CollectionActivityMap/Waypoint1_ABS/Icon-ThePlace_Prefab.prefab",
		"InitState": "CollectionActivityWaypointStateType_Unlocked"
	},
	{
		"ID": 101,
		"Name": "Theater",
		"Desc": "Theater",
		"FuncType": "CollectionActivityWaypointFuncType_Default",
		"WaypointsID": [
			106,
			114,
			120,
			121
		],
		"Model": "CollectionActivityMap/Waypoint1_ABS/Icon_Theater_Prefab.prefab",
		"InitState": "CollectionActivityWaypointStateType_Locked",
		"ScenarioLevelIdList": [
			103,
			104,
			105,
			107
		],
		"LootLevelIdList": [
			104
		]
	},
	{
		"ID": 102,
		"Name": "Guild Stronghold",
		"Desc": "Guild Stronghold",
		"FuncType": "CollectionActivityWaypointFuncType_Default",
		"WaypointsID": [
			108,
			115,
			109
		],
		"Model": "CollectionActivityMap/Waypoint1_ABS/Icon_HimladFort_Prefab.prefab",
		"InitState": "CollectionActivityWaypointStateType_Locked",
		"ScenarioLevelIdList": [
			102
		],
		"ChallengeLevelIdList": [
			101
		],
		"LootLevelIdList": [
			101,
			105,
			107
		]
	},
	{
		"ID": 103,
		"Name": "Sunset Town",
		"Desc": "Sunset Town",
		"FuncType": "CollectionActivityWaypointFuncType_Default",
		"WaypointsID": [
			111,
			112
		],
		"Model": "CollectionActivityMap/Waypoint1_ABS/Icon_Tonwn_Prefab.prefab",
		"InitState": "CollectionActivityWaypointStateType_Locked",
		"ChallengeLevelIdList": [
			103
		],
		"LootLevelIdList": [
			102,
			106
		]
	},
	{
		"ID": 104,
		"Name": "Dimension Door",
		"Desc": "Dimension Door",
		"FuncType": "CollectionActivityWaypointFuncType_Default",
		"WaypointsID": [
			117,
			118
		],
		"Model": "CollectionActivityMap/Waypoint1_ABS/Icon_TimeGate_Prefab.prefab",
		"InitState": "CollectionActivityWaypointStateType_Unlocked",
		"ScenarioLevelIdList": [
			101,
			106
		],
		"ChallengeLevelIdList": [
			104
		],
		"LootLevelIdList": [
			103,
			108
		]
	},
	{
		"ID": 105,
		"Name": "Morning Glow Harbor",
		"Desc": "Morning Glow Harbor",
		"FuncType": "CollectionActivityWaypointFuncType_Default",
		"WaypointsID": [
			123
		],
		"Model": "CollectionActivityMap/Waypoint1_ABS/Icon_Limuliyagang_Prefab.prefab",
		"InitState": "CollectionActivityWaypointStateType_Locked",
		"ChallengeLevelIdList": [
			102,
			105
		],
		"LootLevelIdList": [
			109
		]
	},
	{
		"ID": 106,
		"Name": "Waypoint 106",
		"Desc": "Waypoint 106",
		"FuncType": "CollectionActivityWaypointFuncType_Empty",
		"WaypointsID": [
			101,
			107
		],
		"Model": "CollectionActivityMap/Waypoint1_ABS/Icon-ThePlace_Prefab.prefab",
		"InitState": "CollectionActivityWaypointStateType_Unlocked"
	},
	{
		"ID": 107,
		"Name": "Waypoint 107",
		"Desc": "Waypoint 107",
		"FuncType": "CollectionActivityWaypointFuncType_Empty",
		"WaypointsID": [
			106,
			108
		],
		"Model": "CollectionActivityMap/Waypoint1_ABS/Icon-ThePlace_Prefab.prefab",
		"InitState": "CollectionActivityWaypointStateType_Unlocked"
	},
	{
		"ID": 108,
		"Name": "Waypoint 108",
		"Desc": "Waypoint 108",
		"FuncType": "CollectionActivityWaypointFuncType_Empty",
		"WaypointsID": [
			107,
			102
		],
		"Model": "CollectionActivityMap/Waypoint1_ABS/Icon-ThePlace_Prefab.prefab",
		"InitState": "CollectionActivityWaypointStateType_Unlocked"
	},
	{
		"ID": 109,
		"Name": "Waypoint 109",
		"Desc": "Waypoint 109",
		"FuncType": "CollectionActivityWaypointFuncType_Empty",
		"WaypointsID": [
			102,
			110
		],
		"Model": "CollectionActivityMap/Waypoint1_ABS/Icon-ThePlace_Prefab.prefab",
		"InitState": "CollectionActivityWaypointStateType_Unlocked"
	},
	{
		"ID": 110,
		"Name": "Waypoint 110",
		"Desc": "Waypoint 110",
		"FuncType": "CollectionActivityWaypointFuncType_Empty",
		"WaypointsID": [
			109,
			111
		],
		"Model": "CollectionActivityMap/Waypoint1_ABS/Icon-ThePlace_Prefab.prefab",
		"InitState": "CollectionActivityWaypointStateType_Unlocked"
	},
	{
		"ID": 111,
		"Name": "Waypoint 111",
		"Desc": "Waypoint 111",
		"FuncType": "CollectionActivityWaypointFuncType_Empty",
		"WaypointsID": [
			103,
			110
		],
		"Model": "CollectionActivityMap/Waypoint1_ABS/Icon-ThePlace_Prefab.prefab",
		"InitState": "CollectionActivityWaypointStateType_Unlocked"
	},
	{
		"ID": 112,
		"Name": "Waypoint 112",
		"Desc": "Waypoint 112",
		"FuncType": "CollectionActivityWaypointFuncType_Empty",
		"WaypointsID": [
			103,
			113
		],
		"Model": "CollectionActivityMap/Waypoint1_ABS/Icon-ThePlace_Prefab.prefab",
		"InitState": "CollectionActivityWaypointStateType_Unlocked"
	},
	{
		"ID": 113,
		"Name": "Waypoint 113",
		"Desc": "Waypoint 113",
		"FuncType": "CollectionActivityWaypointFuncType_Empty",
		"WaypointsID": [
			112,
			114
		],
		"Model": "CollectionActivityMap/Waypoint1_ABS/Icon-ThePlace_Prefab.prefab",
		"InitState": "CollectionActivityWaypointStateType_Unlocked"
	},
	{
		"ID": 114,
		"Name": "Waypoint 114",
		"Desc": "Waypoint 114",
		"FuncType": "CollectionActivityWaypointFuncType_Empty",
		"WaypointsID": [
			113,
			101
		],
		"Model": "CollectionActivityMap/Waypoint1_ABS/Icon-ThePlace_Prefab.prefab",
		"InitState": "CollectionActivityWaypointStateType_Unlocked"
	},
	{
		"ID": 115,
		"Name": "Waypoint 115",
		"Desc": "Waypoint 115",
		"FuncType": "CollectionActivityWaypointFuncType_Empty",
		"WaypointsID": [
			102,
			116
		],
		"Model": "CollectionActivityMap/Waypoint1_ABS/Icon-ThePlace_Prefab.prefab",
		"InitState": "CollectionActivityWaypointStateType_Unlocked"
	},
	{
		"ID": 116,
		"Name": "Waypoint 116",
		"Desc": "Waypoint 116",
		"FuncType": "CollectionActivityWaypointFuncType_Empty",
		"WaypointsID": [
			115,
			117
		],
		"Model": "CollectionActivityMap/Waypoint1_ABS/Icon-ThePlace_Prefab.prefab",
		"InitState": "CollectionActivityWaypointStateType_Unlocked"
	},
	{
		"ID": 117,
		"Name": "Waypoint 117",
		"Desc": "Waypoint 117",
		"FuncType": "CollectionActivityWaypointFuncType_Empty",
		"WaypointsID": [
			116,
			104
		],
		"Model": "CollectionActivityMap/Waypoint1_ABS/Icon-ThePlace_Prefab.prefab",
		"InitState": "CollectionActivityWaypointStateType_Unlocked"
	},
	{
		"ID": 118,
		"Name": "Waypoint 118",
		"Desc": "Waypoint 118",
		"FuncType": "CollectionActivityWaypointFuncType_Empty",
		"WaypointsID": [
			104,
			119
		],
		"Model": "CollectionActivityMap/Waypoint1_ABS/Icon-ThePlace_Prefab.prefab",
		"InitState": "CollectionActivityWaypointStateType_Unlocked"
	},
	{
		"ID": 119,
		"Name": "Waypoint 119",
		"Desc": "Waypoint 119",
		"FuncType": "CollectionActivityWaypointFuncType_Empty",
		"WaypointsID": [
			118,
			120
		],
		"Model": "CollectionActivityMap/Waypoint1_ABS/Icon-ThePlace_Prefab.prefab",
		"InitState": "CollectionActivityWaypointStateType_Unlocked"
	},
	{
		"ID": 120,
		"Name": "Waypoint 120",
		"Desc": "Waypoint 120",
		"FuncType": "CollectionActivityWaypointFuncType_Empty",
		"WaypointsID": [
			119,
			101
		],
		"Model": "CollectionActivityMap/Waypoint1_ABS/Icon-ThePlace_Prefab.prefab",
		"InitState": "CollectionActivityWaypointStateType_Unlocked"
	},
	{
		"ID": 121,
		"Name": "Waypoint 121",
		"Desc": "Waypoint 121",
		"FuncType": "CollectionActivityWaypointFuncType_Empty",
		"WaypointsID": [
			101,
			122
		],
		"Model": "CollectionActivityMap/Waypoint1_ABS/Icon-ThePlace_Prefab.prefab",
		"InitState": "CollectionActivityWaypointStateType_Unlocked"
	},
	{
		"ID": 122,
		"Name": "Waypoint 122",
		"Desc": "Waypoint 122",
		"FuncType": "CollectionActivityWaypointFuncType_Empty",
		"WaypointsID": [
			121,
			123
		],
		"Model": "CollectionActivityMap/Waypoint1_ABS/Icon-ThePlace_Prefab.prefab",
		"InitState": "CollectionActivityWaypointStateType_Unlocked"
	},
	{
		"ID": 123,
		"Name": "Waypoint 123",
		"Desc": "Waypoint 123",
		"FuncType": "CollectionActivityWaypointFuncType_Empty",
		"WaypointsID": [
			122,
			105
		],
		"Model": "CollectionActivityMap/Waypoint1_ABS/Icon-ThePlace_Prefab.prefab",
		"InitState": "CollectionActivityWaypointStateType_Unlocked"
	},
	{
		"ID": 201,
		"Name": "Airport",
		"Desc": "",
		"FuncType": "CollectionActivityWaypointFuncType_Default",
		"WaypointsID": [
			206,
			210
		],
		"Model": "CollectionActivityMap/Waypoint1_ABS/Icon_Airport_Prefab.prefab",
		"InitState": "CollectionActivityWaypointStateType_Unlocked",
		"ScenarioLevelIdList": [
			201
		],
		"ChallengeLevelIdList": [
			205
		],
		"LootLevelIdList": [
			201,
			204,
			207
		]
	},
	{
		"ID": 202,
		"Name": "Residential Area",
		"Desc": "",
		"FuncType": "CollectionActivityWaypointFuncType_Default",
		"WaypointsID": [
			213,
			209
		],
		"Model": "CollectionActivityMap/Waypoint1_ABS/Icon_ResidentialArea_Prefab.prefab",
		"InitState": "CollectionActivityWaypointStateType_Locked",
		"ScenarioLevelIdList": [
			202
		],
		"ChallengeLevelIdList": [
			201
		],
		"LootLevelIdList": [
			203
		]
	},
	{
		"ID": 203,
		"Name": "War Preparation Zone",
		"Desc": "",
		"FuncType": "CollectionActivityWaypointFuncType_Default",
		"WaypointsID": [
			212,
			216,
			217
		],
		"Model": "CollectionActivityMap/Waypoint1_ABS/Icon_WarArea_Prefab.prefab",
		"InitState": "CollectionActivityWaypointStateType_Locked",
		"ScenarioLevelIdList": [
			203,
			205
		],
		"ChallengeLevelIdList": [
			203
		],
		"LootLevelIdList": [
			205,
			209
		]
	},
	{
		"ID": 204,
		"Name": "Ancient Hangar",
		"Desc": "",
		"FuncType": "CollectionActivityWaypointFuncType_Default",
		"WaypointsID": [
			219,
			215,
			214
		],
		"Model": "CollectionActivityMap/Waypoint1_ABS/Icon_OldHangar_Prefab.prefab",
		"InitState": "CollectionActivityWaypointStateType_Locked",
		"ScenarioLevelIdList": [
			204
		],
		"ChallengeLevelIdList": [
			204
		],
		"LootLevelIdList": [
			202,
			206
		]
	},
	{
		"ID": 205,
		"Name": "Power Core",
		"Desc": "",
		"FuncType": "CollectionActivityWaypointFuncType_Default",
		"WaypointsID": [
			216,
			215
		],
		"Model": "CollectionActivityMap/Waypoint1_ABS/Icon_PowerCore_Prefab.prefab",
		"InitState": "CollectionActivityWaypointStateType_Locked",
		"ScenarioLevelIdList": [
			206,
			207
		],
		"ChallengeLevelIdList": [
			202
		],
		"LootLevelIdList": [
			208
		]
	},
	{
		"ID": 206,
		"Name": "Waypoint 206",
		"Desc": "",
		"FuncType": "CollectionActivityWaypointFuncType_Empty",
		"WaypointsID": [
			201,
			207
		],
		"Model": "CollectionActivityMap/Waypoint1_ABS/Icon-ThePlace_Prefab.prefab",
		"InitState": "CollectionActivityWaypointStateType_Unlocked"
	},
	{
		"ID": 207,
		"Name": "Waypoint 207",
		"Desc": "",
		"FuncType": "CollectionActivityWaypointFuncType_Empty",
		"WaypointsID": [
			206,
			208
		],
		"Model": "CollectionActivityMap/Waypoint1_ABS/Icon-ThePlace_Prefab.prefab",
		"InitState": "CollectionActivityWaypointStateType_Unlocked"
	},
	{
		"ID": 208,
		"Name": "Waypoint 208",
		"Desc": "",
		"FuncType": "CollectionActivityWaypointFuncType_Empty",
		"WaypointsID": [
			207,
			209
		],
		"Model": "CollectionActivityMap/Waypoint1_ABS/Icon-ThePlace_Prefab.prefab",
		"InitState": "CollectionActivityWaypointStateType_Unlocked"
	},
	{
		"ID": 209,
		"Name": "Waypoint 209",
		"Desc": "",
		"FuncType": "CollectionActivityWaypointFuncType_Empty",
		"WaypointsID": [
			208,
			202
		],
		"Model": "CollectionActivityMap/Waypoint1_ABS/Icon-ThePlace_Prefab.prefab",
		"InitState": "CollectionActivityWaypointStateType_Unlocked"
	},
	{
		"ID": 210,
		"Name": "Waypoint 210",
		"Desc": "",
		"FuncType": "CollectionActivityWaypointFuncType_Empty",
		"WaypointsID": [
			201,
			211
		],
		"Model": "CollectionActivityMap/Waypoint1_ABS/Icon-ThePlace_Prefab.prefab",
		"InitState": "CollectionActivityWaypointStateType_Unlocked"
	},
	{
		"ID": 211,
		"Name": "Waypoint 211",
		"Desc": "",
		"FuncType": "CollectionActivityWaypointFuncType_Empty",
		"WaypointsID": [
			210,
			212
		],
		"Model": "CollectionActivityMap/Waypoint1_ABS/Icon-ThePlace_Prefab.prefab",
		"InitState": "CollectionActivityWaypointStateType_Unlocked"
	},
	{
		"ID": 212,
		"Name": "Waypoint 212",
		"Desc": "",
		"FuncType": "CollectionActivityWaypointFuncType_Empty",
		"WaypointsID": [
			211,
			203
		],
		"Model": "CollectionActivityMap/Waypoint1_ABS/Icon-ThePlace_Prefab.prefab",
		"InitState": "CollectionActivityWaypointStateType_Unlocked"
	},
	{
		"ID": 213,
		"Name": "Waypoint 213",
		"Desc": "",
		"FuncType": "CollectionActivityWaypointFuncType_Empty",
		"WaypointsID": [
			202,
			214
		],
		"Model": "CollectionActivityMap/Waypoint1_ABS/Icon-ThePlace_Prefab.prefab",
		"InitState": "CollectionActivityWaypointStateType_Unlocked"
	},
	{
		"ID": 214,
		"Name": "Waypoint 214",
		"Desc": "",
		"FuncType": "CollectionActivityWaypointFuncType_Empty",
		"WaypointsID": [
			213,
			204
		],
		"Model": "CollectionActivityMap/Waypoint1_ABS/Icon-ThePlace_Prefab.prefab",
		"InitState": "CollectionActivityWaypointStateType_Unlocked"
	},
	{
		"ID": 215,
		"Name": "Waypoint 215",
		"Desc": "",
		"FuncType": "CollectionActivityWaypointFuncType_Empty",
		"WaypointsID": [
			204,
			205
		],
		"Model": "CollectionActivityMap/Waypoint1_ABS/Icon-ThePlace_Prefab.prefab",
		"InitState": "CollectionActivityWaypointStateType_Unlocked"
	},
	{
		"ID": 216,
		"Name": "Waypoint 216",
		"Desc": "",
		"FuncType": "CollectionActivityWaypointFuncType_Empty",
		"WaypointsID": [
			203,
			205
		],
		"Model": "CollectionActivityMap/Waypoint1_ABS/Icon-ThePlace_Prefab.prefab",
		"InitState": "CollectionActivityWaypointStateType_Unlocked"
	},
	{
		"ID": 217,
		"Name": "Waypoint 217",
		"Desc": "",
		"FuncType": "CollectionActivityWaypointFuncType_Empty",
		"WaypointsID": [
			203,
			218
		],
		"Model": "CollectionActivityMap/Waypoint1_ABS/Icon-ThePlace_Prefab.prefab",
		"InitState": "CollectionActivityWaypointStateType_Unlocked"
	},
	{
		"ID": 218,
		"Name": "Waypoint 218",
		"Desc": "",
		"FuncType": "CollectionActivityWaypointFuncType_Empty",
		"WaypointsID": [
			217,
			219
		],
		"Model": "CollectionActivityMap/Waypoint1_ABS/Icon-ThePlace_Prefab.prefab",
		"InitState": "CollectionActivityWaypointStateType_Unlocked"
	},
	{
		"ID": 219,
		"Name": "Waypoint 219",
		"Desc": "",
		"FuncType": "CollectionActivityWaypointFuncType_Empty",
		"WaypointsID": [
			204,
			218
		],
		"Model": "CollectionActivityMap/Waypoint1_ABS/Icon-ThePlace_Prefab.prefab",
		"InitState": "CollectionActivityWaypointStateType_Unlocked"
	},
	{
		"ID": 301,
		"Name": "Path of the Overlord",
		"Desc": "",
		"FuncType": "CollectionActivityWaypointFuncType_Default",
		"WaypointsID": [
			302
		],
		"Model": "CollectionActivityMap/Waypoint1_ABS/Icon_StroySP01_Prefab.prefab",
		"InitState": "CollectionActivityWaypointStateType_Unlocked",
		"ScenarioLevelIdList": [
			301
		],
		"LootLevelIdList": [
			301
		]
	},
	{
		"ID": 302,
		"Name": "Emperor Bernhardt",
		"Desc": "",
		"FuncType": "CollectionActivityWaypointFuncType_Default",
		"WaypointsID": [
			301,
			316
		],
		"Model": "CollectionActivityMap/Waypoint1_ABS/Icon_StroySP02_Prefab.prefab",
		"InitState": "CollectionActivityWaypointStateType_Locked",
		"ScenarioLevelIdList": [
			302
		],
		"LootLevelIdList": [
			302
		]
	},
	{
		"ID": 303,
		"Name": "Treachery",
		"Desc": "",
		"FuncType": "CollectionActivityWaypointFuncType_Default",
		"WaypointsID": [
			316,
			317
		],
		"Model": "CollectionActivityMap/Waypoint1_ABS/Icon_StroySP03_Prefab.prefab",
		"InitState": "CollectionActivityWaypointStateType_Locked",
		"ScenarioLevelIdList": [
			303
		],
		"LootLevelIdList": [
			303
		]
	},
	{
		"ID": 304,
		"Name": "The Fall of Kalxath",
		"Desc": "",
		"FuncType": "CollectionActivityWaypointFuncType_Default",
		"WaypointsID": [
			317,
			318
		],
		"Model": "CollectionActivityMap/Waypoint1_ABS/Icon_StroySP04_Prefab.prefab",
		"InitState": "CollectionActivityWaypointStateType_Locked",
		"ScenarioLevelIdList": [
			304
		],
		"LootLevelIdList": [
			304
		]
	},
	{
		"ID": 305,
		"Name": "The True Demon Blade, Alhazard",
		"Desc": "",
		"FuncType": "CollectionActivityWaypointFuncType_Default",
		"WaypointsID": [
			319,
			320,
			322
		],
		"Model": "CollectionActivityMap/Waypoint1_ABS/Icon_StroySP05_Prefab.prefab",
		"InitState": "CollectionActivityWaypointStateType_Locked",
		"ScenarioLevelIdList": [
			305
		],
		"LootLevelIdList": [
			305
		]
	},
	{
		"ID": 306,
		"Name": "The Final Day of the Empire",
		"Desc": "",
		"FuncType": "CollectionActivityWaypointFuncType_Default",
		"WaypointsID": [
			320,
			321
		],
		"Model": "CollectionActivityMap/Waypoint1_ABS/Icon_StroySP11_Prefab.prefab",
		"InitState": "CollectionActivityWaypointStateType_Locked",
		"ChallengeLevelIdList": [
			301
		]
	},
	{
		"ID": 307,
		"Name": "Legends of Darkness",
		"Desc": "",
		"FuncType": "CollectionActivityWaypointFuncType_Default",
		"WaypointsID": [
			321
		],
		"Model": "CollectionActivityMap/Waypoint1_ABS/Icon_StroySP12_Prefab.prefab",
		"InitState": "CollectionActivityWaypointStateType_Locked",
		"ChallengeLevelIdList": [
			302
		]
	},
	{
		"ID": 308,
		"Name": "The Path of the Overlord",
		"Desc": "",
		"FuncType": "CollectionActivityWaypointFuncType_Default",
		"WaypointsID": [
			323,
			324
		],
		"Model": "CollectionActivityMap/Waypoint1_ABS/Icon_StroySP06_Prefab.prefab",
		"InitState": "CollectionActivityWaypointStateType_Locked",
		"ScenarioLevelIdList": [
			306
		],
		"LootLevelIdList": [
			306
		]
	},
	{
		"ID": 309,
		"Name": "Fury of the Blue Dragons",
		"Desc": "",
		"FuncType": "CollectionActivityWaypointFuncType_Default",
		"WaypointsID": [
			324,
			310
		],
		"Model": "CollectionActivityMap/Waypoint1_ABS/Icon_StroySP07_Prefab.prefab",
		"InitState": "CollectionActivityWaypointStateType_Locked",
		"ScenarioLevelIdList": [
			307
		],
		"LootLevelIdList": [
			307
		]
	},
	{
		"ID": 310,
		"Name": "Emperor Bernhardt",
		"Desc": "",
		"FuncType": "CollectionActivityWaypointFuncType_Default",
		"WaypointsID": [
			309,
			325,
			329
		],
		"Model": "CollectionActivityMap/Waypoint1_ABS/Icon_StroySP08_Prefab.prefab",
		"InitState": "CollectionActivityWaypointStateType_Locked",
		"ScenarioLevelIdList": [
			308
		],
		"LootLevelIdList": [
			308
		]
	},
	{
		"ID": 311,
		"Name": "Spare None",
		"Desc": "",
		"FuncType": "CollectionActivityWaypointFuncType_Default",
		"WaypointsID": [
			326,
			327
		],
		"Model": "CollectionActivityMap/Waypoint1_ABS/Icon_StroySP09_Prefab.prefab",
		"InitState": "CollectionActivityWaypointStateType_Locked",
		"ScenarioLevelIdList": [
			309
		],
		"LootLevelIdList": [
			309
		]
	},
	{
		"ID": 312,
		"Name": "Lonely King",
		"Desc": "",
		"FuncType": "CollectionActivityWaypointFuncType_Default",
		"WaypointsID": [
			328,
			313
		],
		"Model": "CollectionActivityMap/Waypoint1_ABS/Icon_StroySP10_Prefab.prefab",
		"InitState": "CollectionActivityWaypointStateType_Locked",
		"ScenarioLevelIdList": [
			310
		]
	},
	{
		"ID": 313,
		"Name": "Lightless Eulogy",
		"Desc": "",
		"FuncType": "CollectionActivityWaypointFuncType_Default",
		"WaypointsID": [
			312
		],
		"Model": "CollectionActivityMap/Waypoint1_ABS/Icon_StroySP15_Prefab.prefab",
		"InitState": "CollectionActivityWaypointStateType_Locked",
		"ChallengeLevelIdList": [
			305
		]
	},
	{
		"ID": 314,
		"Name": "Remnants of a God",
		"Desc": "",
		"FuncType": "CollectionActivityWaypointFuncType_Default",
		"WaypointsID": [
			329,
			315
		],
		"Model": "CollectionActivityMap/Waypoint1_ABS/Icon_StroySP13_Prefab.prefab",
		"InitState": "CollectionActivityWaypointStateType_Locked",
		"ChallengeLevelIdList": [
			303
		]
	},
	{
		"ID": 315,
		"Name": "New Glory",
		"Desc": "",
		"FuncType": "CollectionActivityWaypointFuncType_Default",
		"WaypointsID": [
			314
		],
		"Model": "CollectionActivityMap/Waypoint1_ABS/Icon_StroySP14_Prefab.prefab",
		"InitState": "CollectionActivityWaypointStateType_Locked",
		"ChallengeLevelIdList": [
			304
		]
	},
	{
		"ID": 316,
		"Name": "",
		"Desc": "",
		"FuncType": "CollectionActivityWaypointFuncType_Empty",
		"WaypointsID": [
			302,
			303
		],
		"Model": "",
		"InitState": "CollectionActivityWaypointStateType_Unlocked"
	},
	{
		"ID": 317,
		"Name": "",
		"Desc": "",
		"FuncType": "CollectionActivityWaypointFuncType_Empty",
		"WaypointsID": [
			303,
			304
		],
		"Model": "",
		"InitState": "CollectionActivityWaypointStateType_Unlocked"
	},
	{
		"ID": 318,
		"Name": "",
		"Desc": "",
		"FuncType": "CollectionActivityWaypointFuncType_Empty",
		"WaypointsID": [
			304,
			319
		],
		"Model": "",
		"InitState": "CollectionActivityWaypointStateType_Unlocked"
	},
	{
		"ID": 319,
		"Name": "",
		"Desc": "",
		"FuncType": "CollectionActivityWaypointFuncType_Empty",
		"WaypointsID": [
			318,
			305
		],
		"Model": "",
		"InitState": "CollectionActivityWaypointStateType_Unlocked"
	},
	{
		"ID": 320,
		"Name": "",
		"Desc": "",
		"FuncType": "CollectionActivityWaypointFuncType_Empty",
		"WaypointsID": [
			305,
			306
		],
		"Model": "",
		"InitState": "CollectionActivityWaypointStateType_Unlocked"
	},
	{
		"ID": 321,
		"Name": "",
		"Desc": "",
		"FuncType": "CollectionActivityWaypointFuncType_Empty",
		"WaypointsID": [
			306,
			307
		],
		"Model": "",
		"InitState": "CollectionActivityWaypointStateType_Unlocked"
	},
	{
		"ID": 322,
		"Name": "",
		"Desc": "",
		"FuncType": "CollectionActivityWaypointFuncType_Empty",
		"WaypointsID": [
			305,
			323
		],
		"Model": "",
		"InitState": "CollectionActivityWaypointStateType_Unlocked"
	},
	{
		"ID": 323,
		"Name": "",
		"Desc": "",
		"FuncType": "CollectionActivityWaypointFuncType_Empty",
		"WaypointsID": [
			322,
			308
		],
		"Model": "",
		"InitState": "CollectionActivityWaypointStateType_Unlocked"
	},
	{
		"ID": 324,
		"Name": "",
		"Desc": "",
		"FuncType": "CollectionActivityWaypointFuncType_Empty",
		"WaypointsID": [
			308,
			309
		],
		"Model": "",
		"InitState": "CollectionActivityWaypointStateType_Unlocked"
	},
	{
		"ID": 325,
		"Name": "",
		"Desc": "",
		"FuncType": "CollectionActivityWaypointFuncType_Empty",
		"WaypointsID": [
			310,
			326
		],
		"Model": "",
		"InitState": "CollectionActivityWaypointStateType_Unlocked"
	},
	{
		"ID": 326,
		"Name": "",
		"Desc": "",
		"FuncType": "CollectionActivityWaypointFuncType_Empty",
		"WaypointsID": [
			325,
			311
		],
		"Model": "",
		"InitState": "CollectionActivityWaypointStateType_Unlocked"
	},
	{
		"ID": 327,
		"Name": "",
		"Desc": "",
		"FuncType": "CollectionActivityWaypointFuncType_Empty",
		"WaypointsID": [
			328,
			311
		],
		"Model": "",
		"InitState": "CollectionActivityWaypointStateType_Unlocked"
	},
	{
		"ID": 328,
		"Name": "",
		"Desc": "",
		"FuncType": "CollectionActivityWaypointFuncType_Empty",
		"WaypointsID": [
			327,
			312
		],
		"Model": "",
		"InitState": "CollectionActivityWaypointStateType_Unlocked"
	},
	{
		"ID": 329,
		"Name": "",
		"Desc": "",
		"FuncType": "CollectionActivityWaypointFuncType_Empty",
		"WaypointsID": [
			310,
			314
		],
		"Model": "",
		"InitState": "CollectionActivityWaypointStateType_Unlocked"
	},
	{
		"ID": 401,
		"Name": "Attack",
		"Desc": "",
		"FuncType": "CollectionActivityWaypointFuncType_Default",
		"WaypointsID": [
			410
		],
		"Model": "CollectionActivityMap/Waypoint1_ABS/Icon-ThePlace1_Prefab.prefab",
		"InitState": "CollectionActivityWaypointStateType_Unlocked",
		"ScenarioLevelIdList": [
			401,
			402,
			403,
			404,
			405,
			406,
			407
		]
	},
	{
		"ID": 402,
		"Name": "Basic Training",
		"Desc": "",
		"FuncType": "CollectionActivityWaypointFuncType_Default",
		"WaypointsID": [
			415
		],
		"Model": "CollectionActivityMap/Waypoint1_ABS/Icon-ThePlace1_Prefab.prefab",
		"InitState": "CollectionActivityWaypointStateType_Unlocked",
		"LootLevelIdList": [
			401,
			402,
			403,
			404,
			405,
			406,
			407,
			408
		]
	},
	{
		"ID": 403,
		"Name": "Advanced Training",
		"Desc": "",
		"FuncType": "CollectionActivityWaypointFuncType_Default",
		"WaypointsID": [
			418,
			419
		],
		"Model": "CollectionActivityMap/Waypoint1_ABS/Icon-ThePlace1_Prefab.prefab",
		"InitState": "CollectionActivityWaypointStateType_Unlocked",
		"LootLevelIdList": [
			409,
			410,
			411,
			412,
			413,
			414,
			415,
			416
		]
	},
	{
		"ID": 404,
		"Name": "Challenge",
		"Desc": "",
		"FuncType": "CollectionActivityWaypointFuncType_Default",
		"WaypointsID": [
			429
		],
		"Model": "CollectionActivityMap/Waypoint1_ABS/Icon-ThePlace1_Prefab.prefab",
		"InitState": "CollectionActivityWaypointStateType_Unlocked",
		"ChallengeLevelIdList": [
			401,
			402,
			403,
			404,
			405,
			406,
			407
		]
	},
	{
		"ID": 410,
		"Name": "",
		"Desc": "",
		"WaypointsID": [
			411,
			401,
			413
		],
		"Model": "CollectionActivityMap/Waypoint1_ABS/Icon-ThePlace1_Prefab.prefab",
		"InitState": "CollectionActivityWaypointStateType_Unlocked"
	},
	{
		"ID": 411,
		"Name": "",
		"Desc": "",
		"WaypointsID": [
			410,
			412
		],
		"Model": "CollectionActivityMap/Waypoint1_ABS/Icon-ThePlace1_Prefab.prefab",
		"InitState": "CollectionActivityWaypointStateType_Unlocked"
	},
	{
		"ID": 412,
		"Name": "",
		"Desc": "",
		"WaypointsID": [
			411
		],
		"Model": "",
		"InitState": "CollectionActivityWaypointStateType_Unlocked"
	},
	{
		"ID": 413,
		"Name": "",
		"Desc": "",
		"WaypointsID": [
			410,
			414
		],
		"Model": "CollectionActivityMap/Waypoint1_ABS/Icon-ThePlace1_Prefab.prefab",
		"InitState": "CollectionActivityWaypointStateType_Unlocked"
	},
	{
		"ID": 414,
		"Name": "",
		"Desc": "",
		"WaypointsID": [
			413,
			415
		],
		"Model": "CollectionActivityMap/Waypoint1_ABS/Icon-ThePlace1_Prefab.prefab",
		"InitState": "CollectionActivityWaypointStateType_Unlocked"
	},
	{
		"ID": 415,
		"Name": "",
		"Desc": "",
		"WaypointsID": [
			416,
			402,
			414
		],
		"Model": "CollectionActivityMap/Waypoint1_ABS/Icon-ThePlace1_Prefab.prefab",
		"InitState": "CollectionActivityWaypointStateType_Unlocked"
	},
	{
		"ID": 416,
		"Name": "",
		"Desc": "",
		"WaypointsID": [
			417,
			418,
			415
		],
		"Model": "CollectionActivityMap/Waypoint1_ABS/Icon-ThePlace1_Prefab.prefab",
		"InitState": "CollectionActivityWaypointStateType_Unlocked"
	},
	{
		"ID": 417,
		"Name": "",
		"Desc": "",
		"WaypointsID": [
			416,
			418
		],
		"Model": "",
		"InitState": "CollectionActivityWaypointStateType_Unlocked"
	},
	{
		"ID": 418,
		"Name": "",
		"Desc": "",
		"WaypointsID": [
			416,
			419,
			403,
			417
		],
		"Model": "CollectionActivityMap/Waypoint1_ABS/Icon-ThePlace1_Prefab.prefab",
		"InitState": "CollectionActivityWaypointStateType_Unlocked"
	},
	{
		"ID": 419,
		"Name": "",
		"Desc": "",
		"WaypointsID": [
			418,
			403,
			420,
			422
		],
		"Model": "CollectionActivityMap/Waypoint1_ABS/Icon-ThePlace1_Prefab.prefab",
		"InitState": "CollectionActivityWaypointStateType_Unlocked"
	},
	{
		"ID": 420,
		"Name": "",
		"Desc": "",
		"WaypointsID": [
			421,
			419
		],
		"Model": "CollectionActivityMap/Waypoint1_ABS/Icon-ThePlace1_Prefab.prefab",
		"InitState": "CollectionActivityWaypointStateType_Unlocked"
	},
	{
		"ID": 421,
		"Name": "",
		"Desc": "",
		"WaypointsID": [
			420
		],
		"Model": "",
		"InitState": "CollectionActivityWaypointStateType_Unlocked"
	},
	{
		"ID": 422,
		"Name": "",
		"Desc": "",
		"WaypointsID": [
			419,
			423
		],
		"Model": "CollectionActivityMap/Waypoint1_ABS/Icon-ThePlace1_Prefab.prefab",
		"InitState": "CollectionActivityWaypointStateType_Unlocked"
	},
	{
		"ID": 423,
		"Name": "",
		"Desc": "",
		"WaypointsID": [
			422,
			424
		],
		"Model": "CollectionActivityMap/Waypoint1_ABS/Icon-ThePlace1_Prefab.prefab",
		"InitState": "CollectionActivityWaypointStateType_Unlocked"
	},
	{
		"ID": 424,
		"Name": "",
		"Desc": "",
		"WaypointsID": [
			423,
			425
		],
		"Model": "CollectionActivityMap/Waypoint1_ABS/Icon-ThePlace1_Prefab.prefab",
		"InitState": "CollectionActivityWaypointStateType_Unlocked"
	},
	{
		"ID": 425,
		"Name": "",
		"Desc": "",
		"WaypointsID": [
			424,
			426,
			427
		],
		"Model": "CollectionActivityMap/Waypoint1_ABS/Icon-ThePlace1_Prefab.prefab",
		"InitState": "CollectionActivityWaypointStateType_Unlocked"
	},
	{
		"ID": 426,
		"Name": "",
		"Desc": "",
		"WaypointsID": [
			425
		],
		"Model": "",
		"InitState": "CollectionActivityWaypointStateType_Unlocked"
	},
	{
		"ID": 427,
		"Name": "",
		"Desc": "",
		"WaypointsID": [
			425,
			428
		],
		"Model": "CollectionActivityMap/Waypoint1_ABS/Icon-ThePlace1_Prefab.prefab",
		"InitState": "CollectionActivityWaypointStateType_Unlocked"
	},
	{
		"ID": 428,
		"Name": "",
		"Desc": "",
		"WaypointsID": [
			427,
			429
		],
		"Model": "CollectionActivityMap/Waypoint1_ABS/Icon-ThePlace1_Prefab.prefab",
		"InitState": "CollectionActivityWaypointStateType_Unlocked"
	},
	{
		"ID": 429,
		"Name": "",
		"Desc": "",
		"WaypointsID": [
			404,
			428,
			430
		],
		"Model": "CollectionActivityMap/Waypoint1_ABS/Icon-ThePlace1_Prefab.prefab",
		"InitState": "CollectionActivityWaypointStateType_Unlocked"
	},
	{
		"ID": 430,
		"Name": "",
		"Desc": "",
		"WaypointsID": [
			429,
			431
		],
		"Model": "CollectionActivityMap/Waypoint1_ABS/Icon-ThePlace1_Prefab.prefab",
		"InitState": "CollectionActivityWaypointStateType_Unlocked"
	},
	{
		"ID": 431,
		"Name": "",
		"Desc": "",
		"WaypointsID": [
			430
		],
		"Model": "",
		"InitState": "CollectionActivityWaypointStateType_Unlocked"
	}
]