[
	{
		"ID": 1,
		"Name": "低级组",
		"MinPercent": 80,
		"MaxPercent": 90,
		"VictoryPoint": 1
	},
	{
		"ID": 2,
		"Name": "中级组",
		"MinPercent": 95,
		"MaxPercent": 105,
		"VictoryPoint": 2
	},
	{
		"ID": 3,
		"Name": "高级组",
		"MinPercent": 110,
		"MaxPercent": 120,
		"VictoryPoint": 3
	}
]