v 7.526462120210908e-09 1.0911463732554694e-08 -0.0996910110116005
v 0.20000001788139343 0.03901806101202965 -0.1961570382118225
v 7.381842692666396e-09 0.01944875344634056 -0.09777546674013138
v 0.20000001788139343 0.0 -0.19999997317790985
v 0.20000001788139343 0.07653669267892838 -0.18477588891983032
v 6.953543962850972e-09 0.03815009444952011 -0.09210247546434402
v 0.20000001788139343 0.11111404001712799 -0.1662939041852951
v 6.2580247650600995e-09 0.055385343730449677 -0.08289004862308502
v 0.20000001788139343 0.1414213478565216 -0.1414213329553604
v 5.322011720210185e-09 0.07049217075109482 -0.07049219310283661
v 0.19999998807907104 0.1662939190864563 -0.1111140102148056
v 4.181478274745132e-09 0.08289001882076263 -0.05538535863161087
v 0.19999998807907104 0.18477590382099152 -0.07653667032718658
v 2.880253147097278e-09 0.09210244566202164 -0.0381501130759716
v 0.19999998807907104 0.1961570531129837 -0.03901805728673935
v 1.4683418925187652e-09 0.09777543693780899 -0.0194487776607275
v 0.19999998807907104 0.19999998807907104 0.0
v 3.0734639195516755e-15 0.0996909812092781 -4.070926351573689e-08
v 0.19999998807907104 0.1961570531129837 0.03901805356144905
v -1.4683357862921298e-09 0.09777543693780899 0.019448697566986084
v -1.4683357862921298e-09 0.09777543693780899 0.019448697566986084
v 0.19999998807907104 0.18477590382099152 0.07653667032718658
v -2.88024737393755e-09 0.09210244566202164 0.038150034844875336
v 0.19999998807907104 0.1961570531129837 0.03901805356144905
v 0.19999998807907104 0.1662939190864563 0.11111405491828918
v -4.1814729456746136e-09 0.08289001882076263 0.0553852915763855
v 0.19999997317790985 0.1414213478565216 0.141421377658844
v -5.322006835228876e-09 0.07049217075109482 0.07049212604761124
v 0.19999997317790985 0.1111140325665474 0.1662939488887787
v -6.2580189919003715e-09 0.05538534000515938 0.08288997411727905
v 0.19999997317790985 0.07653665542602539 0.1847759336233139
v -6.953538189691244e-09 0.03815007582306862 0.09210240840911865
v 0.19999997317790985 0.039018016308546066 0.1961570680141449
v -7.381836475417458e-09 0.01944872923195362 0.09777539223432541
v 0.19999997317790985 -6.516827255609314e-08 0.20000001788139343
v -7.52645590296197e-09 -2.1571976205336796e-08 0.09969092905521393
v 0.19999997317790985 -0.039018142968416214 0.1961570531129837
v -7.381836475417458e-09 -0.019448772072792053 0.09777537733316422
v 0.19999997317790985 -0.07653677463531494 0.18477588891983032
v -6.953535969245195e-09 -0.0381501130759716 0.09210238605737686
v 0.19999997317790985 -0.11111413687467575 0.1662938892841339
v -6.258016771454322e-09 -0.05538536608219147 0.08288994431495667
v 0.19999997317790985 -0.14142145216464996 0.14142128825187683
v -5.322004170693617e-09 -0.07049219310283661 0.07049208134412766
v 0.19999998807907104 -0.16629399359226227 0.11111394315958023
v -4.181468948871725e-09 -0.08289004117250443 0.05538523942232132
v 0.19999998807907104 -0.1847759634256363 0.07653655111789703
v -2.8802429330454515e-09 -0.09210246056318283 0.03814997524023056
v 0.19999998807907104 -0.1961570829153061 0.03901790454983711
v -1.4683302351770067e-09 -0.09777543693780899 0.019448623061180115
v 0.19999998807907104 -0.19999998807907104 -1.7802024387947313e-07
v 9.772773919053315e-15 -0.09969095885753632 -1.2944431659889233e-07
v 0.19999998807907104 -0.19615700840950012 -0.03901825472712517
v 1.4683493310130302e-09 -0.097775399684906 -0.01944887824356556
v 0.19999998807907104 -0.18477579951286316 -0.0765368789434433
v 2.8802611407030554e-09 -0.09210238605737686 -0.03815021738409996
v 0.19999998807907104 -0.16629378497600555 -0.11111423373222351
v 4.181486712440119e-09 -0.08288993686437607 -0.055385470390319824
v 0.20000001788139343 -0.14142116904258728 -0.14142151176929474
v 5.322018381548332e-09 -0.07049205154180527 -0.07049227505922318
v 0.20000001788139343 -0.11111382395029068 -0.16629405319690704
v 6.2580305382198276e-09 -0.05538520589470863 -0.08289013057947159
v 0.20000001788139343 -0.07653641700744629 -0.18477599322795868
v 6.953547959653861e-09 -0.038149937987327576 -0.0921025350689888
v 0.20000001788139343 -0.03901776298880577 -0.1961570829153061
v 7.381844913112445e-09 -0.01944858208298683 -0.09777549654245377
vn -0.4483179748058319 3.3349775208080246e-07 -0.8938741683959961
vn -0.44831791520118713 0.1743861585855484 -0.8766986727714539
vn -0.4483180344104767 0.17438635230064392 -0.8766985535621643
vn -0.4483179748058319 2.939168837201578e-07 -0.8938741683959961
vn -0.4483179748058319 0.3420707881450653 -0.8258320093154907
vn -0.4483179748058319 0.34207072854042053 -0.8258320689201355
vn -0.4483180046081543 0.4966098666191101 -0.7432291507720947
vn -0.4483180046081543 0.4966098666191101 -0.7432291507720947
vn -0.4483180046081543 0.6320644021034241 -0.6320644617080688
vn -0.4483180046081543 0.6320645809173584 -0.6320642828941345
vn -0.4483180642127991 0.7432291507720947 -0.4966098666191101
vn -0.44831809401512146 0.7432291507720947 -0.49660974740982056
vn -0.4483180344104767 0.825831949710846 -0.3420707881450653
vn -0.44831812381744385 0.8258320093154907 -0.3420707583427429
vn -0.44831815361976624 0.8766984939575195 -0.17438621819019318
vn -0.44831815361976624 0.8766984939575195 -0.1743863821029663
vn -0.44831812381744385 0.8938740491867065 0.0
vn -0.4483182430267334 0.8938740491867065 0.0
vn -0.44831815361976624 0.8766984939575195 0.17438626289367676
vn -0.448318213224411 0.8766984939575195 0.17438629269599915
vn -0.448318213224411 0.8766984939575195 0.17438629269599915
vn -0.4483182430267334 0.825831949710846 0.34207066893577576
vn -0.4483181834220886 0.8258320093154907 0.34207049012184143
vn -0.44831815361976624 0.8766984939575195 0.17438626289367676
vn -0.4483182430267334 0.7432292699813843 0.49660953879356384
vn -0.4483182430267334 0.7432292699813843 0.4966094493865967
vn -0.4483183026313782 0.6320644617080688 0.6320642232894897
vn -0.44831833243370056 0.6320644021034241 0.6320642828941345
vn -0.44831833243370056 0.49660974740982056 0.7432290315628052
vn -0.44831836223602295 0.4966095983982086 0.74322909116745
vn -0.44831839203834534 0.34207049012184143 0.825831949710846
vn -0.44831839203834534 0.3420703709125519 0.825831949710846
vn -0.44831839203834534 0.1743858903646469 0.8766984343528748
vn -0.4483184218406677 0.17438602447509766 0.8766984343528748
vn -0.44831839203834534 -1.6165425620329188e-07 0.893873929977417
vn -0.4483184516429901 -2.1017304163706285e-07 0.893873929977417
vn -0.4483184516429901 -0.17438648641109467 0.8766982555389404
vn -0.44831836223602295 -0.17438668012619019 0.8766983151435852
vn -0.4483184218406677 -0.3420710265636444 0.8258317112922668
vn -0.4483184218406677 -0.34207096695899963 0.8258317112922668
vn -0.4483184516429901 -0.49661004543304443 0.7432287931442261
vn -0.4483184218406677 -0.49660998582839966 0.7432287931442261
vn -0.4483184516429901 -0.6320648193359375 0.6320638656616211
vn -0.44831836223602295 -0.6320646405220032 0.6320639848709106
vn -0.44831836223602295 -0.7432295083999634 0.496609091758728
vn -0.4483182728290558 -0.7432294487953186 0.4966091513633728
vn -0.4483182728290558 -0.825832188129425 0.342070072889328
vn -0.4483182728290558 -0.825832188129425 0.34206998348236084
vn -0.4483183026313782 -0.8766986131668091 0.17438548803329468
vn -0.4483182728290558 -0.8766985535621643 0.17438557744026184
vn -0.4483182430267334 -0.8938740491867065 -8.719538300283602e-07
vn -0.4483182430267334 -0.8938740491867065 -8.875905450622668e-07
vn -0.44831815361976624 -0.8766983151435852 -0.17438720166683197
vn -0.4483181834220886 -0.8766982555389404 -0.17438741028308868
vn -0.44831812381744385 -0.8258315324783325 -0.34207168221473694
vn -0.44831815361976624 -0.8258315920829773 -0.34207162261009216
vn -0.44831815361976624 -0.7432284951210022 -0.49661076068878174
vn -0.44831809401512146 -0.7432284951210022 -0.49661073088645935
vn -0.4483180344104767 -0.6320635676383972 -0.6320652961730957
vn -0.4483180344104767 -0.632063627243042 -0.6320652961730957
vn -0.4483180344104767 -0.4966089427471161 -0.7432298064231873
vn -0.4483180642127991 -0.496609091758728 -0.7432296872138977
vn -0.4483179748058319 -0.3420695662498474 -0.8258325457572937
vn -0.4483179748058319 -0.34206944704055786 -0.8258325457572937
vn -0.4483179748058319 -0.17438523471355438 -0.8766987919807434
vn -0.4483179748058319 -0.17438530921936035 -0.8766987919807434
vt 0.7178749442100525 0.9979999999050051
vt 0.7489999532699585 0.0020000338554382324
vt 0.7489999532699585 0.9979999999050051
vt 0.7178749442100525 0.0020000338554382324
vt 0.7801249623298645 0.0020000338554382324
vt 0.7801249623298645 0.9979999999050051
vt 0.8112499117851257 0.0020000338554382324
vt 0.8112499117851257 0.9979999999050051
vt 0.8423749804496765 0.0020000338554382324
vt 0.8423749804496765 0.9979999999050051
vt 0.8734999299049377 0.0020000338554382324
vt 0.8734999299049377 0.9979999999050051
vt 0.904624879360199 0.0020000338554382324
vt 0.904624879360199 0.9979999999050051
vt 0.9357499480247498 0.0020000338554382324
vt 0.9357499480247498 0.9979999999050051
vt 0.966874897480011 0.0020000338554382324
vt 0.966874897480011 0.9979999999050051
vt 0.9979999661445618 0.0020000338554382324
vt 0.9979999661445618 0.9979999999050051
vt 0.0020000000949949026 0.9979999999050051
vt 0.03312499821186066 0.0020000338554382324
vt 0.03312499821186066 0.9979999999050051
vt 0.0020000000949949026 0.0020000338554382324
vt 0.06424999982118607 0.0020000338554382324
vt 0.06424999982118607 0.9979999999050051
vt 0.09537499397993088 0.0020000338554382324
vt 0.09537499397993088 0.9979999999050051
vt 0.1264999955892563 0.0020000338554382324
vt 0.1264999955892563 0.9979999999050051
vt 0.15762503445148468 0.0020000338554382324
vt 0.15762503445148468 0.9979999999050051
vt 0.18875005841255188 0.0020000338554382324
vt 0.18875005841255188 0.9979999999050051
vt 0.21987506747245789 0.0020000338554382324
vt 0.21987506747245789 0.9979999999050051
vt 0.2510000765323639 0.0020000338554382324
vt 0.2510000765323639 0.9979999999050051
vt 0.2821250855922699 0.0020000338554382324
vt 0.2821250855922699 0.9979999999050051
vt 0.3132500946521759 0.0020000338554382324
vt 0.3132500946521759 0.9979999999050051
vt 0.3443751037120819 0.0020000338554382324
vt 0.3443751037120819 0.9979999999050051
vt 0.3755001127719879 0.0020000338554382324
vt 0.3755001127719879 0.9979999999050051
vt 0.4066251218318939 0.0020000338554382324
vt 0.4066251218318939 0.9979999999050051
vt 0.4377501308917999 0.0020000338554382324
vt 0.4377501308917999 0.9979999999050051
vt 0.46887511014938354 0.0020000338554382324
vt 0.46887511014938354 0.9979999999050051
vt 0.5000001788139343 0.0020000338554382324
vt 0.5000001788139343 0.9979999999050051
vt 0.5311251282691956 0.0020000338554382324
vt 0.5311251282691956 0.9979999999050051
vt 0.5622501373291016 0.0020000338554382324
vt 0.5622501373291016 0.9979999999050051
vt 0.5933751463890076 0.0020000338554382324
vt 0.5933751463890076 0.9979999999050051
vt 0.6245002150535583 0.0020000338554382324
vt 0.6245002150535583 0.9979999999050051
vt 0.6556252241134644 0.0020000338554382324
vt 0.6556252241134644 0.9979999999050051
vt 0.6867501735687256 0.0020000338554382324
vt 0.6867501735687256 0.9979999999050051

g Mesh_FX_Cone_01
s 1
usemtl Mesh_FX_Cone_01
f 3/3/3 2/2/2 1/1/1 
f 4/4/4 1/1/1 2/2/2 
f 2/2/2 3/3/3 5/5/5 
f 6/6/6 5/5/5 3/3/3 
f 5/5/5 6/6/6 7/7/7 
f 8/8/8 7/7/7 6/6/6 
f 7/7/7 8/8/8 9/9/9 
f 10/10/10 9/9/9 8/8/8 
f 9/9/9 10/10/10 11/11/11 
f 12/12/12 11/11/11 10/10/10 
f 11/11/11 12/12/12 13/13/13 
f 14/14/14 13/13/13 12/12/12 
f 13/13/13 14/14/14 15/15/15 
f 16/16/16 15/15/15 14/14/14 
f 15/15/15 16/16/16 17/17/17 
f 18/18/18 17/17/17 16/16/16 
f 17/17/17 18/18/18 19/19/19 
f 20/20/20 19/19/19 18/18/18 
f 23/23/23 22/22/22 21/21/21 
f 24/24/24 21/21/21 22/22/22 
f 22/22/22 23/23/23 25/25/25 
f 26/26/26 25/25/25 23/23/23 
f 25/25/25 26/26/26 27/27/27 
f 28/28/28 27/27/27 26/26/26 
f 27/27/27 28/28/28 29/29/29 
f 30/30/30 29/29/29 28/28/28 
f 29/29/29 30/30/30 31/31/31 
f 32/32/32 31/31/31 30/30/30 
f 31/31/31 32/32/32 33/33/33 
f 34/34/34 33/33/33 32/32/32 
f 33/33/33 34/34/34 35/35/35 
f 36/36/36 35/35/35 34/34/34 
f 35/35/35 36/36/36 37/37/37 
f 38/38/38 37/37/37 36/36/36 
f 37/37/37 38/38/38 39/39/39 
f 40/40/40 39/39/39 38/38/38 
f 39/39/39 40/40/40 41/41/41 
f 42/42/42 41/41/41 40/40/40 
f 41/41/41 42/42/42 43/43/43 
f 44/44/44 43/43/43 42/42/42 
f 43/43/43 44/44/44 45/45/45 
f 46/46/46 45/45/45 44/44/44 
f 45/45/45 46/46/46 47/47/47 
f 48/48/48 47/47/47 46/46/46 
f 47/47/47 48/48/48 49/49/49 
f 50/50/50 49/49/49 48/48/48 
f 49/49/49 50/50/50 51/51/51 
f 52/52/52 51/51/51 50/50/50 
f 51/51/51 52/52/52 53/53/53 
f 54/54/54 53/53/53 52/52/52 
f 53/53/53 54/54/54 55/55/55 
f 56/56/56 55/55/55 54/54/54 
f 55/55/55 56/56/56 57/57/57 
f 58/58/58 57/57/57 56/56/56 
f 57/57/57 58/58/58 59/59/59 
f 60/60/60 59/59/59 58/58/58 
f 59/59/59 60/60/60 61/61/61 
f 62/62/62 61/61/61 60/60/60 
f 61/61/61 62/62/62 63/63/63 
f 64/64/64 63/63/63 62/62/62 
f 63/63/63 64/64/64 65/65/65 
f 66/66/66 65/65/65 64/64/64 
f 65/65/65 66/66/66 4/4/4 
f 1/1/1 4/4/4 66/66/66 

